%!PS-Adobe-2.0 EPSF-2.0
%%Title: /home/imcinerney/Documents/Latex/Research/Trilateration/Diagrams/OverlappingCircles.dia
%%Creator: Dia v0.97.3
%%CreationDate: Sat Oct 29 23:45:38 2016
%%For: imcinerney
%%Orientation: Portrait
%%Magnification: 1.0000
%%BoundingBox: 0 0 773 817
%%BeginSetup
%%EndSetup
%%EndComments
%%BeginProlog
[ /.notdef /.notdef /.notdef /.notdef /.notdef /.notdef /.notdef /.notdef /.notdef /.notdef
/.notdef /.notdef /.notdef /.notdef /.notdef /.notdef /.notdef /.notdef /.notdef /.notdef
/.notdef /.notdef /.notdef /.notdef /.notdef /.notdef /.notdef /.notdef /.notdef /.notdef
/.notdef /.notdef /space /exclam /quotedbl /numbersign /dollar /percent /ampersand /quoteright
/parenleft /parenright /asterisk /plus /comma /hyphen /period /slash /zero /one
/two /three /four /five /six /seven /eight /nine /colon /semicolon
/less /equal /greater /question /at /A /B /C /D /E
/F /G /H /I /J /K /L /M /N /O
/P /Q /R /S /T /U /V /W /X /Y
/Z /bracketleft /backslash /bracketright /asciicircum /underscore /quoteleft /a /b /c
/d /e /f /g /h /i /j /k /l /m
/n /o /p /q /r /s /t /u /v /w
/x /y /z /braceleft /bar /braceright /asciitilde /.notdef /.notdef /.notdef
/.notdef /.notdef /.notdef /.notdef /.notdef /.notdef /.notdef /.notdef /.notdef /.notdef
/.notdef /.notdef /.notdef /.notdef /.notdef /.notdef /.notdef /.notdef /.notdef /.notdef
/.notdef /.notdef /.notdef /.notdef /.notdef /.notdef /.notdef /.notdef /.notdef /.notdef
/space /exclamdown /cent /sterling /currency /yen /brokenbar /section /dieresis /copyright
/ordfeminine /guillemotleft /logicalnot /hyphen /registered /macron /degree /plusminus /twosuperior /threesuperior
/acute /mu /paragraph /periodcentered /cedilla /onesuperior /ordmasculine /guillemotright /onequarter /onehalf
/threequarters /questiondown /Agrave /Aacute /Acircumflex /Atilde /Adieresis /Aring /AE /Ccedilla
/Egrave /Eacute /Ecircumflex /Edieresis /Igrave /Iacute /Icircumflex /Idieresis /Eth /Ntilde
/Ograve /Oacute /Ocircumflex /Otilde /Odieresis /multiply /Oslash /Ugrave /Uacute /Ucircumflex
/Udieresis /Yacute /Thorn /germandbls /agrave /aacute /acircumflex /atilde /adieresis /aring
/ae /ccedilla /egrave /eacute /ecircumflex /edieresis /igrave /iacute /icircumflex /idieresis
/eth /ntilde /ograve /oacute /ocircumflex /otilde /odieresis /divide /oslash /ugrave
/uacute /ucircumflex /udieresis /yacute /thorn /ydieresis] /isolatin1encoding exch def
/cp {closepath} bind def
/c {curveto} bind def
/f {fill} bind def
/a {arc} bind def
/ef {eofill} bind def
/ex {exch} bind def
/gr {grestore} bind def
/gs {gsave} bind def
/sa {save} bind def
/rs {restore} bind def
/l {lineto} bind def
/m {moveto} bind def
/rm {rmoveto} bind def
/n {newpath} bind def
/s {stroke} bind def
/sh {show} bind def
/slc {setlinecap} bind def
/slj {setlinejoin} bind def
/slw {setlinewidth} bind def
/srgb {setrgbcolor} bind def
/rot {rotate} bind def
/sc {scale} bind def
/sd {setdash} bind def
/ff {findfont} bind def
/sf {setfont} bind def
/scf {scalefont} bind def
/sw {stringwidth pop} bind def
/tr {translate} bind def

/ellipsedict 8 dict def
ellipsedict /mtrx matrix put
/ellipse
{ ellipsedict begin
   /endangle exch def
   /startangle exch def
   /yrad exch def
   /xrad exch def
   /y exch def
   /x exch def   /savematrix mtrx currentmatrix def
   x y tr xrad yrad sc
   0 0 1 startangle endangle arc
   savematrix setmatrix
   end
} def

/mergeprocs {
dup length
3 -1 roll
dup
length
dup
5 1 roll
3 -1 roll
add
array cvx
dup
3 -1 roll
0 exch
putinterval
dup
4 2 roll
putinterval
} bind def
/dpi_x 300 def
/dpi_y 300 def
/conicto {
    /to_y exch def
    /to_x exch def
    /conic_cntrl_y exch def
    /conic_cntrl_x exch def
    currentpoint
    /p0_y exch def
    /p0_x exch def
    /p1_x p0_x conic_cntrl_x p0_x sub 2 3 div mul add def
    /p1_y p0_y conic_cntrl_y p0_y sub 2 3 div mul add def
    /p2_x p1_x to_x p0_x sub 1 3 div mul add def
    /p2_y p1_y to_y p0_y sub 1 3 div mul add def
    p1_x p1_y p2_x p2_y to_x to_y curveto
} bind def
/start_ol { gsave 1.1 dpi_x div dup scale} bind def
/end_ol { closepath fill grestore } bind def
28.346000 -28.346000 scale
2.070000 -30.201803 translate
%%EndProlog


0.100000 slw
[1.000000] 0 sd
[1.000000] 0 sd
0 slc
0 slj
0.100000 slw
0 slc
0 slj
[1.000000] 0 sd
0.000000 0.000000 0.000000 srgb
n 5.578627 14.803627 7.598627 7.598627 0 360 ellipse cp s
0 slc
0 slj
[1.000000] 0 sd
n 5.578627 14.803627 7.598627 7.598627 0 360 ellipse cp s
0.100000 slw
[] 0 sd
[] 0 sd
0 slc
n 5.578627 14.803627 m 5.578630 7.691803 l s
[] 0 sd
0 slj
0 slc
n 5.578630 7.316803 m 5.828630 7.816804 l 5.578630 7.691803 l 5.328630 7.816803 l ef
n 5.578630 7.316803 m 5.828630 7.816804 l 5.578630 7.691803 l 5.328630 7.816803 l cp s
gsave 5.736250 12.142500 translate 0.035278 -0.035278 scale
start_ol
1984 2304 moveto
1912 2337 1828 2352 conicto
1744 2368 1642 2368 conicto
1282 2368 1089 2127 conicto
896 1887 896 1437 conicto
896 0 lineto
448 0 lineto
448 2688 lineto
896 2688 lineto
896 2304 lineto
1030 2531 1245 2641 conicto
1460 2752 1767 2752 conicto
1811 2752 1864 2752 conicto
1917 2752 1982 2752 conicto
1984 2304 lineto
end_ol grestore 
gsave 5.998502 12.142500 translate 0.035278 -0.035278 scale
start_ol
938 384 moveto
2643 384 lineto
2643 0 lineto
384 0 lineto
384 384 lineto
654 668 1119 1146 conicto
1584 1625 1704 1763 conicto
1931 2023 2021 2203 conicto
2112 2384 2112 2558 conicto
2112 2842 1913 3021 conicto
1715 3200 1397 3200 conicto
1171 3200 920 3104 conicto
669 3009 384 2816 conicto
384 3328 lineto
678 3455 933 3519 conicto
1188 3584 1400 3584 conicto
1959 3584 2291 3309 conicto
2624 3034 2624 2574 conicto
2624 2356 2540 2160 conicto
2457 1965 2237 1700 conicto
2177 1631 1852 1302 conicto
1528 974 938 384 conicto
end_ol grestore 
0.100000 slw
[] 0 sd
[] 0 sd
0 slc
0 slj
0.100000 slw
0 slc
0 slj
[] 0 sd
n 5.580000 14.680000 0.325000 0.325000 0 360 ellipse f
n 5.580000 14.680000 0.325000 0.325000 0 360 ellipse cp s
0 slc
0 slj
[] 0 sd
n 5.580000 14.680000 0.325000 0.325000 0 360 ellipse cp s
gsave 5.128630 15.653600 translate 0.035278 -0.035278 scale
start_ol
960 3136 moveto
960 1792 lineto
1552 1792 lineto
1881 1792 2060 1967 conicto
2240 2142 2240 2465 conicto
2240 2786 2060 2961 conicto
1881 3136 1552 3136 conicto
960 3136 lineto
448 3520 moveto
1552 3520 lineto
2145 3520 2448 3251 conicto
2752 2983 2752 2465 conicto
2752 1943 2448 1675 conicto
2145 1408 1552 1408 conicto
960 1408 lineto
960 0 lineto
448 0 lineto
448 3520 lineto
end_ol grestore 
gsave 5.513268 15.653600 translate 0.035278 -0.035278 scale
start_ol
938 384 moveto
2643 384 lineto
2643 0 lineto
384 0 lineto
384 384 lineto
654 668 1119 1146 conicto
1584 1625 1704 1763 conicto
1931 2023 2021 2203 conicto
2112 2384 2112 2558 conicto
2112 2842 1913 3021 conicto
1715 3200 1397 3200 conicto
1171 3200 920 3104 conicto
669 3009 384 2816 conicto
384 3328 lineto
678 3455 933 3519 conicto
1188 3584 1400 3584 conicto
1959 3584 2291 3309 conicto
2624 3034 2624 2574 conicto
2624 2356 2540 2160 conicto
2457 1965 2237 1700 conicto
2177 1631 1852 1302 conicto
1528 974 938 384 conicto
end_ol grestore 
0.100000 slw
[1.000000] 0 sd
[1.000000] 0 sd
0 slc
0 slj
0.100000 slw
0 slc
0 slj
[1.000000] 0 sd
n 16.359380 10.275000 8.775000 8.775000 0 360 ellipse cp s
0 slc
0 slj
[1.000000] 0 sd
n 16.359380 10.275000 8.775000 8.775000 0 360 ellipse cp s
0.100000 slw
[1.000000] 0 sd
[1.000000] 0 sd
0 slc
0 slj
0.100000 slw
0 slc
0 slj
[1.000000] 0 sd
n 11.112497 21.717497 8.372497 8.372497 0 360 ellipse cp s
0 slc
0 slj
[1.000000] 0 sd
n 11.112497 21.717497 8.372497 8.372497 0 360 ellipse cp s
0.100000 slw
[] 0 sd
[] 0 sd
0 slc
n 11.112497 21.717497 m 11.112500 29.603197 l s
[] 0 sd
0 slj
0 slc
n 11.112500 29.978197 m 10.862500 29.478197 l 11.112500 29.603197 l 11.362500 29.478197 l ef
n 11.112500 29.978197 m 10.862500 29.478197 l 11.112500 29.603197 l 11.362500 29.478197 l cp s
gsave 11.477500 26.033800 translate 0.035278 -0.035278 scale
start_ol
1984 2304 moveto
1912 2337 1828 2352 conicto
1744 2368 1642 2368 conicto
1282 2368 1089 2127 conicto
896 1887 896 1437 conicto
896 0 lineto
448 0 lineto
448 2688 lineto
896 2688 lineto
896 2304 lineto
1030 2531 1245 2641 conicto
1460 2752 1767 2752 conicto
1811 2752 1864 2752 conicto
1917 2752 1982 2752 conicto
1984 2304 lineto
end_ol grestore 
gsave 11.739752 26.033800 translate 0.035278 -0.035278 scale
start_ol
1897 1936 moveto
2269 1862 2478 1627 conicto
2688 1392 2688 1046 conicto
2688 516 2331 226 conicto
1975 -64 1319 -64 conicto
1099 -64 865 -16 conicto
632 32 384 128 conicto
384 576 lineto
576 449 805 384 conicto
1035 320 1285 320 conicto
1720 320 1948 504 conicto
2176 688 2176 1039 conicto
2176 1363 1967 1545 conicto
1759 1728 1388 1728 conicto
1024 1728 lineto
1024 2112 lineto
1405 2112 lineto
1717 2112 1882 2250 conicto
2048 2388 2048 2648 conicto
2048 2915 1877 3057 conicto
1706 3200 1388 3200 conicto
1200 3200 985 3153 conicto
770 3107 512 3008 conicto
512 3456 lineto
773 3520 1001 3552 conicto
1229 3584 1431 3584 conicto
1952 3584 2256 3343 conicto
2560 3102 2560 2692 conicto
2560 2406 2387 2209 conicto
2215 2012 1897 1936 conicto
end_ol grestore 
0.100000 slw
[] 0 sd
[] 0 sd
0 slc
0 slj
0.100000 slw
0 slc
0 slj
[] 0 sd
n 11.140000 21.740000 0.325000 0.325000 0 360 ellipse f
n 11.140000 21.740000 0.325000 0.325000 0 360 ellipse cp s
0 slc
0 slj
[] 0 sd
n 11.140000 21.740000 0.325000 0.325000 0 360 ellipse cp s
gsave 11.790000 21.915000 translate 0.035278 -0.035278 scale
start_ol
960 3136 moveto
960 1792 lineto
1552 1792 lineto
1881 1792 2060 1967 conicto
2240 2142 2240 2465 conicto
2240 2786 2060 2961 conicto
1881 3136 1552 3136 conicto
960 3136 lineto
448 3520 moveto
1552 3520 lineto
2145 3520 2448 3251 conicto
2752 2983 2752 2465 conicto
2752 1943 2448 1675 conicto
2145 1408 1552 1408 conicto
960 1408 lineto
960 0 lineto
448 0 lineto
448 3520 lineto
end_ol grestore 
gsave 12.174638 21.915000 translate 0.035278 -0.035278 scale
start_ol
1897 1936 moveto
2269 1862 2478 1627 conicto
2688 1392 2688 1046 conicto
2688 516 2331 226 conicto
1975 -64 1319 -64 conicto
1099 -64 865 -16 conicto
632 32 384 128 conicto
384 576 lineto
576 449 805 384 conicto
1035 320 1285 320 conicto
1720 320 1948 504 conicto
2176 688 2176 1039 conicto
2176 1363 1967 1545 conicto
1759 1728 1388 1728 conicto
1024 1728 lineto
1024 2112 lineto
1405 2112 lineto
1717 2112 1882 2250 conicto
2048 2388 2048 2648 conicto
2048 2915 1877 3057 conicto
1706 3200 1388 3200 conicto
1200 3200 985 3153 conicto
770 3107 512 3008 conicto
512 3456 lineto
773 3520 1001 3552 conicto
1229 3584 1431 3584 conicto
1952 3584 2256 3343 conicto
2560 3102 2560 2692 conicto
2560 2406 2387 2209 conicto
2215 2012 1897 1936 conicto
end_ol grestore 
0.100000 slw
[] 0 sd
[] 0 sd
0 slc
0 slj
0.100000 slw
0 slc
0 slj
[] 0 sd
n 11.125000 15.175000 0.275000 0.275000 0 360 ellipse f
n 11.125000 15.175000 0.275000 0.275000 0 360 ellipse cp s
0 slc
0 slj
[] 0 sd
n 11.125000 15.175000 0.275000 0.275000 0 360 ellipse cp s
0.100000 slw
[1.000000] 0 sd
[0.250000] 0 sd
0 slc
n 13.177300 14.803600 m 11.892627 15.036084 l s
[] 0 sd
0 slj
0 slc
n 11.523621 15.102862 m 11.971111 14.767821 l 11.892627 15.036084 l 12.060148 15.259829 l ef
n 11.523621 15.102862 m 11.971111 14.767821 l 11.892627 15.036084 l 12.060148 15.259829 l cp s
0.100000 slw
[0.250000] 0 sd
[0.250000] 0 sd
0 slc
n 9.980000 16.250000 m 10.535286 15.728662 l s
[] 0 sd
0 slj
0 slc
n 10.808676 15.471985 m 10.615274 15.996480 l 10.535286 15.728662 l 10.273038 15.631960 l ef
n 10.808676 15.471985 m 10.615274 15.996480 l 10.535286 15.728662 l 10.273038 15.631960 l cp s
0.100000 slw
[0.250000] 0 sd
[0.250000] 0 sd
0 slc
n 11.112500 13.345000 m 11.121087 14.413212 l s
[] 0 sd
0 slj
0 slc
n 11.124101 14.788200 m 10.870090 14.290226 l 11.121087 14.413212 l 11.370074 14.286207 l ef
n 11.124101 14.788200 m 10.870090 14.290226 l 11.121087 14.413212 l 11.370074 14.286207 l cp s
gsave 10.550000 16.450000 translate 0.035278 -0.035278 scale
start_ol
1622 1344 moveto
1104 1344 904 1225 conicto
704 1106 704 818 conicto
704 589 854 454 conicto
1004 320 1262 320 conicto
1618 320 1833 572 conicto
2048 825 2048 1244 conicto
2048 1344 lineto
1622 1344 lineto
2496 1513 moveto
2496 0 lineto
2048 0 lineto
2048 384 lineto
1900 154 1679 45 conicto
1458 -64 1138 -64 conicto
733 -64 494 162 conicto
256 389 256 769 conicto
256 1213 555 1438 conicto
854 1664 1448 1664 conicto
2048 1664 lineto
2048 1712 lineto
2048 2025 1851 2196 conicto
1655 2368 1300 2368 conicto
1074 2368 860 2320 conicto
646 2272 448 2176 conicto
448 2560 lineto
687 2656 912 2704 conicto
1138 2752 1351 2752 conicto
1927 2752 2211 2444 conicto
2496 2137 2496 1513 conicto
end_ol grestore 
gsave 10.942129 16.450000 translate 0.035278 -0.035278 scale
start_ol
640 384 moveto
1408 384 lineto
1408 3136 lineto
576 2944 lineto
576 3328 lineto
1434 3520 lineto
1920 3520 lineto
1920 384 lineto
2688 384 lineto
2688 0 lineto
640 0 lineto
640 384 lineto
end_ol grestore 
0.100000 slw
[] 0 sd
[] 0 sd
0 slc
n 16.359380 10.275000 m 16.359399 1.986803 l s
[] 0 sd
0 slj
0 slc
n 16.359400 1.611803 m 16.609399 2.111804 l 16.359399 1.986803 l 16.109399 2.111803 l ef
n 16.359400 1.611803 m 16.609399 2.111804 l 16.359399 1.986803 l 16.109399 2.111803 l cp s
gsave 17.000000 10.350000 translate 0.035278 -0.035278 scale
start_ol
960 3136 moveto
960 1792 lineto
1552 1792 lineto
1881 1792 2060 1967 conicto
2240 2142 2240 2465 conicto
2240 2786 2060 2961 conicto
1881 3136 1552 3136 conicto
960 3136 lineto
448 3520 moveto
1552 3520 lineto
2145 3520 2448 3251 conicto
2752 2983 2752 2465 conicto
2752 1943 2448 1675 conicto
2145 1408 1552 1408 conicto
960 1408 lineto
960 0 lineto
448 0 lineto
448 3520 lineto
end_ol grestore 
gsave 17.384638 10.350000 translate 0.035278 -0.035278 scale
start_ol
640 384 moveto
1408 384 lineto
1408 3136 lineto
576 2944 lineto
576 3328 lineto
1434 3520 lineto
1920 3520 lineto
1920 384 lineto
2688 384 lineto
2688 0 lineto
640 0 lineto
640 384 lineto
end_ol grestore 
gsave 16.637500 6.006250 translate 0.035278 -0.035278 scale
start_ol
1984 2304 moveto
1912 2337 1828 2352 conicto
1744 2368 1642 2368 conicto
1282 2368 1089 2127 conicto
896 1887 896 1437 conicto
896 0 lineto
448 0 lineto
448 2688 lineto
896 2688 lineto
896 2304 lineto
1030 2531 1245 2641 conicto
1460 2752 1767 2752 conicto
1811 2752 1864 2752 conicto
1917 2752 1982 2752 conicto
1984 2304 lineto
end_ol grestore 
gsave 16.899752 6.006250 translate 0.035278 -0.035278 scale
start_ol
640 384 moveto
1408 384 lineto
1408 3136 lineto
576 2944 lineto
576 3328 lineto
1434 3520 lineto
1920 3520 lineto
1920 384 lineto
2688 384 lineto
2688 0 lineto
640 0 lineto
640 384 lineto
end_ol grestore 
0.100000 slw
[] 0 sd
[] 0 sd
0 slc
0 slj
0.100000 slw
0 slc
0 slj
[] 0 sd
n 16.400000 10.225000 0.325000 0.325000 0 360 ellipse f
n 16.400000 10.225000 0.325000 0.325000 0 360 ellipse cp s
0 slc
0 slj
[] 0 sd
n 16.400000 10.225000 0.325000 0.325000 0 360 ellipse cp s
gsave 12.150000 15.500000 translate 0.035278 -0.035278 scale
start_ol
1622 1344 moveto
1104 1344 904 1225 conicto
704 1106 704 818 conicto
704 589 854 454 conicto
1004 320 1262 320 conicto
1618 320 1833 572 conicto
2048 825 2048 1244 conicto
2048 1344 lineto
1622 1344 lineto
2496 1513 moveto
2496 0 lineto
2048 0 lineto
2048 384 lineto
1900 154 1679 45 conicto
1458 -64 1138 -64 conicto
733 -64 494 162 conicto
256 389 256 769 conicto
256 1213 555 1438 conicto
854 1664 1448 1664 conicto
2048 1664 lineto
2048 1712 lineto
2048 2025 1851 2196 conicto
1655 2368 1300 2368 conicto
1074 2368 860 2320 conicto
646 2272 448 2176 conicto
448 2560 lineto
687 2656 912 2704 conicto
1138 2752 1351 2752 conicto
1927 2752 2211 2444 conicto
2496 2137 2496 1513 conicto
end_ol grestore 
gsave 12.542129 15.500000 translate 0.035278 -0.035278 scale
start_ol
938 384 moveto
2643 384 lineto
2643 0 lineto
384 0 lineto
384 384 lineto
654 668 1119 1146 conicto
1584 1625 1704 1763 conicto
1931 2023 2021 2203 conicto
2112 2384 2112 2558 conicto
2112 2842 1913 3021 conicto
1715 3200 1397 3200 conicto
1171 3200 920 3104 conicto
669 3009 384 2816 conicto
384 3328 lineto
678 3455 933 3519 conicto
1188 3584 1400 3584 conicto
1959 3584 2291 3309 conicto
2624 3034 2624 2574 conicto
2624 2356 2540 2160 conicto
2457 1965 2237 1700 conicto
2177 1631 1852 1302 conicto
1528 974 938 384 conicto
end_ol grestore 
gsave 10.110000 14.105000 translate 0.035278 -0.035278 scale
start_ol
1622 1344 moveto
1104 1344 904 1225 conicto
704 1106 704 818 conicto
704 589 854 454 conicto
1004 320 1262 320 conicto
1618 320 1833 572 conicto
2048 825 2048 1244 conicto
2048 1344 lineto
1622 1344 lineto
2496 1513 moveto
2496 0 lineto
2048 0 lineto
2048 384 lineto
1900 154 1679 45 conicto
1458 -64 1138 -64 conicto
733 -64 494 162 conicto
256 389 256 769 conicto
256 1213 555 1438 conicto
854 1664 1448 1664 conicto
2048 1664 lineto
2048 1712 lineto
2048 2025 1851 2196 conicto
1655 2368 1300 2368 conicto
1074 2368 860 2320 conicto
646 2272 448 2176 conicto
448 2560 lineto
687 2656 912 2704 conicto
1138 2752 1351 2752 conicto
1927 2752 2211 2444 conicto
2496 2137 2496 1513 conicto
end_ol grestore 
gsave 10.502129 14.105000 translate 0.035278 -0.035278 scale
start_ol
1897 1936 moveto
2269 1862 2478 1627 conicto
2688 1392 2688 1046 conicto
2688 516 2331 226 conicto
1975 -64 1319 -64 conicto
1099 -64 865 -16 conicto
632 32 384 128 conicto
384 576 lineto
576 449 805 384 conicto
1035 320 1285 320 conicto
1720 320 1948 504 conicto
2176 688 2176 1039 conicto
2176 1363 1967 1545 conicto
1759 1728 1388 1728 conicto
1024 1728 lineto
1024 2112 lineto
1405 2112 lineto
1717 2112 1882 2250 conicto
2048 2388 2048 2648 conicto
2048 2915 1877 3057 conicto
1706 3200 1388 3200 conicto
1200 3200 985 3153 conicto
770 3107 512 3008 conicto
512 3456 lineto
773 3520 1001 3552 conicto
1229 3584 1431 3584 conicto
1952 3584 2256 3343 conicto
2560 3102 2560 2692 conicto
2560 2406 2387 2209 conicto
2215 2012 1897 1936 conicto
end_ol grestore 
showpage
