%!PS-Adobe-2.0 EPSF-2.0
%%Title: /home/imcinerney/Documents/Latex/Research/Trilateration/Diagrams/IdealCircles.dia
%%Creator: Dia v0.97.3
%%CreationDate: Sat Oct 29 23:45:26 2016
%%For: imcinerney
%%Orientation: Portrait
%%Magnification: 1.0000
%%BoundingBox: 0 0 566 439
%%BeginSetup
%%EndSetup
%%EndComments
%%BeginProlog
[ /.notdef /.notdef /.notdef /.notdef /.notdef /.notdef /.notdef /.notdef /.notdef /.notdef
/.notdef /.notdef /.notdef /.notdef /.notdef /.notdef /.notdef /.notdef /.notdef /.notdef
/.notdef /.notdef /.notdef /.notdef /.notdef /.notdef /.notdef /.notdef /.notdef /.notdef
/.notdef /.notdef /space /exclam /quotedbl /numbersign /dollar /percent /ampersand /quoteright
/parenleft /parenright /asterisk /plus /comma /hyphen /period /slash /zero /one
/two /three /four /five /six /seven /eight /nine /colon /semicolon
/less /equal /greater /question /at /A /B /C /D /E
/F /G /H /I /J /K /L /M /N /O
/P /Q /R /S /T /U /V /W /X /Y
/Z /bracketleft /backslash /bracketright /asciicircum /underscore /quoteleft /a /b /c
/d /e /f /g /h /i /j /k /l /m
/n /o /p /q /r /s /t /u /v /w
/x /y /z /braceleft /bar /braceright /asciitilde /.notdef /.notdef /.notdef
/.notdef /.notdef /.notdef /.notdef /.notdef /.notdef /.notdef /.notdef /.notdef /.notdef
/.notdef /.notdef /.notdef /.notdef /.notdef /.notdef /.notdef /.notdef /.notdef /.notdef
/.notdef /.notdef /.notdef /.notdef /.notdef /.notdef /.notdef /.notdef /.notdef /.notdef
/space /exclamdown /cent /sterling /currency /yen /brokenbar /section /dieresis /copyright
/ordfeminine /guillemotleft /logicalnot /hyphen /registered /macron /degree /plusminus /twosuperior /threesuperior
/acute /mu /paragraph /periodcentered /cedilla /onesuperior /ordmasculine /guillemotright /onequarter /onehalf
/threequarters /questiondown /Agrave /Aacute /Acircumflex /Atilde /Adieresis /Aring /AE /Ccedilla
/Egrave /Eacute /Ecircumflex /Edieresis /Igrave /Iacute /Icircumflex /Idieresis /Eth /Ntilde
/Ograve /Oacute /Ocircumflex /Otilde /Odieresis /multiply /Oslash /Ugrave /Uacute /Ucircumflex
/Udieresis /Yacute /Thorn /germandbls /agrave /aacute /acircumflex /atilde /adieresis /aring
/ae /ccedilla /egrave /eacute /ecircumflex /edieresis /igrave /iacute /icircumflex /idieresis
/eth /ntilde /ograve /oacute /ocircumflex /otilde /odieresis /divide /oslash /ugrave
/uacute /ucircumflex /udieresis /yacute /thorn /ydieresis] /isolatin1encoding exch def
/cp {closepath} bind def
/c {curveto} bind def
/f {fill} bind def
/a {arc} bind def
/ef {eofill} bind def
/ex {exch} bind def
/gr {grestore} bind def
/gs {gsave} bind def
/sa {save} bind def
/rs {restore} bind def
/l {lineto} bind def
/m {moveto} bind def
/rm {rmoveto} bind def
/n {newpath} bind def
/s {stroke} bind def
/sh {show} bind def
/slc {setlinecap} bind def
/slj {setlinejoin} bind def
/slw {setlinewidth} bind def
/srgb {setrgbcolor} bind def
/rot {rotate} bind def
/sc {scale} bind def
/sd {setdash} bind def
/ff {findfont} bind def
/sf {setfont} bind def
/scf {scalefont} bind def
/sw {stringwidth pop} bind def
/tr {translate} bind def

/ellipsedict 8 dict def
ellipsedict /mtrx matrix put
/ellipse
{ ellipsedict begin
   /endangle exch def
   /startangle exch def
   /yrad exch def
   /xrad exch def
   /y exch def
   /x exch def   /savematrix mtrx currentmatrix def
   x y tr xrad yrad sc
   0 0 1 startangle endangle arc
   savematrix setmatrix
   end
} def

/mergeprocs {
dup length
3 -1 roll
dup
length
dup
5 1 roll
3 -1 roll
add
array cvx
dup
3 -1 roll
0 exch
putinterval
dup
4 2 roll
putinterval
} bind def
/dpi_x 300 def
/dpi_y 300 def
/conicto {
    /to_y exch def
    /to_x exch def
    /conic_cntrl_y exch def
    /conic_cntrl_x exch def
    currentpoint
    /p0_y exch def
    /p0_x exch def
    /p1_x p0_x conic_cntrl_x p0_x sub 2 3 div mul add def
    /p1_y p0_y conic_cntrl_y p0_y sub 2 3 div mul add def
    /p2_x p1_x to_x p0_x sub 1 3 div mul add def
    /p2_y p1_y to_y p0_y sub 1 3 div mul add def
    p1_x p1_y p2_x p2_y to_x to_y curveto
} bind def
/start_ol { gsave 1.1 dpi_x div dup scale} bind def
/end_ol { closepath fill grestore } bind def
28.346000 -28.346000 scale
-0.590020 -23.851803 translate
%%EndProlog


0.100000 slw
[1.000000] 0 sd
[1.000000] 0 sd
0 slc
0 slj
0.100000 slw
0 slc
0 slj
[1.000000] 0 sd
0.000000 0.000000 0.000000 srgb
n 15.039526 13.944856 5.455146 5.455146 0 360 ellipse cp s
0 slc
0 slj
[1.000000] 0 sd
n 15.039526 13.944856 5.455146 5.455146 0 360 ellipse cp s
0.100000 slw
[] 0 sd
[] 0 sd
0 slc
n 15.039526 13.944856 m 15.039502 8.976513 l s
[] 0 sd
0 slj
0 slc
n 15.039501 8.601513 m 15.289503 9.101512 l 15.039502 8.976513 l 14.789503 9.101515 l ef
n 15.039501 8.601513 m 15.289503 9.101512 l 15.039502 8.976513 l 14.789503 9.101515 l cp s
gsave 15.600000 14.100000 translate 0.035278 -0.035278 scale
start_ol
960 3136 moveto
960 1792 lineto
1552 1792 lineto
1881 1792 2060 1967 conicto
2240 2142 2240 2465 conicto
2240 2786 2060 2961 conicto
1881 3136 1552 3136 conicto
960 3136 lineto
448 3520 moveto
1552 3520 lineto
2145 3520 2448 3251 conicto
2752 2983 2752 2465 conicto
2752 1943 2448 1675 conicto
2145 1408 1552 1408 conicto
960 1408 lineto
960 0 lineto
448 0 lineto
448 3520 lineto
end_ol grestore 
gsave 15.984638 14.100000 translate 0.035278 -0.035278 scale
start_ol
640 384 moveto
1408 384 lineto
1408 3136 lineto
576 2944 lineto
576 3328 lineto
1434 3520 lineto
1920 3520 lineto
1920 384 lineto
2688 384 lineto
2688 0 lineto
640 0 lineto
640 384 lineto
end_ol grestore 
gsave 15.337500 11.306200 translate 0.035278 -0.035278 scale
start_ol
1984 2304 moveto
1912 2337 1828 2352 conicto
1744 2368 1642 2368 conicto
1282 2368 1089 2127 conicto
896 1887 896 1437 conicto
896 0 lineto
448 0 lineto
448 2688 lineto
896 2688 lineto
896 2304 lineto
1030 2531 1245 2641 conicto
1460 2752 1767 2752 conicto
1811 2752 1864 2752 conicto
1917 2752 1982 2752 conicto
1984 2304 lineto
end_ol grestore 
gsave 15.599752 11.306200 translate 0.035278 -0.035278 scale
start_ol
640 384 moveto
1408 384 lineto
1408 3136 lineto
576 2944 lineto
576 3328 lineto
1434 3520 lineto
1920 3520 lineto
1920 384 lineto
2688 384 lineto
2688 0 lineto
640 0 lineto
640 384 lineto
end_ol grestore 
0.100000 slw
[] 0 sd
[] 0 sd
0 slc
0 slj
0.100000 slw
0 slc
0 slj
[] 0 sd
n 15.000000 13.975000 0.325000 0.325000 0 360 ellipse f
n 15.000000 13.975000 0.325000 0.325000 0 360 ellipse cp s
0 slc
0 slj
[] 0 sd
n 15.000000 13.975000 0.325000 0.325000 0 360 ellipse cp s
0.100000 slw
[1.000000] 0 sd
[1.000000] 0 sd
0 slc
0 slj
0.100000 slw
0 slc
0 slj
[1.000000] 0 sd
n 10.574640 20.405340 3.334640 3.334640 0 360 ellipse cp s
0 slc
0 slj
[1.000000] 0 sd
n 10.574640 20.405340 3.334640 3.334640 0 360 ellipse cp s
0.100000 slw
[] 0 sd
[] 0 sd
0 slc
n 10.574640 20.405340 m 10.574606 23.253197 l s
[] 0 sd
0 slj
0 slc
n 10.574601 23.628197 m 10.324607 23.128194 l 10.574606 23.253197 l 10.824607 23.128200 l ef
n 10.574601 23.628197 m 10.324607 23.128194 l 10.574606 23.253197 l 10.824607 23.128200 l cp s
gsave 9.877500 21.983800 translate 0.035278 -0.035278 scale
start_ol
1984 2304 moveto
1912 2337 1828 2352 conicto
1744 2368 1642 2368 conicto
1282 2368 1089 2127 conicto
896 1887 896 1437 conicto
896 0 lineto
448 0 lineto
448 2688 lineto
896 2688 lineto
896 2304 lineto
1030 2531 1245 2641 conicto
1460 2752 1767 2752 conicto
1811 2752 1864 2752 conicto
1917 2752 1982 2752 conicto
1984 2304 lineto
end_ol grestore 
gsave 10.139752 21.983800 translate 0.035278 -0.035278 scale
start_ol
1897 1936 moveto
2269 1862 2478 1627 conicto
2688 1392 2688 1046 conicto
2688 516 2331 226 conicto
1975 -64 1319 -64 conicto
1099 -64 865 -16 conicto
632 32 384 128 conicto
384 576 lineto
576 449 805 384 conicto
1035 320 1285 320 conicto
1720 320 1948 504 conicto
2176 688 2176 1039 conicto
2176 1363 1967 1545 conicto
1759 1728 1388 1728 conicto
1024 1728 lineto
1024 2112 lineto
1405 2112 lineto
1717 2112 1882 2250 conicto
2048 2388 2048 2648 conicto
2048 2915 1877 3057 conicto
1706 3200 1388 3200 conicto
1200 3200 985 3153 conicto
770 3107 512 3008 conicto
512 3456 lineto
773 3520 1001 3552 conicto
1229 3584 1431 3584 conicto
1952 3584 2256 3343 conicto
2560 3102 2560 2692 conicto
2560 2406 2387 2209 conicto
2215 2012 1897 1936 conicto
end_ol grestore 
0.100000 slw
[] 0 sd
[] 0 sd
0 slc
0 slj
0.100000 slw
0 slc
0 slj
[] 0 sd
n 10.540000 20.340000 0.325000 0.325000 0 360 ellipse f
n 10.540000 20.340000 0.325000 0.325000 0 360 ellipse cp s
0 slc
0 slj
[] 0 sd
n 10.540000 20.340000 0.325000 0.325000 0 360 ellipse cp s
gsave 11.140000 20.515000 translate 0.035278 -0.035278 scale
start_ol
960 3136 moveto
960 1792 lineto
1552 1792 lineto
1881 1792 2060 1967 conicto
2240 2142 2240 2465 conicto
2240 2786 2060 2961 conicto
1881 3136 1552 3136 conicto
960 3136 lineto
448 3520 moveto
1552 3520 lineto
2145 3520 2448 3251 conicto
2752 2983 2752 2465 conicto
2752 1943 2448 1675 conicto
2145 1408 1552 1408 conicto
960 1408 lineto
960 0 lineto
448 0 lineto
448 3520 lineto
end_ol grestore 
gsave 11.524638 20.515000 translate 0.035278 -0.035278 scale
start_ol
1897 1936 moveto
2269 1862 2478 1627 conicto
2688 1392 2688 1046 conicto
2688 516 2331 226 conicto
1975 -64 1319 -64 conicto
1099 -64 865 -16 conicto
632 32 384 128 conicto
384 576 lineto
576 449 805 384 conicto
1035 320 1285 320 conicto
1720 320 1948 504 conicto
2176 688 2176 1039 conicto
2176 1363 1967 1545 conicto
1759 1728 1388 1728 conicto
1024 1728 lineto
1024 2112 lineto
1405 2112 lineto
1717 2112 1882 2250 conicto
2048 2388 2048 2648 conicto
2048 2915 1877 3057 conicto
1706 3200 1388 3200 conicto
1200 3200 985 3153 conicto
770 3107 512 3008 conicto
512 3456 lineto
773 3520 1001 3552 conicto
1229 3584 1431 3584 conicto
1952 3584 2256 3343 conicto
2560 3102 2560 2692 conicto
2560 2406 2387 2209 conicto
2215 2012 1897 1936 conicto
end_ol grestore 
gsave 9.580000 16.575000 translate 0.035278 -0.035278 scale
start_ol
320 3520 moveto
827 3520 lineto
1694 2202 lineto
2565 3520 lineto
3072 3520 lineto
1932 1830 lineto
3136 0 lineto
2625 0 lineto
1637 1508 lineto
641 0 lineto
128 0 lineto
1425 1879 lineto
320 3520 lineto
end_ol grestore 
gsave 10.019589 16.575000 translate 0.035278 -0.035278 scale
start_ol
896 384 moveto
896 -1024 lineto
448 -1024 lineto
448 2688 lineto
896 2688 lineto
896 2304 lineto
1032 2531 1240 2641 conicto
1448 2752 1737 2752 conicto
2217 2752 2516 2364 conicto
2816 1976 2816 1344 conicto
2816 712 2516 324 conicto
2217 -64 1737 -64 conicto
1448 -64 1240 46 conicto
1032 157 896 384 conicto
2368 1344 moveto
2368 1823 2171 2095 conicto
1975 2368 1632 2368 conicto
1289 2368 1092 2095 conicto
896 1823 896 1344 conicto
896 865 1092 592 conicto
1289 320 1632 320 conicto
1975 320 2171 592 conicto
2368 865 2368 1344 conicto
end_ol grestore 
0.100000 slw
[1.000000] 0 sd
[1.000000] 0 sd
0 slc
0 slj
0.100000 slw
0 slc
0 slj
[1.000000] 0 sd
n 5.708637 15.633617 5.068617 5.068617 0 360 ellipse cp s
0 slc
0 slj
[1.000000] 0 sd
n 5.708637 15.633617 5.068617 5.068617 0 360 ellipse cp s
0.100000 slw
[] 0 sd
[] 0 sd
0 slc
n 5.708637 15.633617 m 5.708640 11.051803 l s
[] 0 sd
0 slj
0 slc
n 5.708640 10.676803 m 5.958640 11.176804 l 5.708640 11.051803 l 5.458640 11.176803 l ef
n 5.708640 10.676803 m 5.958640 11.176804 l 5.708640 11.051803 l 5.458640 11.176803 l cp s
gsave 4.636250 13.192500 translate 0.035278 -0.035278 scale
start_ol
1984 2304 moveto
1912 2337 1828 2352 conicto
1744 2368 1642 2368 conicto
1282 2368 1089 2127 conicto
896 1887 896 1437 conicto
896 0 lineto
448 0 lineto
448 2688 lineto
896 2688 lineto
896 2304 lineto
1030 2531 1245 2641 conicto
1460 2752 1767 2752 conicto
1811 2752 1864 2752 conicto
1917 2752 1982 2752 conicto
1984 2304 lineto
end_ol grestore 
gsave 4.898502 13.192500 translate 0.035278 -0.035278 scale
start_ol
938 384 moveto
2643 384 lineto
2643 0 lineto
384 0 lineto
384 384 lineto
654 668 1119 1146 conicto
1584 1625 1704 1763 conicto
1931 2023 2021 2203 conicto
2112 2384 2112 2558 conicto
2112 2842 1913 3021 conicto
1715 3200 1397 3200 conicto
1171 3200 920 3104 conicto
669 3009 384 2816 conicto
384 3328 lineto
678 3455 933 3519 conicto
1188 3584 1400 3584 conicto
1959 3584 2291 3309 conicto
2624 3034 2624 2574 conicto
2624 2356 2540 2160 conicto
2457 1965 2237 1700 conicto
2177 1631 1852 1302 conicto
1528 974 938 384 conicto
end_ol grestore 
0.100000 slw
[] 0 sd
[] 0 sd
0 slc
0 slj
0.100000 slw
0 slc
0 slj
[] 0 sd
n 5.667500 15.780000 0.312500 0.312500 0 360 ellipse f
n 5.667500 15.780000 0.312500 0.312500 0 360 ellipse cp s
0 slc
0 slj
[] 0 sd
n 5.667500 15.780000 0.312500 0.312500 0 360 ellipse cp s
gsave 4.328630 15.903600 translate 0.035278 -0.035278 scale
start_ol
960 3136 moveto
960 1792 lineto
1552 1792 lineto
1881 1792 2060 1967 conicto
2240 2142 2240 2465 conicto
2240 2786 2060 2961 conicto
1881 3136 1552 3136 conicto
960 3136 lineto
448 3520 moveto
1552 3520 lineto
2145 3520 2448 3251 conicto
2752 2983 2752 2465 conicto
2752 1943 2448 1675 conicto
2145 1408 1552 1408 conicto
960 1408 lineto
960 0 lineto
448 0 lineto
448 3520 lineto
end_ol grestore 
gsave 4.713268 15.903600 translate 0.035278 -0.035278 scale
start_ol
938 384 moveto
2643 384 lineto
2643 0 lineto
384 0 lineto
384 384 lineto
654 668 1119 1146 conicto
1584 1625 1704 1763 conicto
1931 2023 2021 2203 conicto
2112 2384 2112 2558 conicto
2112 2842 1913 3021 conicto
1715 3200 1397 3200 conicto
1171 3200 920 3104 conicto
669 3009 384 2816 conicto
384 3328 lineto
678 3455 933 3519 conicto
1188 3584 1400 3584 conicto
1959 3584 2291 3309 conicto
2624 3034 2624 2574 conicto
2624 2356 2540 2160 conicto
2457 1965 2237 1700 conicto
2177 1631 1852 1302 conicto
1528 974 938 384 conicto
end_ol grestore 
0.100000 slw
[] 0 sd
[] 0 sd
0 slc
0 slj
0.100000 slw
0 slc
0 slj
[] 0 sd
n 10.530000 17.013500 0.300000 0.300000 0 360 ellipse f
n 10.530000 17.013500 0.300000 0.300000 0 360 ellipse cp s
0 slc
0 slj
[] 0 sd
n 10.530000 17.013500 0.300000 0.300000 0 360 ellipse cp s
showpage
