%!PS-Adobe-2.0 EPSF-2.0
%%Title: /home/imcinerney/Documents/Latex/ISU_Thesis/images/Sources/circleRadiusLemma1.dia
%%Creator: Dia v0.97.3
%%CreationDate: Sat Oct 29 11:46:26 2016
%%For: imcinerney
%%Orientation: Portrait
%%Magnification: 1.0000
%%BoundingBox: 0 0 646 585
%%BeginSetup
%%EndSetup
%%EndComments
%%BeginProlog
[ /.notdef /.notdef /.notdef /.notdef /.notdef /.notdef /.notdef /.notdef /.notdef /.notdef
/.notdef /.notdef /.notdef /.notdef /.notdef /.notdef /.notdef /.notdef /.notdef /.notdef
/.notdef /.notdef /.notdef /.notdef /.notdef /.notdef /.notdef /.notdef /.notdef /.notdef
/.notdef /.notdef /space /exclam /quotedbl /numbersign /dollar /percent /ampersand /quoteright
/parenleft /parenright /asterisk /plus /comma /hyphen /period /slash /zero /one
/two /three /four /five /six /seven /eight /nine /colon /semicolon
/less /equal /greater /question /at /A /B /C /D /E
/F /G /H /I /J /K /L /M /N /O
/P /Q /R /S /T /U /V /W /X /Y
/Z /bracketleft /backslash /bracketright /asciicircum /underscore /quoteleft /a /b /c
/d /e /f /g /h /i /j /k /l /m
/n /o /p /q /r /s /t /u /v /w
/x /y /z /braceleft /bar /braceright /asciitilde /.notdef /.notdef /.notdef
/.notdef /.notdef /.notdef /.notdef /.notdef /.notdef /.notdef /.notdef /.notdef /.notdef
/.notdef /.notdef /.notdef /.notdef /.notdef /.notdef /.notdef /.notdef /.notdef /.notdef
/.notdef /.notdef /.notdef /.notdef /.notdef /.notdef /.notdef /.notdef /.notdef /.notdef
/space /exclamdown /cent /sterling /currency /yen /brokenbar /section /dieresis /copyright
/ordfeminine /guillemotleft /logicalnot /hyphen /registered /macron /degree /plusminus /twosuperior /threesuperior
/acute /mu /paragraph /periodcentered /cedilla /onesuperior /ordmasculine /guillemotright /onequarter /onehalf
/threequarters /questiondown /Agrave /Aacute /Acircumflex /Atilde /Adieresis /Aring /AE /Ccedilla
/Egrave /Eacute /Ecircumflex /Edieresis /Igrave /Iacute /Icircumflex /Idieresis /Eth /Ntilde
/Ograve /Oacute /Ocircumflex /Otilde /Odieresis /multiply /Oslash /Ugrave /Uacute /Ucircumflex
/Udieresis /Yacute /Thorn /germandbls /agrave /aacute /acircumflex /atilde /adieresis /aring
/ae /ccedilla /egrave /eacute /ecircumflex /edieresis /igrave /iacute /icircumflex /idieresis
/eth /ntilde /ograve /oacute /ocircumflex /otilde /odieresis /divide /oslash /ugrave
/uacute /ucircumflex /udieresis /yacute /thorn /ydieresis] /isolatin1encoding exch def
/cp {closepath} bind def
/c {curveto} bind def
/f {fill} bind def
/a {arc} bind def
/ef {eofill} bind def
/ex {exch} bind def
/gr {grestore} bind def
/gs {gsave} bind def
/sa {save} bind def
/rs {restore} bind def
/l {lineto} bind def
/m {moveto} bind def
/rm {rmoveto} bind def
/n {newpath} bind def
/s {stroke} bind def
/sh {show} bind def
/slc {setlinecap} bind def
/slj {setlinejoin} bind def
/slw {setlinewidth} bind def
/srgb {setrgbcolor} bind def
/rot {rotate} bind def
/sc {scale} bind def
/sd {setdash} bind def
/ff {findfont} bind def
/sf {setfont} bind def
/scf {scalefont} bind def
/sw {stringwidth pop} bind def
/tr {translate} bind def

/ellipsedict 8 dict def
ellipsedict /mtrx matrix put
/ellipse
{ ellipsedict begin
   /endangle exch def
   /startangle exch def
   /yrad exch def
   /xrad exch def
   /y exch def
   /x exch def   /savematrix mtrx currentmatrix def
   x y tr xrad yrad sc
   0 0 1 startangle endangle arc
   savematrix setmatrix
   end
} def

/mergeprocs {
dup length
3 -1 roll
dup
length
dup
5 1 roll
3 -1 roll
add
array cvx
dup
3 -1 roll
0 exch
putinterval
dup
4 2 roll
putinterval
} bind def
/dpi_x 300 def
/dpi_y 300 def
/conicto {
    /to_y exch def
    /to_x exch def
    /conic_cntrl_y exch def
    /conic_cntrl_x exch def
    currentpoint
    /p0_y exch def
    /p0_x exch def
    /p1_x p0_x conic_cntrl_x p0_x sub 2 3 div mul add def
    /p1_y p0_y conic_cntrl_y p0_y sub 2 3 div mul add def
    /p2_x p1_x to_x p0_x sub 1 3 div mul add def
    /p2_y p1_y to_y p0_y sub 1 3 div mul add def
    p1_x p1_y p2_x p2_y to_x to_y curveto
} bind def
/start_ol { gsave 1.1 dpi_x div dup scale} bind def
/end_ol { closepath fill grestore } bind def
28.346000 -28.346000 scale
-16.987500 -34.505080 translate
%%EndProlog


0.100000 slw
[1.000000] 0 sd
[1.000000] 0 sd
0 slc
0 slj
0.100000 slw
0 slc
0 slj
[1.000000] 0 sd
0.000000 0.000000 0.000000 srgb
n 27.103590 24.388990 10.066090 10.066090 0 360 ellipse cp s
0 slc
0 slj
[1.000000] 0 sd
n 27.103590 24.388990 10.066090 10.066090 0 360 ellipse cp s
0.100000 slw
[] 0 sd
[] 0 sd
0 slc
0 slj
0.100000 slw
0 slc
0 slj
[] 0 sd
n 30.700000 24.050000 9.000000 9.000000 0 360 ellipse cp s
0 slc
0 slj
[] 0 sd
n 30.700000 24.050000 9.000000 9.000000 0 360 ellipse cp s
0.100000 slw
[] 0 sd
[] 0 sd
0 slc
0 slj
0.100000 slw
0 slc
0 slj
[] 0 sd
n 30.719300 24.060200 0.287500 0.287500 0 360 ellipse f
n 30.719300 24.060200 0.287500 0.287500 0 360 ellipse cp s
0 slc
0 slj
[] 0 sd
n 30.719300 24.060200 0.287500 0.287500 0 360 ellipse cp s
0.100000 slw
[] 0 sd
[] 0 sd
0 slc
0 slj
0.100000 slw
0 slc
0 slj
[] 0 sd
n 30.707500 14.982500 0.287500 0.287500 0 360 ellipse f
n 30.707500 14.982500 0.287500 0.287500 0 360 ellipse cp s
0 slc
0 slj
[] 0 sd
n 30.707500 14.982500 0.287500 0.287500 0 360 ellipse cp s
0.100000 slw
[] 0 sd
[] 0 sd
0 slc
0 slj
0.100000 slw
0 slc
0 slj
[] 0 sd
n 27.098800 24.059800 0.287500 0.287500 0 360 ellipse f
n 27.098800 24.059800 0.287500 0.287500 0 360 ellipse cp s
0 slc
0 slj
[] 0 sd
n 27.098800 24.059800 0.287500 0.287500 0 360 ellipse cp s
0.100000 slw
[] 0 sd
[] 0 sd
0 slc
n 30.700000 24.050000 m 30.700000 15.050000 l s
gsave 30.940900 20.446800 translate 0.035278 -0.035278 scale
start_ol
1984 2304 moveto
1912 2337 1828 2352 conicto
1744 2368 1642 2368 conicto
1282 2368 1089 2127 conicto
896 1887 896 1437 conicto
896 0 lineto
448 0 lineto
448 2688 lineto
896 2688 lineto
896 2304 lineto
1030 2531 1245 2641 conicto
1460 2752 1767 2752 conicto
1811 2752 1864 2752 conicto
1917 2752 1982 2752 conicto
1984 2304 lineto
end_ol grestore 
gsave 31.267776 20.446800 translate 0.035278 -0.035278 scale
start_ol
-1394 3904 moveto
-1038 3904 lineto
-448 3008 lineto
-783 3008 lineto
-1216 3592 lineto
-1649 3008 lineto
-1984 3008 lineto
-1394 3904 lineto
-1216 2752 moveto
-1216 2752 lineto
end_ol grestore 
0.100000 slw
[] 0 sd
[] 0 sd
0 slc
n 30.431800 24.060200 m 27.386300 24.059800 l s
gsave 28.705400 24.781600 translate 0.035278 -0.035278 scale
start_ol
1663 3136 moveto
689 384 lineto
2639 384 lineto
1663 3136 lineto
64 0 moveto
1424 3520 lineto
1970 3520 lineto
3328 0 lineto
64 0 lineto
end_ol grestore 
gsave 29.142492 24.781600 translate 0.035278 -0.035278 scale
start_ol
960 3136 moveto
960 1792 lineto
1552 1792 lineto
1881 1792 2060 1967 conicto
2240 2142 2240 2465 conicto
2240 2786 2060 2961 conicto
1881 3136 1552 3136 conicto
960 3136 lineto
448 3520 moveto
1552 3520 lineto
2145 3520 2448 3251 conicto
2752 2983 2752 2465 conicto
2752 1943 2448 1675 conicto
2145 1408 1552 1408 conicto
960 1408 lineto
960 0 lineto
448 0 lineto
448 3520 lineto
end_ol grestore 
0.100000 slw
[] 0 sd
[] 0 sd
0 slc
n 27.098800 23.772300 m 30.579530 15.294199 l s
gsave 28.051100 20.146900 translate 0.035278 -0.035278 scale
start_ol
1984 2304 moveto
1912 2337 1828 2352 conicto
1744 2368 1642 2368 conicto
1282 2368 1089 2127 conicto
896 1887 896 1437 conicto
896 0 lineto
448 0 lineto
448 2688 lineto
896 2688 lineto
896 2304 lineto
1030 2531 1245 2641 conicto
1460 2752 1767 2752 conicto
1811 2752 1864 2752 conicto
1917 2752 1982 2752 conicto
1984 2304 lineto
end_ol grestore 
gsave 26.415400 24.754300 translate 0.035278 -0.035278 scale
start_ol
960 3136 moveto
960 1792 lineto
1552 1792 lineto
1881 1792 2060 1967 conicto
2240 2142 2240 2465 conicto
2240 2786 2060 2961 conicto
1881 3136 1552 3136 conicto
960 3136 lineto
448 3520 moveto
1552 3520 lineto
2145 3520 2448 3251 conicto
2752 2983 2752 2465 conicto
2752 1943 2448 1675 conicto
2145 1408 1552 1408 conicto
960 1408 lineto
960 0 lineto
448 0 lineto
448 3520 lineto
end_ol grestore 
gsave 31.322600 24.290800 translate 0.035278 -0.035278 scale
start_ol
960 3136 moveto
960 1792 lineto
1552 1792 lineto
1881 1792 2060 1967 conicto
2240 2142 2240 2465 conicto
2240 2786 2060 2961 conicto
1881 3136 1552 3136 conicto
960 3136 lineto
448 3520 moveto
1552 3520 lineto
2145 3520 2448 3251 conicto
2752 2983 2752 2465 conicto
2752 1943 2448 1675 conicto
2145 1408 1552 1408 conicto
960 1408 lineto
960 0 lineto
448 0 lineto
448 3520 lineto
end_ol grestore 
gsave 31.691628 24.407250 translate 0.035278 -0.035278 scale
start_ol
-1411 3648 moveto
-957 3648 lineto
-448 3008 lineto
-783 3008 lineto
-1184 3436 lineto
-1585 3008 lineto
-1920 3008 lineto
-1411 3648 lineto
end_ol grestore 
gsave 30.472500 14.484600 translate 0.035278 -0.035278 scale
start_ol
320 3520 moveto
827 3520 lineto
1694 2202 lineto
2565 3520 lineto
3072 3520 lineto
1932 1830 lineto
3136 0 lineto
2625 0 lineto
1637 1508 lineto
641 0 lineto
128 0 lineto
1425 1879 lineto
320 3520 lineto
end_ol grestore 
gsave 28.139100 23.500200 translate 0.035278 -0.035278 scale
start_ol
828 2270 moveto
1418 586 lineto
2269 2688 lineto
2752 2688 lineto
1664 0 lineto
1664 -1024 lineto
1216 -1024 lineto
1216 0 lineto
513 2006 lineto
408 2309 181 2309 conicto
64 2309 lineto
64 2688 lineto
231 2688 lineto
675 2688 828 2270 conicto
end_ol grestore 
0.100000 slw
[] 0 sd
[] 0 sd
0 slc
n 27.429741 23.686967 0.575671 0.575671 270.224809 36.650074 ellipse s
showpage
