%!PS-Adobe-3.0 EPSF-3.0
%%Creator: (MATLAB, The Mathworks, Inc. Version 9.1.0.441655 \(R2016b\). Operating System: Linux)
%%Title: /home/im1716/Documents/Latex/Papers/Conferences/CDC-2019_ModelingRoundoffErrorInFGM/figures/scaling_performance.eps
%%CreationDate: 2019-03-15T21:20:55
%%Pages: (atend)
%%BoundingBox: 0 0 420 193
%%LanguageLevel: 3
%%EndComments
%%BeginProlog
%%BeginResource: procset (Apache XML Graphics Std ProcSet) 1.2 0
%%Version: 1.2 0
%%Copyright: (Copyright 2001-2003,2010 The Apache Software Foundation. License terms: http://www.apache.org/licenses/LICENSE-2.0)
/bd{bind def}bind def
/ld{load def}bd
/GR/grestore ld
/M/moveto ld
/LJ/setlinejoin ld
/C/curveto ld
/f/fill ld
/LW/setlinewidth ld
/GC/setgray ld
/t/show ld
/N/newpath ld
/CT/concat ld
/cp/closepath ld
/S/stroke ld
/L/lineto ld
/CC/setcmykcolor ld
/A/ashow ld
/GS/gsave ld
/RC/setrgbcolor ld
/RM/rmoveto ld
/ML/setmiterlimit ld
/re {4 2 roll M
1 index 0 rlineto
0 exch rlineto
neg 0 rlineto
cp } bd
/_ctm matrix def
/_tm matrix def
/BT { _ctm currentmatrix pop matrix _tm copy pop 0 0 moveto } bd
/ET { _ctm setmatrix } bd
/iTm { _ctm setmatrix _tm concat } bd
/Tm { _tm astore pop iTm 0 0 moveto } bd
/ux 0.0 def
/uy 0.0 def
/F {
  /Tp exch def
  /Tf exch def
  Tf findfont Tp scalefont setfont
  /cf Tf def  /cs Tp def
} bd
/ULS {currentpoint /uy exch def /ux exch def} bd
/ULE {
  /Tcx currentpoint pop def
  gsave
  newpath
  cf findfont cs scalefont dup
  /FontMatrix get 0 get /Ts exch def /FontInfo get dup
  /UnderlinePosition get Ts mul /To exch def
  /UnderlineThickness get Ts mul /Tt exch def
  ux uy To add moveto  Tcx uy To add lineto
  Tt setlinewidth stroke
  grestore
} bd
/OLE {
  /Tcx currentpoint pop def
  gsave
  newpath
  cf findfont cs scalefont dup
  /FontMatrix get 0 get /Ts exch def /FontInfo get dup
  /UnderlinePosition get Ts mul /To exch def
  /UnderlineThickness get Ts mul /Tt exch def
  ux uy To add cs add moveto Tcx uy To add cs add lineto
  Tt setlinewidth stroke
  grestore
} bd
/SOE {
  /Tcx currentpoint pop def
  gsave
  newpath
  cf findfont cs scalefont dup
  /FontMatrix get 0 get /Ts exch def /FontInfo get dup
  /UnderlinePosition get Ts mul /To exch def
  /UnderlineThickness get Ts mul /Tt exch def
  ux uy To add cs 10 mul 26 idiv add moveto Tcx uy To add cs 10 mul 26 idiv add lineto
  Tt setlinewidth stroke
  grestore
} bd
/QT {
/Y22 exch store
/X22 exch store
/Y21 exch store
/X21 exch store
currentpoint
/Y21 load 2 mul add 3 div exch
/X21 load 2 mul add 3 div exch
/X21 load 2 mul /X22 load add 3 div
/Y21 load 2 mul /Y22 load add 3 div
/X22 load /Y22 load curveto
} bd
/SSPD {
dup length /d exch dict def
{
/v exch def
/k exch def
currentpagedevice k known {
/cpdv currentpagedevice k get def
v cpdv ne {
/upd false def
/nullv v type /nulltype eq def
/nullcpdv cpdv type /nulltype eq def
nullv nullcpdv or
{
/upd true def
} {
/sametype v type cpdv type eq def
sametype {
v type /arraytype eq {
/vlen v length def
/cpdvlen cpdv length def
vlen cpdvlen eq {
0 1 vlen 1 sub {
/i exch def
/obj v i get def
/cpdobj cpdv i get def
obj cpdobj ne {
/upd true def
exit
} if
} for
} {
/upd true def
} ifelse
} {
v type /dicttype eq {
v {
/dv exch def
/dk exch def
/cpddv cpdv dk get def
dv cpddv ne {
/upd true def
exit
} if
} forall
} {
/upd true def
} ifelse
} ifelse
} if
} ifelse
upd true eq {
d k v put
} if
} if
} if
} forall
d length 0 gt {
d setpagedevice
} if
} bd
/RE { % /NewFontName [NewEncodingArray] /FontName RE -
  findfont dup length dict begin
  {
    1 index /FID ne
    {def} {pop pop} ifelse
  } forall
  /Encoding exch def
  /FontName 1 index def
  currentdict definefont pop
  end
} bind def
%%EndResource
%%BeginResource: procset (Apache XML Graphics EPS ProcSet) 1.0 0
%%Version: 1.0 0
%%Copyright: (Copyright 2002-2003 The Apache Software Foundation. License terms: http://www.apache.org/licenses/LICENSE-2.0)
/BeginEPSF { %def
/b4_Inc_state save def         % Save state for cleanup
/dict_count countdictstack def % Count objects on dict stack
/op_count count 1 sub def      % Count objects on operand stack
userdict begin                 % Push userdict on dict stack
/showpage { } def              % Redefine showpage, { } = null proc
0 setgray 0 setlinecap         % Prepare graphics state
1 setlinewidth 0 setlinejoin
10 setmiterlimit [ ] 0 setdash newpath
/languagelevel where           % If level not equal to 1 then
{pop languagelevel             % set strokeadjust and
1 ne                           % overprint to their defaults.
{false setstrokeadjust false setoverprint
} if
} if
} bd
/EndEPSF { %def
count op_count sub {pop} repeat            % Clean up stacks
countdictstack dict_count sub {end} repeat
b4_Inc_state restore
} bd
%%EndResource
%FOPBeginFontDict
%%IncludeResource: font Courier-Bold
%%IncludeResource: font Helvetica
%%IncludeResource: font Courier-BoldOblique
%%IncludeResource: font Courier-Oblique
%%IncludeResource: font Times-Roman
%%IncludeResource: font Helvetica-BoldOblique
%%IncludeResource: font Helvetica-Bold
%%IncludeResource: font Helvetica-Oblique
%%IncludeResource: font Times-BoldItalic
%%IncludeResource: font Courier
%%IncludeResource: font Times-Italic
%%IncludeResource: font Times-Bold
%%IncludeResource: font Symbol
%%IncludeResource: font ZapfDingbats
%FOPEndFontDict
%%BeginResource: encoding WinAnsiEncoding
/WinAnsiEncoding [
/.notdef /.notdef /.notdef /.notdef /.notdef
/.notdef /.notdef /.notdef /.notdef /.notdef
/.notdef /.notdef /.notdef /.notdef /.notdef
/.notdef /.notdef /.notdef /.notdef /.notdef
/.notdef /.notdef /.notdef /.notdef /.notdef
/.notdef /.notdef /.notdef /.notdef /.notdef
/.notdef /.notdef /space /exclam /quotedbl
/numbersign /dollar /percent /ampersand /quotesingle
/parenleft /parenright /asterisk /plus /comma
/hyphen /period /slash /zero /one
/two /three /four /five /six
/seven /eight /nine /colon /semicolon
/less /equal /greater /question /at
/A /B /C /D /E
/F /G /H /I /J
/K /L /M /N /O
/P /Q /R /S /T
/U /V /W /X /Y
/Z /bracketleft /backslash /bracketright /asciicircum
/underscore /quoteleft /a /b /c
/d /e /f /g /h
/i /j /k /l /m
/n /o /p /q /r
/s /t /u /v /w
/x /y /z /braceleft /bar
/braceright /asciitilde /bullet /Euro /bullet
/quotesinglbase /florin /quotedblbase /ellipsis /dagger
/daggerdbl /circumflex /perthousand /Scaron /guilsinglleft
/OE /bullet /Zcaron /bullet /bullet
/quoteleft /quoteright /quotedblleft /quotedblright /bullet
/endash /emdash /asciitilde /trademark /scaron
/guilsinglright /oe /bullet /zcaron /Ydieresis
/space /exclamdown /cent /sterling /currency
/yen /brokenbar /section /dieresis /copyright
/ordfeminine /guillemotleft /logicalnot /sfthyphen /registered
/macron /degree /plusminus /twosuperior /threesuperior
/acute /mu /paragraph /middot /cedilla
/onesuperior /ordmasculine /guillemotright /onequarter /onehalf
/threequarters /questiondown /Agrave /Aacute /Acircumflex
/Atilde /Adieresis /Aring /AE /Ccedilla
/Egrave /Eacute /Ecircumflex /Edieresis /Igrave
/Iacute /Icircumflex /Idieresis /Eth /Ntilde
/Ograve /Oacute /Ocircumflex /Otilde /Odieresis
/multiply /Oslash /Ugrave /Uacute /Ucircumflex
/Udieresis /Yacute /Thorn /germandbls /agrave
/aacute /acircumflex /atilde /adieresis /aring
/ae /ccedilla /egrave /eacute /ecircumflex
/edieresis /igrave /iacute /icircumflex /idieresis
/eth /ntilde /ograve /oacute /ocircumflex
/otilde /odieresis /divide /oslash /ugrave
/uacute /ucircumflex /udieresis /yacute /thorn
/ydieresis
] def
%%EndResource
%FOPBeginFontReencode
/Courier-Bold findfont
dup length dict begin
  {1 index /FID ne {def} {pop pop} ifelse} forall
  /Encoding WinAnsiEncoding def
  currentdict
end
/Courier-Bold exch definefont pop
/Helvetica findfont
dup length dict begin
  {1 index /FID ne {def} {pop pop} ifelse} forall
  /Encoding WinAnsiEncoding def
  currentdict
end
/Helvetica exch definefont pop
/Courier-BoldOblique findfont
dup length dict begin
  {1 index /FID ne {def} {pop pop} ifelse} forall
  /Encoding WinAnsiEncoding def
  currentdict
end
/Courier-BoldOblique exch definefont pop
/Courier-Oblique findfont
dup length dict begin
  {1 index /FID ne {def} {pop pop} ifelse} forall
  /Encoding WinAnsiEncoding def
  currentdict
end
/Courier-Oblique exch definefont pop
/Times-Roman findfont
dup length dict begin
  {1 index /FID ne {def} {pop pop} ifelse} forall
  /Encoding WinAnsiEncoding def
  currentdict
end
/Times-Roman exch definefont pop
/Helvetica-BoldOblique findfont
dup length dict begin
  {1 index /FID ne {def} {pop pop} ifelse} forall
  /Encoding WinAnsiEncoding def
  currentdict
end
/Helvetica-BoldOblique exch definefont pop
/Helvetica-Bold findfont
dup length dict begin
  {1 index /FID ne {def} {pop pop} ifelse} forall
  /Encoding WinAnsiEncoding def
  currentdict
end
/Helvetica-Bold exch definefont pop
/Helvetica-Oblique findfont
dup length dict begin
  {1 index /FID ne {def} {pop pop} ifelse} forall
  /Encoding WinAnsiEncoding def
  currentdict
end
/Helvetica-Oblique exch definefont pop
/Times-BoldItalic findfont
dup length dict begin
  {1 index /FID ne {def} {pop pop} ifelse} forall
  /Encoding WinAnsiEncoding def
  currentdict
end
/Times-BoldItalic exch definefont pop
/Courier findfont
dup length dict begin
  {1 index /FID ne {def} {pop pop} ifelse} forall
  /Encoding WinAnsiEncoding def
  currentdict
end
/Courier exch definefont pop
/Times-Italic findfont
dup length dict begin
  {1 index /FID ne {def} {pop pop} ifelse} forall
  /Encoding WinAnsiEncoding def
  currentdict
end
/Times-Italic exch definefont pop
/Times-Bold findfont
dup length dict begin
  {1 index /FID ne {def} {pop pop} ifelse} forall
  /Encoding WinAnsiEncoding def
  currentdict
end
/Times-Bold exch definefont pop
%FOPEndFontReencode
%%EndProlog
%%Page: 1 1
%%PageBoundingBox: 0 0 420 193
%%BeginPageSetup
[1 0 0 -1 0 193] CT
%%EndPageSetup
GS
[0.75 0 0 0.75 0 0.25] CT
1 GC
N
0 0 560 257 re
f
GR
GS
[0.75 0 0 0.75 0 0.25] CT
1 GC
N
0 0 560 257 re
f
GR
GS
[0.75 0 0 0.75 0 0.25] CT
1 GC
N
73 203 M
507 203 L
507 19 L
73 19 L
cp
f
GR
GS
[0.75 0 0 0.75 0 0.25] CT
0.873 GC
1 LJ
0.667 LW
N
73 203 M
73 19 L
S
GR
GS
[0.75 0 0 0.75 0 0.25] CT
0.873 GC
1 LJ
0.667 LW
N
109.167 203 M
109.167 19 L
S
GR
GS
[0.75 0 0 0.75 0 0.25] CT
0.873 GC
1 LJ
0.667 LW
N
145.333 203 M
145.333 19 L
S
GR
GS
[0.75 0 0 0.75 0 0.25] CT
0.873 GC
1 LJ
0.667 LW
N
181.5 203 M
181.5 19 L
S
GR
GS
[0.75 0 0 0.75 0 0.25] CT
0.873 GC
1 LJ
0.667 LW
N
217.667 203 M
217.667 19 L
S
GR
GS
[0.75 0 0 0.75 0 0.25] CT
0.873 GC
1 LJ
0.667 LW
N
253.833 203 M
253.833 19 L
S
GR
GS
[0.75 0 0 0.75 0 0.25] CT
0.873 GC
1 LJ
0.667 LW
N
290 203 M
290 19 L
S
GR
GS
[0.75 0 0 0.75 0 0.25] CT
0.873 GC
1 LJ
0.667 LW
N
326.167 203 M
326.167 19 L
S
GR
GS
[0.75 0 0 0.75 0 0.25] CT
0.873 GC
1 LJ
0.667 LW
N
362.333 203 M
362.333 19 L
S
GR
GS
[0.75 0 0 0.75 0 0.25] CT
0.873 GC
1 LJ
0.667 LW
N
398.5 203 M
398.5 19 L
S
GR
GS
[0.75 0 0 0.75 0 0.25] CT
0.873 GC
1 LJ
0.667 LW
N
434.667 203 M
434.667 19 L
S
GR
GS
[0.75 0 0 0.75 0 0.25] CT
0.873 GC
1 LJ
0.667 LW
N
470.833 203 M
470.833 19 L
S
GR
GS
[0.75 0 0 0.75 0 0.25] CT
0.873 GC
1 LJ
0.667 LW
N
507 203 M
507 19 L
S
GR
GS
[0.75 0 0 0.75 0 0.25] CT
0.873 GC
1 LJ
0.667 LW
N
507 203 M
73 203 L
S
GR
GS
[0.75 0 0 0.75 0 0.25] CT
0.873 GC
1 LJ
0.667 LW
N
507 166.2 M
73 166.2 L
S
GR
GS
[0.75 0 0 0.75 0 0.25] CT
0.873 GC
1 LJ
0.667 LW
N
507 129.4 M
73 129.4 L
S
GR
GS
[0.75 0 0 0.75 0 0.25] CT
0.873 GC
1 LJ
0.667 LW
N
507 92.6 M
73 92.6 L
S
GR
GS
[0.75 0 0 0.75 0 0.25] CT
0.873 GC
1 LJ
0.667 LW
N
507 55.8 M
73 55.8 L
S
GR
GS
[0.75 0 0 0.75 0 0.25] CT
0.873 GC
1 LJ
0.667 LW
N
507 19 M
73 19 L
S
GR
GS
[0.75 0 0 0.75 0 0.25] CT
0.149 GC
2 setlinecap
1 LJ
0.667 LW
N
73 203 M
507 203 L
S
GR
GS
[0.75 0 0 0.75 0 0.25] CT
0.149 GC
2 setlinecap
1 LJ
0.667 LW
N
73 203 M
73 198.66 L
S
GR
GS
[0.75 0 0 0.75 0 0.25] CT
0.149 GC
2 setlinecap
1 LJ
0.667 LW
N
109.167 203 M
109.167 198.66 L
S
GR
GS
[0.75 0 0 0.75 0 0.25] CT
0.149 GC
2 setlinecap
1 LJ
0.667 LW
N
145.333 203 M
145.333 198.66 L
S
GR
GS
[0.75 0 0 0.75 0 0.25] CT
0.149 GC
2 setlinecap
1 LJ
0.667 LW
N
181.5 203 M
181.5 198.66 L
S
GR
GS
[0.75 0 0 0.75 0 0.25] CT
0.149 GC
2 setlinecap
1 LJ
0.667 LW
N
217.667 203 M
217.667 198.66 L
S
GR
GS
[0.75 0 0 0.75 0 0.25] CT
0.149 GC
2 setlinecap
1 LJ
0.667 LW
N
253.833 203 M
253.833 198.66 L
S
GR
GS
[0.75 0 0 0.75 0 0.25] CT
0.149 GC
2 setlinecap
1 LJ
0.667 LW
N
290 203 M
290 198.66 L
S
GR
GS
[0.75 0 0 0.75 0 0.25] CT
0.149 GC
2 setlinecap
1 LJ
0.667 LW
N
326.167 203 M
326.167 198.66 L
S
GR
GS
[0.75 0 0 0.75 0 0.25] CT
0.149 GC
2 setlinecap
1 LJ
0.667 LW
N
362.333 203 M
362.333 198.66 L
S
GR
GS
[0.75 0 0 0.75 0 0.25] CT
0.149 GC
2 setlinecap
1 LJ
0.667 LW
N
398.5 203 M
398.5 198.66 L
S
GR
GS
[0.75 0 0 0.75 0 0.25] CT
0.149 GC
2 setlinecap
1 LJ
0.667 LW
N
434.667 203 M
434.667 198.66 L
S
GR
GS
[0.75 0 0 0.75 0 0.25] CT
0.149 GC
2 setlinecap
1 LJ
0.667 LW
N
470.833 203 M
470.833 198.66 L
S
GR
GS
[0.75 0 0 0.75 0 0.25] CT
0.149 GC
2 setlinecap
1 LJ
0.667 LW
N
507 203 M
507 198.66 L
S
GR
GS
[0.75 0 0 0.75 0 0.25] CT
0.149 GC
2 setlinecap
1 LJ
0.667 LW
N
73 203 M
73 200.83 L
S
GR
GS
[0.75 0 0 0.75 0 0.25] CT
0.149 GC
2 setlinecap
1 LJ
0.667 LW
N
83.887 203 M
83.887 200.83 L
S
GR
GS
[0.75 0 0 0.75 0 0.25] CT
0.149 GC
2 setlinecap
1 LJ
0.667 LW
N
90.256 203 M
90.256 200.83 L
S
GR
GS
[0.75 0 0 0.75 0 0.25] CT
0.149 GC
2 setlinecap
1 LJ
0.667 LW
N
94.775 203 M
94.775 200.83 L
S
GR
GS
[0.75 0 0 0.75 0 0.25] CT
0.149 GC
2 setlinecap
1 LJ
0.667 LW
N
98.279 203 M
98.279 200.83 L
S
GR
GS
[0.75 0 0 0.75 0 0.25] CT
0.149 GC
2 setlinecap
1 LJ
0.667 LW
N
101.143 203 M
101.143 200.83 L
S
GR
GS
[0.75 0 0 0.75 0 0.25] CT
0.149 GC
2 setlinecap
1 LJ
0.667 LW
N
103.564 203 M
103.564 200.83 L
S
GR
GS
[0.75 0 0 0.75 0 0.25] CT
0.149 GC
2 setlinecap
1 LJ
0.667 LW
N
105.662 203 M
105.662 200.83 L
S
GR
GS
[0.75 0 0 0.75 0 0.25] CT
0.149 GC
2 setlinecap
1 LJ
0.667 LW
N
107.512 203 M
107.512 200.83 L
S
GR
GS
[0.75 0 0 0.75 0 0.25] CT
0.149 GC
2 setlinecap
1 LJ
0.667 LW
N
109.167 203 M
109.167 200.83 L
S
GR
GS
[0.75 0 0 0.75 0 0.25] CT
0.149 GC
2 setlinecap
1 LJ
0.667 LW
N
120.054 203 M
120.054 200.83 L
S
GR
GS
[0.75 0 0 0.75 0 0.25] CT
0.149 GC
2 setlinecap
1 LJ
0.667 LW
N
126.423 203 M
126.423 200.83 L
S
GR
GS
[0.75 0 0 0.75 0 0.25] CT
0.149 GC
2 setlinecap
1 LJ
0.667 LW
N
130.941 203 M
130.941 200.83 L
S
GR
GS
[0.75 0 0 0.75 0 0.25] CT
0.149 GC
2 setlinecap
1 LJ
0.667 LW
N
134.446 203 M
134.446 200.83 L
S
GR
GS
[0.75 0 0 0.75 0 0.25] CT
0.149 GC
2 setlinecap
1 LJ
0.667 LW
N
137.31 203 M
137.31 200.83 L
S
GR
GS
[0.75 0 0 0.75 0 0.25] CT
0.149 GC
2 setlinecap
1 LJ
0.667 LW
N
139.731 203 M
139.731 200.83 L
S
GR
GS
[0.75 0 0 0.75 0 0.25] CT
0.149 GC
2 setlinecap
1 LJ
0.667 LW
N
141.828 203 M
141.828 200.83 L
S
GR
GS
[0.75 0 0 0.75 0 0.25] CT
0.149 GC
2 setlinecap
1 LJ
0.667 LW
N
143.678 203 M
143.678 200.83 L
S
GR
GS
[0.75 0 0 0.75 0 0.25] CT
0.149 GC
2 setlinecap
1 LJ
0.667 LW
N
145.333 203 M
145.333 200.83 L
S
GR
GS
[0.75 0 0 0.75 0 0.25] CT
0.149 GC
2 setlinecap
1 LJ
0.667 LW
N
145.333 203 M
145.333 200.83 L
S
GR
GS
[0.75 0 0 0.75 0 0.25] CT
0.149 GC
2 setlinecap
1 LJ
0.667 LW
N
156.221 203 M
156.221 200.83 L
S
GR
GS
[0.75 0 0 0.75 0 0.25] CT
0.149 GC
2 setlinecap
1 LJ
0.667 LW
N
162.589 203 M
162.589 200.83 L
S
GR
GS
[0.75 0 0 0.75 0 0.25] CT
0.149 GC
2 setlinecap
1 LJ
0.667 LW
N
167.108 203 M
167.108 200.83 L
S
GR
GS
[0.75 0 0 0.75 0 0.25] CT
0.149 GC
2 setlinecap
1 LJ
0.667 LW
N
170.613 203 M
170.613 200.83 L
S
GR
GS
[0.75 0 0 0.75 0 0.25] CT
0.149 GC
2 setlinecap
1 LJ
0.667 LW
N
173.476 203 M
173.476 200.83 L
S
GR
GS
[0.75 0 0 0.75 0 0.25] CT
0.149 GC
2 setlinecap
1 LJ
0.667 LW
N
175.898 203 M
175.898 200.83 L
S
GR
GS
[0.75 0 0 0.75 0 0.25] CT
0.149 GC
2 setlinecap
1 LJ
0.667 LW
N
177.995 203 M
177.995 200.83 L
S
GR
GS
[0.75 0 0 0.75 0 0.25] CT
0.149 GC
2 setlinecap
1 LJ
0.667 LW
N
179.845 203 M
179.845 200.83 L
S
GR
GS
[0.75 0 0 0.75 0 0.25] CT
0.149 GC
2 setlinecap
1 LJ
0.667 LW
N
181.5 203 M
181.5 200.83 L
S
GR
GS
[0.75 0 0 0.75 0 0.25] CT
0.149 GC
2 setlinecap
1 LJ
0.667 LW
N
192.387 203 M
192.387 200.83 L
S
GR
GS
[0.75 0 0 0.75 0 0.25] CT
0.149 GC
2 setlinecap
1 LJ
0.667 LW
N
198.756 203 M
198.756 200.83 L
S
GR
GS
[0.75 0 0 0.75 0 0.25] CT
0.149 GC
2 setlinecap
1 LJ
0.667 LW
N
203.275 203 M
203.275 200.83 L
S
GR
GS
[0.75 0 0 0.75 0 0.25] CT
0.149 GC
2 setlinecap
1 LJ
0.667 LW
N
206.779 203 M
206.779 200.83 L
S
GR
GS
[0.75 0 0 0.75 0 0.25] CT
0.149 GC
2 setlinecap
1 LJ
0.667 LW
N
209.643 203 M
209.643 200.83 L
S
GR
GS
[0.75 0 0 0.75 0 0.25] CT
0.149 GC
2 setlinecap
1 LJ
0.667 LW
N
212.064 203 M
212.064 200.83 L
S
GR
GS
[0.75 0 0 0.75 0 0.25] CT
0.149 GC
2 setlinecap
1 LJ
0.667 LW
N
214.162 203 M
214.162 200.83 L
S
GR
GS
[0.75 0 0 0.75 0 0.25] CT
0.149 GC
2 setlinecap
1 LJ
0.667 LW
N
216.012 203 M
216.012 200.83 L
S
GR
GS
[0.75 0 0 0.75 0 0.25] CT
0.149 GC
2 setlinecap
1 LJ
0.667 LW
N
217.667 203 M
217.667 200.83 L
S
GR
GS
[0.75 0 0 0.75 0 0.25] CT
0.149 GC
2 setlinecap
1 LJ
0.667 LW
N
228.554 203 M
228.554 200.83 L
S
GR
GS
[0.75 0 0 0.75 0 0.25] CT
0.149 GC
2 setlinecap
1 LJ
0.667 LW
N
234.923 203 M
234.923 200.83 L
S
GR
GS
[0.75 0 0 0.75 0 0.25] CT
0.149 GC
2 setlinecap
1 LJ
0.667 LW
N
239.441 203 M
239.441 200.83 L
S
GR
GS
[0.75 0 0 0.75 0 0.25] CT
0.149 GC
2 setlinecap
1 LJ
0.667 LW
N
242.946 203 M
242.946 200.83 L
S
GR
GS
[0.75 0 0 0.75 0 0.25] CT
0.149 GC
2 setlinecap
1 LJ
0.667 LW
N
245.81 203 M
245.81 200.83 L
S
GR
GS
[0.75 0 0 0.75 0 0.25] CT
0.149 GC
2 setlinecap
1 LJ
0.667 LW
N
248.231 203 M
248.231 200.83 L
S
GR
GS
[0.75 0 0 0.75 0 0.25] CT
0.149 GC
2 setlinecap
1 LJ
0.667 LW
N
250.328 203 M
250.328 200.83 L
S
GR
GS
[0.75 0 0 0.75 0 0.25] CT
0.149 GC
2 setlinecap
1 LJ
0.667 LW
N
252.178 203 M
252.178 200.83 L
S
GR
GS
[0.75 0 0 0.75 0 0.25] CT
0.149 GC
2 setlinecap
1 LJ
0.667 LW
N
253.833 203 M
253.833 200.83 L
S
GR
GS
[0.75 0 0 0.75 0 0.25] CT
0.149 GC
2 setlinecap
1 LJ
0.667 LW
N
264.721 203 M
264.721 200.83 L
S
GR
GS
[0.75 0 0 0.75 0 0.25] CT
0.149 GC
2 setlinecap
1 LJ
0.667 LW
N
271.089 203 M
271.089 200.83 L
S
GR
GS
[0.75 0 0 0.75 0 0.25] CT
0.149 GC
2 setlinecap
1 LJ
0.667 LW
N
275.608 203 M
275.608 200.83 L
S
GR
GS
[0.75 0 0 0.75 0 0.25] CT
0.149 GC
2 setlinecap
1 LJ
0.667 LW
N
279.113 203 M
279.113 200.83 L
S
GR
GS
[0.75 0 0 0.75 0 0.25] CT
0.149 GC
2 setlinecap
1 LJ
0.667 LW
N
281.976 203 M
281.976 200.83 L
S
GR
GS
[0.75 0 0 0.75 0 0.25] CT
0.149 GC
2 setlinecap
1 LJ
0.667 LW
N
284.398 203 M
284.398 200.83 L
S
GR
GS
[0.75 0 0 0.75 0 0.25] CT
0.149 GC
2 setlinecap
1 LJ
0.667 LW
N
286.495 203 M
286.495 200.83 L
S
GR
GS
[0.75 0 0 0.75 0 0.25] CT
0.149 GC
2 setlinecap
1 LJ
0.667 LW
N
288.345 203 M
288.345 200.83 L
S
GR
GS
[0.75 0 0 0.75 0 0.25] CT
0.149 GC
2 setlinecap
1 LJ
0.667 LW
N
290 203 M
290 200.83 L
S
GR
GS
[0.75 0 0 0.75 0 0.25] CT
0.149 GC
2 setlinecap
1 LJ
0.667 LW
N
300.887 203 M
300.887 200.83 L
S
GR
GS
[0.75 0 0 0.75 0 0.25] CT
0.149 GC
2 setlinecap
1 LJ
0.667 LW
N
307.256 203 M
307.256 200.83 L
S
GR
GS
[0.75 0 0 0.75 0 0.25] CT
0.149 GC
2 setlinecap
1 LJ
0.667 LW
N
311.775 203 M
311.775 200.83 L
S
GR
GS
[0.75 0 0 0.75 0 0.25] CT
0.149 GC
2 setlinecap
1 LJ
0.667 LW
N
315.279 203 M
315.279 200.83 L
S
GR
GS
[0.75 0 0 0.75 0 0.25] CT
0.149 GC
2 setlinecap
1 LJ
0.667 LW
N
318.143 203 M
318.143 200.83 L
S
GR
GS
[0.75 0 0 0.75 0 0.25] CT
0.149 GC
2 setlinecap
1 LJ
0.667 LW
N
320.564 203 M
320.564 200.83 L
S
GR
GS
[0.75 0 0 0.75 0 0.25] CT
0.149 GC
2 setlinecap
1 LJ
0.667 LW
N
322.662 203 M
322.662 200.83 L
S
GR
GS
[0.75 0 0 0.75 0 0.25] CT
0.149 GC
2 setlinecap
1 LJ
0.667 LW
N
324.512 203 M
324.512 200.83 L
S
GR
GS
[0.75 0 0 0.75 0 0.25] CT
0.149 GC
2 setlinecap
1 LJ
0.667 LW
N
326.167 203 M
326.167 200.83 L
S
GR
GS
[0.75 0 0 0.75 0 0.25] CT
0.149 GC
2 setlinecap
1 LJ
0.667 LW
N
337.054 203 M
337.054 200.83 L
S
GR
GS
[0.75 0 0 0.75 0 0.25] CT
0.149 GC
2 setlinecap
1 LJ
0.667 LW
N
343.423 203 M
343.423 200.83 L
S
GR
GS
[0.75 0 0 0.75 0 0.25] CT
0.149 GC
2 setlinecap
1 LJ
0.667 LW
N
347.941 203 M
347.941 200.83 L
S
GR
GS
[0.75 0 0 0.75 0 0.25] CT
0.149 GC
2 setlinecap
1 LJ
0.667 LW
N
351.446 203 M
351.446 200.83 L
S
GR
GS
[0.75 0 0 0.75 0 0.25] CT
0.149 GC
2 setlinecap
1 LJ
0.667 LW
N
354.31 203 M
354.31 200.83 L
S
GR
GS
[0.75 0 0 0.75 0 0.25] CT
0.149 GC
2 setlinecap
1 LJ
0.667 LW
N
356.731 203 M
356.731 200.83 L
S
GR
GS
[0.75 0 0 0.75 0 0.25] CT
0.149 GC
2 setlinecap
1 LJ
0.667 LW
N
358.828 203 M
358.828 200.83 L
S
GR
GS
[0.75 0 0 0.75 0 0.25] CT
0.149 GC
2 setlinecap
1 LJ
0.667 LW
N
360.678 203 M
360.678 200.83 L
S
GR
GS
[0.75 0 0 0.75 0 0.25] CT
0.149 GC
2 setlinecap
1 LJ
0.667 LW
N
362.333 203 M
362.333 200.83 L
S
GR
GS
[0.75 0 0 0.75 0 0.25] CT
0.149 GC
2 setlinecap
1 LJ
0.667 LW
N
373.221 203 M
373.221 200.83 L
S
GR
GS
[0.75 0 0 0.75 0 0.25] CT
0.149 GC
2 setlinecap
1 LJ
0.667 LW
N
379.589 203 M
379.589 200.83 L
S
GR
GS
[0.75 0 0 0.75 0 0.25] CT
0.149 GC
2 setlinecap
1 LJ
0.667 LW
N
384.108 203 M
384.108 200.83 L
S
GR
GS
[0.75 0 0 0.75 0 0.25] CT
0.149 GC
2 setlinecap
1 LJ
0.667 LW
N
387.613 203 M
387.613 200.83 L
S
GR
GS
[0.75 0 0 0.75 0 0.25] CT
0.149 GC
2 setlinecap
1 LJ
0.667 LW
N
390.476 203 M
390.476 200.83 L
S
GR
GS
[0.75 0 0 0.75 0 0.25] CT
0.149 GC
2 setlinecap
1 LJ
0.667 LW
N
392.898 203 M
392.898 200.83 L
S
GR
GS
[0.75 0 0 0.75 0 0.25] CT
0.149 GC
2 setlinecap
1 LJ
0.667 LW
N
394.995 203 M
394.995 200.83 L
S
GR
GS
[0.75 0 0 0.75 0 0.25] CT
0.149 GC
2 setlinecap
1 LJ
0.667 LW
N
396.845 203 M
396.845 200.83 L
S
GR
GS
[0.75 0 0 0.75 0 0.25] CT
0.149 GC
2 setlinecap
1 LJ
0.667 LW
N
398.5 203 M
398.5 200.83 L
S
GR
GS
[0.75 0 0 0.75 0 0.25] CT
0.149 GC
2 setlinecap
1 LJ
0.667 LW
N
409.387 203 M
409.387 200.83 L
S
GR
GS
[0.75 0 0 0.75 0 0.25] CT
0.149 GC
2 setlinecap
1 LJ
0.667 LW
N
415.756 203 M
415.756 200.83 L
S
GR
GS
[0.75 0 0 0.75 0 0.25] CT
0.149 GC
2 setlinecap
1 LJ
0.667 LW
N
420.275 203 M
420.275 200.83 L
S
GR
GS
[0.75 0 0 0.75 0 0.25] CT
0.149 GC
2 setlinecap
1 LJ
0.667 LW
N
423.779 203 M
423.779 200.83 L
S
GR
GS
[0.75 0 0 0.75 0 0.25] CT
0.149 GC
2 setlinecap
1 LJ
0.667 LW
N
426.643 203 M
426.643 200.83 L
S
GR
GS
[0.75 0 0 0.75 0 0.25] CT
0.149 GC
2 setlinecap
1 LJ
0.667 LW
N
429.064 203 M
429.064 200.83 L
S
GR
GS
[0.75 0 0 0.75 0 0.25] CT
0.149 GC
2 setlinecap
1 LJ
0.667 LW
N
431.162 203 M
431.162 200.83 L
S
GR
GS
[0.75 0 0 0.75 0 0.25] CT
0.149 GC
2 setlinecap
1 LJ
0.667 LW
N
433.012 203 M
433.012 200.83 L
S
GR
GS
[0.75 0 0 0.75 0 0.25] CT
0.149 GC
2 setlinecap
1 LJ
0.667 LW
N
434.667 203 M
434.667 200.83 L
S
GR
GS
[0.75 0 0 0.75 0 0.25] CT
0.149 GC
2 setlinecap
1 LJ
0.667 LW
N
445.554 203 M
445.554 200.83 L
S
GR
GS
[0.75 0 0 0.75 0 0.25] CT
0.149 GC
2 setlinecap
1 LJ
0.667 LW
N
451.923 203 M
451.923 200.83 L
S
GR
GS
[0.75 0 0 0.75 0 0.25] CT
0.149 GC
2 setlinecap
1 LJ
0.667 LW
N
456.441 203 M
456.441 200.83 L
S
GR
GS
[0.75 0 0 0.75 0 0.25] CT
0.149 GC
2 setlinecap
1 LJ
0.667 LW
N
459.946 203 M
459.946 200.83 L
S
GR
GS
[0.75 0 0 0.75 0 0.25] CT
0.149 GC
2 setlinecap
1 LJ
0.667 LW
N
462.81 203 M
462.81 200.83 L
S
GR
GS
[0.75 0 0 0.75 0 0.25] CT
0.149 GC
2 setlinecap
1 LJ
0.667 LW
N
465.231 203 M
465.231 200.83 L
S
GR
GS
[0.75 0 0 0.75 0 0.25] CT
0.149 GC
2 setlinecap
1 LJ
0.667 LW
N
467.328 203 M
467.328 200.83 L
S
GR
GS
[0.75 0 0 0.75 0 0.25] CT
0.149 GC
2 setlinecap
1 LJ
0.667 LW
N
469.178 203 M
469.178 200.83 L
S
GR
GS
[0.75 0 0 0.75 0 0.25] CT
0.149 GC
2 setlinecap
1 LJ
0.667 LW
N
470.833 203 M
470.833 200.83 L
S
GR
GS
[0.75 0 0 0.75 0 0.25] CT
0.149 GC
2 setlinecap
1 LJ
0.667 LW
N
481.721 203 M
481.721 200.83 L
S
GR
GS
[0.75 0 0 0.75 0 0.25] CT
0.149 GC
2 setlinecap
1 LJ
0.667 LW
N
488.089 203 M
488.089 200.83 L
S
GR
GS
[0.75 0 0 0.75 0 0.25] CT
0.149 GC
2 setlinecap
1 LJ
0.667 LW
N
492.608 203 M
492.608 200.83 L
S
GR
GS
[0.75 0 0 0.75 0 0.25] CT
0.149 GC
2 setlinecap
1 LJ
0.667 LW
N
496.113 203 M
496.113 200.83 L
S
GR
GS
[0.75 0 0 0.75 0 0.25] CT
0.149 GC
2 setlinecap
1 LJ
0.667 LW
N
498.976 203 M
498.976 200.83 L
S
GR
GS
[0.75 0 0 0.75 0 0.25] CT
0.149 GC
2 setlinecap
1 LJ
0.667 LW
N
501.398 203 M
501.398 200.83 L
S
GR
GS
[0.75 0 0 0.75 0 0.25] CT
0.149 GC
2 setlinecap
1 LJ
0.667 LW
N
503.495 203 M
503.495 200.83 L
S
GR
GS
[0.75 0 0 0.75 0 0.25] CT
0.149 GC
2 setlinecap
1 LJ
0.667 LW
N
505.345 203 M
505.345 200.83 L
S
GR
GS
[0.75 0 0 0.75 0 0.25] CT
0.149 GC
2 setlinecap
1 LJ
0.667 LW
N
507 203 M
507 200.83 L
S
GR
GS
[0.75 0 0 0.75 42 172.75] CT
0.149 GC
/Helvetica 16 F
GS
[1 0 0 1 0 0] CT
0 0 moveto 
1 -1 scale
(10) t 
GR
GR
GS
[0.75 0 0 0.75 57.75 166.75] CT
0.149 GC
/Helvetica 12.8 F
GS
[1 0 0 1 0 0] CT
0 0 moveto 
1 -1 scale
(-6) t 
GR
GR
GS
[0.75 0 0 0.75 96 172.75] CT
0.149 GC
/Helvetica 16 F
GS
[1 0 0 1 0 0] CT
0 0 moveto 
1 -1 scale
(10) t 
GR
GR
GS
[0.75 0 0 0.75 111.75 166.75] CT
0.149 GC
/Helvetica 12.8 F
GS
[1 0 0 1 0 0] CT
0 0 moveto 
1 -1 scale
(-4) t 
GR
GR
GS
[0.75 0 0 0.75 150.75 172.75] CT
0.149 GC
/Helvetica 16 F
GS
[1 0 0 1 0 0] CT
0 0 moveto 
1 -1 scale
(10) t 
GR
GR
GS
[0.75 0 0 0.75 166.5 166.75] CT
0.149 GC
/Helvetica 12.8 F
GS
[1 0 0 1 0 0] CT
0 0 moveto 
1 -1 scale
(-2) t 
GR
GR
GS
[0.75 0 0 0.75 206.25 172.75] CT
0.149 GC
/Helvetica 16 F
GS
[1 0 0 1 0 0] CT
0 0 moveto 
1 -1 scale
(10) t 
GR
GR
GS
[0.75 0 0 0.75 222 166.75] CT
0.149 GC
/Helvetica 12.8 F
GS
[1 0 0 1 0 0] CT
0 0 moveto 
1 -1 scale
(0) t 
GR
GR
GS
[0.75 0 0 0.75 260.25 172.75] CT
0.149 GC
/Helvetica 16 F
GS
[1 0 0 1 0 0] CT
0 0 moveto 
1 -1 scale
(10) t 
GR
GR
GS
[0.75 0 0 0.75 276 166.75] CT
0.149 GC
/Helvetica 12.8 F
GS
[1 0 0 1 0 0] CT
0 0 moveto 
1 -1 scale
(2) t 
GR
GR
GS
[0.75 0 0 0.75 315 172.75] CT
0.149 GC
/Helvetica 16 F
GS
[1 0 0 1 0 0] CT
0 0 moveto 
1 -1 scale
(10) t 
GR
GR
GS
[0.75 0 0 0.75 330.75 166.75] CT
0.149 GC
/Helvetica 12.8 F
GS
[1 0 0 1 0 0] CT
0 0 moveto 
1 -1 scale
(4) t 
GR
GR
GS
[0.75 0 0 0.75 369 172.75] CT
0.149 GC
/Helvetica 16 F
GS
[1 0 0 1 0 0] CT
0 0 moveto 
1 -1 scale
(10) t 
GR
GR
GS
[0.75 0 0 0.75 384.75 166.75] CT
0.149 GC
/Helvetica 12.8 F
GS
[1 0 0 1 0 0] CT
0 0 moveto 
1 -1 scale
(6) t 
GR
GR
GS
[0.75 0 0 0.75 217.50016 177.4] CT
0.149 GC
N
-90.308 8.612 M
-90.308 6.55 -89.323 5.12 QT
-88.339 3.69 -86.667 2.964 QT
-84.995 2.237 -82.995 2.237 QT
-81.073 2.237 -79.558 3.456 QT
-78.276 2.315 L
-78.198 2.253 -78.104 2.237 QT
-77.886 2.237 L
-77.714 2.284 -77.667 2.456 QT
-77.667 6.925 L
-77.714 7.112 -77.886 7.159 QT
-78.464 7.159 L
-78.651 7.112 -78.698 6.925 QT
-78.823 5.909 -79.354 5.05 QT
-79.886 4.19 -80.722 3.675 QT
-81.558 3.159 -82.589 3.159 QT
-84.354 3.159 -85.44 3.807 QT
-86.526 4.456 -87.003 5.675 QT
-87.479 6.893 -87.479 8.612 QT
-87.479 10.362 -86.995 11.565 QT
-86.511 12.768 -85.417 13.417 QT
-84.323 14.065 -82.558 14.065 QT
-81.542 14.065 -80.62 13.612 QT
-79.698 13.159 -79.144 12.346 QT
-78.589 11.534 -78.589 10.503 QT
-78.558 10.331 -78.354 10.284 QT
-77.886 10.284 L
-77.667 10.331 -77.667 10.55 QT
-77.667 11.565 -78.128 12.393 QT
-78.589 13.221 -79.362 13.807 QT
-80.136 14.393 -81.097 14.69 QT
-82.058 14.987 -82.995 14.987 QT
-84.995 14.987 -86.667 14.26 QT
-88.339 13.534 -89.323 12.096 QT
-90.308 10.659 -90.308 8.612 QT
cp
f
GR
GS
[0.75 0 0 0.75 217.50016 177.4] CT
0.149 GC
N
-76.268 10.862 M
-76.268 9.534 -75.666 8.581 QT
-75.065 7.628 -74.018 7.128 QT
-72.971 6.628 -71.674 6.628 QT
-70.706 6.628 -69.87 6.909 QT
-69.034 7.19 -68.401 7.737 QT
-67.768 8.284 -67.432 9.073 QT
-67.096 9.862 -67.096 10.862 QT
-67.096 11.846 -67.456 12.604 QT
-67.815 13.362 -68.448 13.87 QT
-69.081 14.378 -69.916 14.635 QT
-70.752 14.893 -71.674 14.893 QT
-72.596 14.893 -73.432 14.635 QT
-74.268 14.378 -74.909 13.87 QT
-75.549 13.362 -75.909 12.604 QT
-76.268 11.846 -76.268 10.862 QT
cp
-71.674 14.096 M
-70.643 14.096 -70.166 13.62 QT
-69.69 13.143 -69.573 12.448 QT
-69.456 11.753 -69.456 10.628 QT
-69.456 9.784 -69.518 9.268 QT
-69.581 8.753 -69.784 8.315 QT
-69.987 7.878 -70.44 7.612 QT
-70.893 7.346 -71.674 7.346 QT
-72.456 7.346 -72.909 7.612 QT
-73.362 7.878 -73.573 8.323 QT
-73.784 8.768 -73.838 9.331 QT
-73.893 9.893 -73.893 10.628 QT
-73.893 11.753 -73.784 12.448 QT
-73.674 13.143 -73.19 13.62 QT
-72.706 14.096 -71.674 14.096 QT
cp
f
GR
GS
[0.75 0 0 0.75 217.50016 177.4] CT
0.149 GC
N
-66.039 14.659 M
-66.039 12.159 L
-65.992 11.987 -65.804 11.94 QT
-65.336 11.94 L
-65.164 11.987 -65.148 12.081 QT
-64.992 12.706 -64.656 13.19 QT
-64.32 13.675 -63.82 13.925 QT
-63.32 14.175 -62.632 14.175 QT
-60.601 14.175 -60.601 12.862 QT
-60.601 12.503 -60.836 12.237 QT
-61.07 11.971 -61.422 11.815 QT
-61.773 11.659 -62.101 11.596 QT
-63.445 11.362 L
-64.117 11.237 -64.695 10.956 QT
-65.273 10.675 -65.656 10.182 QT
-66.039 9.69 -66.039 9.034 QT
-66.039 8.331 -65.742 7.846 QT
-65.445 7.362 -64.968 7.104 QT
-64.492 6.846 -63.906 6.737 QT
-63.32 6.628 -62.632 6.628 QT
-61.586 6.628 -60.929 6.971 QT
-60.289 6.643 L
-60.211 6.628 L
-59.992 6.628 L
-59.836 6.675 -59.773 6.846 QT
-59.773 8.831 L
-59.836 9.018 -59.992 9.065 QT
-60.461 9.065 L
-60.648 9.018 -60.695 8.831 QT
-60.695 8.018 -61.257 7.651 QT
-61.82 7.284 -62.679 7.284 QT
-64.695 7.284 -64.695 8.362 QT
-64.695 9.112 -63.289 9.409 QT
-61.914 9.628 L
-61.257 9.737 -60.64 10.089 QT
-60.023 10.44 -59.64 10.987 QT
-59.257 11.534 -59.257 12.221 QT
-59.257 13.19 -59.718 13.792 QT
-60.179 14.393 -60.945 14.643 QT
-61.711 14.893 -62.632 14.893 QT
-63.836 14.893 -64.679 14.331 QT
-65.539 14.878 L
-65.617 14.893 L
-65.804 14.893 L
-65.992 14.846 -66.039 14.659 QT
cp
f
GR
GS
[0.75 0 0 0.75 217.50016 177.4] CT
0.149 GC
N
-56.93 12.675 M
-56.93 7.706 L
-58.368 7.706 L
-58.368 6.987 L
-57.711 6.987 -57.196 6.659 QT
-56.68 6.331 -56.36 5.8 QT
-56.04 5.268 -55.876 4.628 QT
-55.711 3.987 -55.711 3.362 QT
-54.79 3.362 L
-54.79 6.8 L
-52.211 6.8 L
-52.211 7.706 L
-54.79 7.706 L
-54.79 12.628 L
-54.79 13.268 -54.579 13.682 QT
-54.368 14.096 -53.79 14.096 QT
-53.305 14.096 -53.047 13.635 QT
-52.79 13.175 -52.79 12.628 QT
-52.79 11.596 L
-51.868 11.596 L
-51.868 12.675 L
-51.868 13.253 -52.157 13.768 QT
-52.446 14.284 -52.938 14.589 QT
-53.43 14.893 -54.008 14.893 QT
-55.258 14.893 -56.094 14.378 QT
-56.93 13.862 -56.93 12.675 QT
cp
f
GR
GS
[0.75 0 0 0.75 217.50016 177.4] CT
0.149 GC
N
-43.438 14.659 M
-43.438 12.159 L
-43.391 11.987 -43.203 11.94 QT
-42.734 11.94 L
-42.563 11.987 -42.547 12.081 QT
-42.391 12.706 -42.055 13.19 QT
-41.719 13.675 -41.219 13.925 QT
-40.719 14.175 -40.031 14.175 QT
-38 14.175 -38 12.862 QT
-38 12.503 -38.234 12.237 QT
-38.469 11.971 -38.82 11.815 QT
-39.172 11.659 -39.5 11.596 QT
-40.844 11.362 L
-41.516 11.237 -42.094 10.956 QT
-42.672 10.675 -43.055 10.182 QT
-43.438 9.69 -43.438 9.034 QT
-43.438 8.331 -43.141 7.846 QT
-42.844 7.362 -42.367 7.104 QT
-41.891 6.846 -41.305 6.737 QT
-40.719 6.628 -40.031 6.628 QT
-38.984 6.628 -38.328 6.971 QT
-37.688 6.643 L
-37.609 6.628 L
-37.391 6.628 L
-37.234 6.675 -37.172 6.846 QT
-37.172 8.831 L
-37.234 9.018 -37.391 9.065 QT
-37.859 9.065 L
-38.047 9.018 -38.094 8.831 QT
-38.094 8.018 -38.656 7.651 QT
-39.219 7.284 -40.078 7.284 QT
-42.094 7.284 -42.094 8.362 QT
-42.094 9.112 -40.688 9.409 QT
-39.313 9.628 L
-38.656 9.737 -38.039 10.089 QT
-37.422 10.44 -37.039 10.987 QT
-36.656 11.534 -36.656 12.221 QT
-36.656 13.19 -37.117 13.792 QT
-37.578 14.393 -38.344 14.643 QT
-39.109 14.893 -40.031 14.893 QT
-41.234 14.893 -42.078 14.331 QT
-42.938 14.878 L
-43.016 14.893 L
-43.203 14.893 L
-43.391 14.846 -43.438 14.659 QT
cp
f
GR
GS
[0.75 0 0 0.75 217.50016 177.4] CT
0.149 GC
N
-35.454 10.784 M
-35.454 9.503 -34.868 8.55 QT
-34.282 7.596 -33.259 7.112 QT
-32.235 6.628 -30.97 6.628 QT
-29.688 6.628 -28.727 6.964 QT
-27.767 7.3 -27.767 8.331 QT
-27.767 8.831 -28.095 9.159 QT
-28.423 9.487 -28.923 9.487 QT
-29.423 9.487 -29.759 9.159 QT
-30.095 8.831 -30.095 8.331 QT
-30.095 7.768 -29.767 7.503 QT
-30.251 7.425 -30.954 7.425 QT
-31.845 7.425 -32.313 7.917 QT
-32.782 8.409 -32.931 9.143 QT
-33.079 9.878 -33.079 10.768 QT
-33.079 14.096 -30.563 14.096 QT
-30.063 14.096 -29.642 13.925 QT
-29.22 13.753 -28.899 13.401 QT
-28.579 13.05 -28.438 12.565 QT
-28.36 12.456 -28.22 12.425 QT
-27.751 12.425 L
-27.532 12.487 -27.532 12.675 QT
-27.532 12.69 -27.548 12.768 QT
-27.782 13.487 -28.298 13.964 QT
-28.813 14.44 -29.509 14.667 QT
-30.204 14.893 -30.97 14.893 QT
-32.22 14.893 -33.243 14.409 QT
-34.267 13.925 -34.86 12.995 QT
-35.454 12.065 -35.454 10.784 QT
cp
f
GR
GS
[0.75 0 0 0.75 217.50016 177.4] CT
0.149 GC
N
-26.568 12.768 M
-26.568 11.925 -25.951 11.362 QT
-25.334 10.8 -24.427 10.503 QT
-23.521 10.206 -22.529 10.089 QT
-21.537 9.971 -20.755 9.971 QT
-20.755 9.315 L
-20.755 8.44 -21.24 7.893 QT
-21.724 7.346 -22.568 7.346 QT
-23.412 7.346 -23.943 7.456 QT
-23.552 7.784 -23.552 8.331 QT
-23.552 8.831 -23.888 9.159 QT
-24.224 9.487 -24.724 9.487 QT
-25.224 9.487 -25.56 9.143 QT
-25.896 8.8 -25.896 8.331 QT
-25.896 7.253 -24.912 6.94 QT
-23.927 6.628 -22.552 6.628 QT
-21.865 6.628 -21.193 6.76 QT
-20.521 6.893 -19.935 7.206 QT
-19.349 7.518 -18.99 8.018 QT
-18.63 8.518 -18.63 9.253 QT
-18.63 13.425 L
-18.63 13.862 -17.396 13.862 QT
-17.146 13.925 -17.099 14.143 QT
-17.099 14.487 L
-17.146 14.737 -17.396 14.784 QT
-18.63 14.784 L
-19.318 14.784 -19.88 14.542 QT
-20.443 14.3 -20.443 13.706 QT
-20.443 13.487 L
-20.834 14.175 -21.552 14.534 QT
-22.271 14.893 -23.099 14.893 QT
-24.427 14.893 -25.498 14.409 QT
-26.568 13.925 -26.568 12.768 QT
cp
-24.396 12.768 M
-24.396 13.362 -23.927 13.768 QT
-23.459 14.175 -22.849 14.175 QT
-22.334 14.175 -21.849 13.964 QT
-21.365 13.753 -21.06 13.346 QT
-20.755 12.94 -20.755 12.425 QT
-20.755 10.612 L
-21.537 10.612 -22.365 10.823 QT
-23.193 11.034 -23.794 11.518 QT
-24.396 12.003 -24.396 12.768 QT
cp
f
GR
GS
[0.75 0 0 0.75 217.50016 177.4] CT
0.149 GC
N
-16.495 14.784 M
-16.495 13.862 L
-15.26 13.862 L
-15.26 3.862 L
-15.26 3.518 -15.612 3.44 QT
-15.963 3.362 -16.495 3.362 QT
-16.495 2.44 L
-13.245 2.3 L
-13.245 13.862 L
-11.995 13.862 L
-11.995 14.784 L
-16.495 14.784 L
cp
f
GR
GS
[0.75 0 0 0.75 217.50016 177.4] CT
0.149 GC
N
-10.873 14.784 M
-10.873 13.862 L
-9.638 13.862 L
-9.638 8.253 L
-9.638 7.909 -9.966 7.823 QT
-10.294 7.737 -10.826 7.737 QT
-10.826 6.831 L
-7.623 6.675 L
-7.623 13.862 L
-6.482 13.862 L
-6.482 14.784 L
-10.873 14.784 L
cp
-10.31 3.706 M
-10.31 3.096 -9.896 2.69 QT
-9.482 2.284 -8.888 2.284 QT
-8.263 2.284 -7.849 2.69 QT
-7.435 3.096 -7.435 3.706 QT
-7.435 4.3 -7.849 4.721 QT
-8.263 5.143 -8.888 5.143 QT
-9.482 5.143 -9.896 4.721 QT
-10.31 4.3 -10.31 3.706 QT
cp
f
GR
GS
[0.75 0 0 0.75 217.50016 177.4] CT
0.149 GC
N
-5.282 14.784 M
-5.282 13.862 L
-4.047 13.862 L
-4.047 8.253 L
-4.047 7.737 -5.282 7.737 QT
-5.282 6.831 L
-2.11 6.675 L
-2.11 8.518 L
-1.672 7.659 -0.844 7.167 QT
-0.016 6.675 0.937 6.675 QT
2.359 6.675 3.078 7.26 QT
3.797 7.846 3.797 9.253 QT
3.797 13.862 L
5.047 13.862 L
5.047 14.784 L
0.437 14.784 L
0.437 13.862 L
1.687 13.862 L
1.687 9.315 L
1.687 8.487 1.523 7.94 QT
1.359 7.393 0.718 7.393 QT
0 7.393 -0.61 7.768 QT
-1.219 8.143 -1.571 8.768 QT
-1.922 9.393 -1.922 10.081 QT
-1.922 13.862 L
-0.688 13.862 L
-0.688 14.784 L
-5.282 14.784 L
cp
f
GR
GS
[0.75 0 0 0.75 217.50016 177.4] CT
0.149 GC
N
5.76 16.096 M
5.76 15.534 6.189 15.135 QT
6.619 14.737 7.213 14.565 QT
6.853 14.253 6.666 13.8 QT
6.478 13.346 6.478 12.846 QT
6.478 11.956 7.072 11.237 QT
6.65 10.893 6.4 10.393 QT
6.15 9.893 6.15 9.346 QT
6.15 8.44 6.689 7.831 QT
7.228 7.221 8.049 6.948 QT
8.869 6.675 9.775 6.675 QT
10.463 6.675 11.072 6.815 QT
11.682 6.956 12.166 7.253 QT
13.025 6.596 14.135 6.596 QT
14.572 6.596 14.9 6.909 QT
15.228 7.221 15.228 7.675 QT
15.228 8.018 14.994 8.253 QT
14.76 8.487 14.416 8.487 QT
14.088 8.487 13.846 8.253 QT
13.603 8.018 13.603 7.675 QT
13.603 7.534 13.666 7.346 QT
13.213 7.425 12.682 7.659 QT
13.025 7.987 13.205 8.425 QT
13.385 8.862 13.385 9.346 QT
13.385 10.268 12.853 10.878 QT
12.322 11.487 11.494 11.76 QT
10.666 12.034 9.775 12.034 QT
8.478 12.034 7.588 11.581 QT
7.432 11.815 7.432 12.143 QT
7.432 12.596 7.767 12.925 QT
8.103 13.253 8.572 13.253 QT
10.385 13.253 L
12.432 13.253 13.682 13.792 QT
14.932 14.331 14.932 16.096 QT
14.932 16.784 14.471 17.245 QT
14.01 17.706 13.267 17.964 QT
12.525 18.221 11.783 18.315 QT
11.041 18.409 10.353 18.409 QT
9.666 18.409 8.924 18.315 QT
8.182 18.221 7.439 17.964 QT
6.697 17.706 6.228 17.245 QT
5.76 16.784 5.76 16.096 QT
cp
7.385 16.096 M
7.385 16.956 8.346 17.323 QT
9.307 17.69 10.353 17.69 QT
11.385 17.69 12.353 17.323 QT
13.322 16.956 13.322 16.096 QT
13.322 15.44 12.408 15.245 QT
11.494 15.05 10.385 15.05 QT
8.572 15.05 L
8.041 15.05 7.713 15.315 QT
7.385 15.581 7.385 16.096 QT
cp
9.775 11.315 M
10.713 11.315 11.017 10.846 QT
11.322 10.378 11.322 9.393 QT
11.322 9.331 L
11.322 8.346 11.017 7.87 QT
10.713 7.393 9.775 7.393 QT
8.838 7.393 8.533 7.87 QT
8.228 8.346 8.228 9.331 QT
8.228 9.393 L
8.228 10.362 8.533 10.839 QT
8.838 11.315 9.775 11.315 QT
cp
f
GR
GS
[0.75 0 0 0.75 217.50016 177.4] CT
0.149 GC
N
22.876 14.784 M
22.876 13.862 L
24.126 13.862 L
24.126 7.706 L
22.798 7.706 L
22.798 6.8 L
24.126 6.8 L
24.126 4.862 L
24.126 3.925 24.728 3.323 QT
25.329 2.721 26.228 2.448 QT
27.126 2.175 28.079 2.175 QT
28.548 2.175 28.986 2.37 QT
29.423 2.565 29.704 2.94 QT
29.986 3.315 29.986 3.784 QT
29.986 4.268 29.65 4.604 QT
29.314 4.94 28.845 4.94 QT
28.361 4.94 28.032 4.604 QT
27.704 4.268 27.704 3.784 QT
27.704 3.237 28.079 2.925 QT
28.001 2.893 27.861 2.893 QT
27.017 2.893 26.525 3.471 QT
26.032 4.05 26.032 4.925 QT
26.032 6.8 L
28.173 6.8 L
28.173 7.706 L
26.142 7.706 L
26.142 13.862 L
27.704 13.862 L
27.704 14.784 L
22.876 14.784 L
cp
f
GR
GS
[0.75 0 0 0.75 217.50016 177.4] CT
0.149 GC
N
28.811 12.768 M
28.811 11.925 29.428 11.362 QT
30.045 10.8 30.951 10.503 QT
31.858 10.206 32.85 10.089 QT
33.842 9.971 34.623 9.971 QT
34.623 9.315 L
34.623 8.44 34.139 7.893 QT
33.654 7.346 32.811 7.346 QT
31.967 7.346 31.436 7.456 QT
31.826 7.784 31.826 8.331 QT
31.826 8.831 31.49 9.159 QT
31.154 9.487 30.654 9.487 QT
30.154 9.487 29.818 9.143 QT
29.483 8.8 29.483 8.331 QT
29.483 7.253 30.467 6.94 QT
31.451 6.628 32.826 6.628 QT
33.514 6.628 34.186 6.76 QT
34.858 6.893 35.443 7.206 QT
36.029 7.518 36.389 8.018 QT
36.748 8.518 36.748 9.253 QT
36.748 13.425 L
36.748 13.862 37.983 13.862 QT
38.233 13.925 38.279 14.143 QT
38.279 14.487 L
38.233 14.737 37.983 14.784 QT
36.748 14.784 L
36.061 14.784 35.498 14.542 QT
34.936 14.3 34.936 13.706 QT
34.936 13.487 L
34.545 14.175 33.826 14.534 QT
33.108 14.893 32.279 14.893 QT
30.951 14.893 29.881 14.409 QT
28.811 13.925 28.811 12.768 QT
cp
30.983 12.768 M
30.983 13.362 31.451 13.768 QT
31.92 14.175 32.529 14.175 QT
33.045 14.175 33.529 13.964 QT
34.014 13.753 34.318 13.346 QT
34.623 12.94 34.623 12.425 QT
34.623 10.612 L
33.842 10.612 33.014 10.823 QT
32.186 11.034 31.584 11.518 QT
30.983 12.003 30.983 12.768 QT
cp
f
GR
GS
[0.75 0 0 0.75 217.50016 177.4] CT
0.149 GC
N
38.759 10.784 M
38.759 9.503 39.345 8.55 QT
39.931 7.596 40.954 7.112 QT
41.978 6.628 43.243 6.628 QT
44.524 6.628 45.485 6.964 QT
46.446 7.3 46.446 8.331 QT
46.446 8.831 46.118 9.159 QT
45.79 9.487 45.29 9.487 QT
44.79 9.487 44.454 9.159 QT
44.118 8.831 44.118 8.331 QT
44.118 7.768 44.446 7.503 QT
43.962 7.425 43.259 7.425 QT
42.368 7.425 41.899 7.917 QT
41.431 8.409 41.282 9.143 QT
41.134 9.878 41.134 10.768 QT
41.134 14.096 43.649 14.096 QT
44.149 14.096 44.571 13.925 QT
44.993 13.753 45.313 13.401 QT
45.634 13.05 45.774 12.565 QT
45.853 12.456 45.993 12.425 QT
46.462 12.425 L
46.681 12.487 46.681 12.675 QT
46.681 12.69 46.665 12.768 QT
46.431 13.487 45.915 13.964 QT
45.399 14.44 44.704 14.667 QT
44.009 14.893 43.243 14.893 QT
41.993 14.893 40.97 14.409 QT
39.946 13.925 39.353 12.995 QT
38.759 12.065 38.759 10.784 QT
cp
f
GR
GS
[0.75 0 0 0.75 217.50016 177.4] CT
0.149 GC
N
48.879 12.675 M
48.879 7.706 L
47.442 7.706 L
47.442 6.987 L
48.098 6.987 48.614 6.659 QT
49.129 6.331 49.45 5.8 QT
49.77 5.268 49.934 4.628 QT
50.098 3.987 50.098 3.362 QT
51.02 3.362 L
51.02 6.8 L
53.598 6.8 L
53.598 7.706 L
51.02 7.706 L
51.02 12.628 L
51.02 13.268 51.231 13.682 QT
51.442 14.096 52.02 14.096 QT
52.504 14.096 52.762 13.635 QT
53.02 13.175 53.02 12.628 QT
53.02 11.596 L
53.942 11.596 L
53.942 12.675 L
53.942 13.253 53.653 13.768 QT
53.364 14.284 52.872 14.589 QT
52.379 14.893 51.801 14.893 QT
50.551 14.893 49.715 14.378 QT
48.879 13.862 48.879 12.675 QT
cp
f
GR
GS
[0.75 0 0 0.75 217.50016 177.4] CT
0.149 GC
N
55.516 10.862 M
55.516 9.534 56.118 8.581 QT
56.719 7.628 57.766 7.128 QT
58.813 6.628 60.11 6.628 QT
61.079 6.628 61.914 6.909 QT
62.75 7.19 63.383 7.737 QT
64.016 8.284 64.352 9.073 QT
64.688 9.862 64.688 10.862 QT
64.688 11.846 64.329 12.604 QT
63.969 13.362 63.336 13.87 QT
62.704 14.378 61.868 14.635 QT
61.032 14.893 60.11 14.893 QT
59.188 14.893 58.352 14.635 QT
57.516 14.378 56.875 13.87 QT
56.235 13.362 55.875 12.604 QT
55.516 11.846 55.516 10.862 QT
cp
60.11 14.096 M
61.141 14.096 61.618 13.62 QT
62.094 13.143 62.211 12.448 QT
62.329 11.753 62.329 10.628 QT
62.329 9.784 62.266 9.268 QT
62.204 8.753 62 8.315 QT
61.797 7.878 61.344 7.612 QT
60.891 7.346 60.11 7.346 QT
59.329 7.346 58.875 7.612 QT
58.422 7.878 58.211 8.323 QT
58 8.768 57.946 9.331 QT
57.891 9.893 57.891 10.628 QT
57.891 11.753 58 12.448 QT
58.11 13.143 58.594 13.62 QT
59.079 14.096 60.11 14.096 QT
cp
f
GR
GS
[0.75 0 0 0.75 217.50016 177.4] CT
0.149 GC
N
65.698 14.784 M
65.698 13.862 L
66.933 13.862 L
66.933 8.253 L
66.933 7.737 65.698 7.737 QT
65.698 6.831 L
68.745 6.675 L
68.745 8.518 L
69.073 7.706 69.644 7.19 QT
70.214 6.675 71.011 6.675 QT
71.792 6.675 72.402 7.073 QT
73.011 7.471 73.011 8.19 QT
73.011 8.659 72.683 8.995 QT
72.355 9.331 71.886 9.331 QT
71.402 9.331 71.073 8.995 QT
70.745 8.659 70.745 8.19 QT
70.745 7.721 71.042 7.393 QT
70.277 7.393 69.8 7.948 QT
69.323 8.503 69.136 9.292 QT
68.948 10.081 68.948 10.8 QT
68.948 13.862 L
70.511 13.862 L
70.511 14.784 L
65.698 14.784 L
cp
f
GR
GS
[0.75 0 0 0.75 217.50016 177.4] CT
0.149 GC
N
83.765 14.987 M
82.906 14.987 82.242 14.581 QT
81.577 14.175 81.218 13.487 QT
80.859 12.8 80.859 11.94 QT
80.859 10.721 81.538 9.526 QT
82.218 8.331 83.351 7.581 QT
84.484 6.831 85.718 6.831 QT
86.64 6.831 87.335 7.307 QT
88.031 7.784 88.39 8.581 QT
88.749 9.378 88.749 10.284 QT
88.765 11.487 L
89.374 10.628 89.804 9.714 QT
90.234 8.8 90.452 7.815 QT
90.499 7.706 90.593 7.706 QT
90.812 7.706 L
90.984 7.706 90.984 7.878 QT
90.984 7.893 90.952 7.925 QT
90.749 8.753 90.429 9.51 QT
90.109 10.268 89.687 10.987 QT
89.265 11.706 88.765 12.284 QT
88.765 14.518 89.281 14.518 QT
89.609 14.518 89.827 14.315 QT
90.046 14.112 90.21 13.823 QT
90.374 13.534 90.421 13.534 QT
90.64 13.534 L
90.781 13.534 90.781 13.706 QT
90.781 14.143 90.265 14.565 QT
89.749 14.987 89.249 14.987 QT
88.593 14.987 88.163 14.565 QT
87.734 14.143 87.577 13.471 QT
86.734 14.19 85.749 14.589 QT
84.765 14.987 83.765 14.987 QT
cp
83.796 14.518 M
85.718 14.518 87.484 12.925 QT
87.484 12.831 87.46 12.675 QT
87.437 12.518 87.437 12.503 QT
87.437 10.55 L
87.437 7.3 85.687 7.3 QT
84.624 7.3 83.835 8.198 QT
83.046 9.096 82.648 10.346 QT
82.249 11.596 82.249 12.643 QT
82.249 13.425 82.648 13.971 QT
83.046 14.518 83.796 14.518 QT
cp
f
GR
GS
[0.75 0 0 0.75 0 0.25] CT
0.149 GC
2 setlinecap
1 LJ
0.667 LW
N
73 203 M
73 19 L
S
GR
GS
[0.75 0 0 0.75 0 0.25] CT
0.149 GC
2 setlinecap
1 LJ
0.667 LW
N
73 203 M
77.34 203 L
S
GR
GS
[0.75 0 0 0.75 0 0.25] CT
0.149 GC
2 setlinecap
1 LJ
0.667 LW
N
73 166.2 M
77.34 166.2 L
S
GR
GS
[0.75 0 0 0.75 0 0.25] CT
0.149 GC
2 setlinecap
1 LJ
0.667 LW
N
73 129.4 M
77.34 129.4 L
S
GR
GS
[0.75 0 0 0.75 0 0.25] CT
0.149 GC
2 setlinecap
1 LJ
0.667 LW
N
73 92.6 M
77.34 92.6 L
S
GR
GS
[0.75 0 0 0.75 0 0.25] CT
0.149 GC
2 setlinecap
1 LJ
0.667 LW
N
73 55.8 M
77.34 55.8 L
S
GR
GS
[0.75 0 0 0.75 0 0.25] CT
0.149 GC
2 setlinecap
1 LJ
0.667 LW
N
73 19 M
77.34 19 L
S
GR
GS
[0.75 0 0 0.75 50.35 152.5] CT
0.149 GC
/Helvetica 16 F
GS
[1 0 0 1 0 0] CT
-11 5.5 moveto 
1 -1 scale
(0) t 
GR
GR
GS
[0.75 0 0 0.75 50.35 124.9] CT
0.149 GC
/Helvetica 16 F
GS
[1 0 0 1 0 0] CT
-11 5.5 moveto 
1 -1 scale
(5) t 
GR
GR
GS
[0.75 0 0 0.75 50.35 97.3] CT
0.149 GC
/Helvetica 16 F
GS
[1 0 0 1 0 0] CT
-21 5.5 moveto 
1 -1 scale
(10) t 
GR
GR
GS
[0.75 0 0 0.75 50.35 69.7] CT
0.149 GC
/Helvetica 16 F
GS
[1 0 0 1 0 0] CT
-21 5.5 moveto 
1 -1 scale
(15) t 
GR
GR
GS
[0.75 0 0 0.75 50.35 42.1] CT
0.149 GC
/Helvetica 16 F
GS
[1 0 0 1 0 0] CT
-21 5.5 moveto 
1 -1 scale
(20) t 
GR
GR
GS
[0.75 0 0 0.75 50.35 14.5] CT
0.149 GC
/Helvetica 16 F
GS
[1 0 0 1 0 0] CT
-21 5.5 moveto 
1 -1 scale
(25) t 
GR
GR
GS
[0 -0.75 0.75 0 31.6 83.49993] CT
0.149 GC
N
-60.738 -6.336 M
-60.738 -7.258 L
-58.8 -7.258 L
-58.8 -17.758 L
-60.738 -17.758 L
-60.738 -18.68 L
-53.331 -18.68 L
-52.425 -18.68 -51.589 -18.492 QT
-50.753 -18.305 -50.042 -17.891 QT
-49.331 -17.477 -48.894 -16.774 QT
-48.456 -16.07 -48.456 -15.133 QT
-48.456 -13.914 -49.191 -13.141 QT
-49.925 -12.367 -51.05 -12.031 QT
-52.175 -11.695 -53.331 -11.695 QT
-56.16 -11.695 L
-56.16 -7.258 L
-54.222 -7.258 L
-54.222 -6.336 L
-60.738 -6.336 L
cp
-56.269 -12.508 M
-54.035 -12.508 L
-52.972 -12.508 -52.378 -12.735 QT
-51.785 -12.961 -51.535 -13.516 QT
-51.285 -14.07 -51.285 -15.133 QT
-51.285 -16.195 -51.527 -16.758 QT
-51.769 -17.32 -52.371 -17.539 QT
-52.972 -17.758 -54.035 -17.758 QT
-56.269 -17.758 L
-56.269 -12.508 L
cp
f
GR
GS
[0 -0.75 0.75 0 31.6 83.49993] CT
0.149 GC
N
-47.589 -10.383 M
-47.589 -11.649 -47.004 -12.586 QT
-46.418 -13.524 -45.41 -14.008 QT
-44.402 -14.492 -43.152 -14.492 QT
-41.902 -14.492 -41.043 -14.047 QT
-40.183 -13.602 -39.73 -12.735 QT
-39.277 -11.867 -39.277 -10.617 QT
-39.277 -10.367 -39.558 -10.258 QT
-45.214 -10.258 L
-45.214 -9.274 -44.988 -8.563 QT
-44.761 -7.852 -44.191 -7.438 QT
-43.621 -7.024 -42.621 -7.024 QT
-42.136 -7.024 -41.613 -7.195 QT
-41.089 -7.367 -40.714 -7.719 QT
-40.339 -8.07 -40.183 -8.555 QT
-40.074 -8.711 -39.902 -8.758 QT
-39.558 -8.758 L
-39.277 -8.695 -39.277 -8.445 QT
-39.277 -8.43 -39.293 -8.336 QT
-39.527 -7.633 -40.089 -7.156 QT
-40.652 -6.68 -41.386 -6.453 QT
-42.121 -6.227 -42.855 -6.227 QT
-44.136 -6.227 -45.222 -6.703 QT
-46.308 -7.18 -46.949 -8.117 QT
-47.589 -9.055 -47.589 -10.383 QT
cp
-45.214 -10.93 M
-41.058 -10.93 L
-41.058 -12.117 -41.55 -12.945 QT
-42.043 -13.774 -43.152 -13.774 QT
-44.277 -13.774 -44.746 -12.953 QT
-45.214 -12.133 -45.214 -10.93 QT
cp
f
GR
GS
[0 -0.75 0.75 0 31.6 83.49993] CT
0.149 GC
N
-38.25 -6.336 M
-38.25 -7.258 L
-37.016 -7.258 L
-37.016 -12.867 L
-37.016 -13.383 -38.25 -13.383 QT
-38.25 -14.289 L
-35.203 -14.445 L
-35.203 -12.602 L
-34.875 -13.414 -34.305 -13.93 QT
-33.735 -14.445 -32.938 -14.445 QT
-32.157 -14.445 -31.547 -14.047 QT
-30.938 -13.649 -30.938 -12.93 QT
-30.938 -12.461 -31.266 -12.125 QT
-31.594 -11.789 -32.063 -11.789 QT
-32.547 -11.789 -32.875 -12.125 QT
-33.203 -12.461 -33.203 -12.93 QT
-33.203 -13.399 -32.907 -13.727 QT
-33.672 -13.727 -34.149 -13.172 QT
-34.625 -12.617 -34.813 -11.828 QT
-35 -11.039 -35 -10.32 QT
-35 -7.258 L
-33.438 -7.258 L
-33.438 -6.336 L
-38.25 -6.336 L
cp
f
GR
GS
[0 -0.75 0.75 0 31.6 83.49993] CT
0.149 GC
N
-29.868 -10.336 M
-29.868 -11.617 -29.282 -12.57 QT
-28.696 -13.524 -27.673 -14.008 QT
-26.649 -14.492 -25.384 -14.492 QT
-24.102 -14.492 -23.141 -14.156 QT
-22.18 -13.82 -22.18 -12.789 QT
-22.18 -12.289 -22.509 -11.961 QT
-22.837 -11.633 -23.337 -11.633 QT
-23.837 -11.633 -24.173 -11.961 QT
-24.509 -12.289 -24.509 -12.789 QT
-24.509 -13.352 -24.18 -13.617 QT
-24.665 -13.695 -25.368 -13.695 QT
-26.259 -13.695 -26.727 -13.203 QT
-27.196 -12.711 -27.344 -11.977 QT
-27.493 -11.242 -27.493 -10.352 QT
-27.493 -7.024 -24.977 -7.024 QT
-24.477 -7.024 -24.055 -7.195 QT
-23.634 -7.367 -23.313 -7.719 QT
-22.993 -8.07 -22.852 -8.555 QT
-22.774 -8.664 -22.634 -8.695 QT
-22.165 -8.695 L
-21.946 -8.633 -21.946 -8.445 QT
-21.946 -8.43 -21.962 -8.352 QT
-22.196 -7.633 -22.712 -7.156 QT
-23.227 -6.68 -23.923 -6.453 QT
-24.618 -6.227 -25.384 -6.227 QT
-26.634 -6.227 -27.657 -6.711 QT
-28.68 -7.195 -29.274 -8.125 QT
-29.868 -9.055 -29.868 -10.336 QT
cp
f
GR
GS
[0 -0.75 0.75 0 31.6 83.49993] CT
0.149 GC
N
-20.982 -10.383 M
-20.982 -11.649 -20.396 -12.586 QT
-19.81 -13.524 -18.802 -14.008 QT
-17.794 -14.492 -16.544 -14.492 QT
-15.294 -14.492 -14.435 -14.047 QT
-13.576 -13.602 -13.122 -12.735 QT
-12.669 -11.867 -12.669 -10.617 QT
-12.669 -10.367 -12.951 -10.258 QT
-18.607 -10.258 L
-18.607 -9.274 -18.38 -8.563 QT
-18.154 -7.852 -17.583 -7.438 QT
-17.013 -7.024 -16.013 -7.024 QT
-15.529 -7.024 -15.005 -7.195 QT
-14.482 -7.367 -14.107 -7.719 QT
-13.732 -8.07 -13.576 -8.555 QT
-13.466 -8.711 -13.294 -8.758 QT
-12.951 -8.758 L
-12.669 -8.695 -12.669 -8.445 QT
-12.669 -8.43 -12.685 -8.336 QT
-12.919 -7.633 -13.482 -7.156 QT
-14.044 -6.68 -14.779 -6.453 QT
-15.513 -6.227 -16.247 -6.227 QT
-17.529 -6.227 -18.615 -6.703 QT
-19.701 -7.18 -20.341 -8.117 QT
-20.982 -9.055 -20.982 -10.383 QT
cp
-18.607 -10.93 M
-14.451 -10.93 L
-14.451 -12.117 -14.943 -12.945 QT
-15.435 -13.774 -16.544 -13.774 QT
-17.669 -13.774 -18.138 -12.953 QT
-18.607 -12.133 -18.607 -10.93 QT
cp
f
GR
GS
[0 -0.75 0.75 0 31.6 83.49993] CT
0.149 GC
N
-11.502 -6.336 M
-11.502 -7.258 L
-10.268 -7.258 L
-10.268 -12.867 L
-10.268 -13.383 -11.502 -13.383 QT
-11.502 -14.289 L
-8.33 -14.445 L
-8.33 -12.602 L
-7.893 -13.461 -7.065 -13.953 QT
-6.236 -14.445 -5.283 -14.445 QT
-3.861 -14.445 -3.143 -13.86 QT
-2.424 -13.274 -2.424 -11.867 QT
-2.424 -7.258 L
-1.174 -7.258 L
-1.174 -6.336 L
-5.783 -6.336 L
-5.783 -7.258 L
-4.533 -7.258 L
-4.533 -11.805 L
-4.533 -12.633 -4.697 -13.18 QT
-4.861 -13.727 -5.502 -13.727 QT
-6.221 -13.727 -6.83 -13.352 QT
-7.44 -12.977 -7.791 -12.352 QT
-8.143 -11.727 -8.143 -11.039 QT
-8.143 -7.258 L
-6.908 -7.258 L
-6.908 -6.336 L
-11.502 -6.336 L
cp
f
GR
GS
[0 -0.75 0.75 0 31.6 83.49993] CT
0.149 GC
N
0.211 -8.445 M
0.211 -13.414 L
-1.226 -13.414 L
-1.226 -14.133 L
-0.57 -14.133 -0.054 -14.461 QT
0.461 -14.789 0.782 -15.32 QT
1.102 -15.852 1.266 -16.492 QT
1.43 -17.133 1.43 -17.758 QT
2.352 -17.758 L
2.352 -14.32 L
4.93 -14.32 L
4.93 -13.414 L
2.352 -13.414 L
2.352 -8.492 L
2.352 -7.852 2.563 -7.438 QT
2.774 -7.024 3.352 -7.024 QT
3.836 -7.024 4.094 -7.485 QT
4.352 -7.945 4.352 -8.492 QT
4.352 -9.524 L
5.274 -9.524 L
5.274 -8.445 L
5.274 -7.867 4.985 -7.352 QT
4.696 -6.836 4.204 -6.531 QT
3.711 -6.227 3.133 -6.227 QT
1.883 -6.227 1.047 -6.742 QT
0.211 -7.258 0.211 -8.445 QT
cp
f
GR
GS
[0 -0.75 0.75 0 31.6 83.49993] CT
0.149 GC
N
13.72 -6.336 M
13.72 -7.258 L
15.657 -7.258 L
15.657 -17.758 L
13.72 -17.758 L
13.72 -18.68 L
24.907 -18.68 L
25.454 -14.274 L
24.532 -14.274 L
24.392 -15.383 24.157 -16.039 QT
23.923 -16.695 23.485 -17.078 QT
23.048 -17.461 22.345 -17.61 QT
21.642 -17.758 20.548 -17.758 QT
18.298 -17.758 L
18.298 -13.211 L
19.032 -13.211 L
19.86 -13.211 20.306 -13.399 QT
20.751 -13.586 20.915 -14.024 QT
21.079 -14.461 21.079 -15.32 QT
22.001 -15.32 L
22.001 -10.18 L
21.079 -10.18 L
21.079 -11.024 20.915 -11.477 QT
20.751 -11.93 20.306 -12.11 QT
19.86 -12.289 19.032 -12.289 QT
18.298 -12.289 L
18.298 -7.258 L
20.704 -7.258 L
22.282 -7.258 23.149 -7.641 QT
24.017 -8.024 24.431 -8.875 QT
24.845 -9.727 25.11 -11.336 QT
26.032 -11.336 L
25.204 -6.336 L
13.72 -6.336 L
cp
f
GR
GS
[0 -0.75 0.75 0 31.6 83.49993] CT
0.149 GC
N
26.955 -6.336 M
26.955 -7.258 L
28.189 -7.258 L
28.189 -12.867 L
28.189 -13.383 26.955 -13.383 QT
26.955 -14.289 L
30.002 -14.445 L
30.002 -12.602 L
30.33 -13.414 30.9 -13.93 QT
31.471 -14.445 32.267 -14.445 QT
33.049 -14.445 33.658 -14.047 QT
34.267 -13.649 34.267 -12.93 QT
34.267 -12.461 33.939 -12.125 QT
33.611 -11.789 33.142 -11.789 QT
32.658 -11.789 32.33 -12.125 QT
32.002 -12.461 32.002 -12.93 QT
32.002 -13.399 32.299 -13.727 QT
31.533 -13.727 31.056 -13.172 QT
30.58 -12.617 30.392 -11.828 QT
30.205 -11.039 30.205 -10.32 QT
30.205 -7.258 L
31.767 -7.258 L
31.767 -6.336 L
26.955 -6.336 L
cp
f
GR
GS
[0 -0.75 0.75 0 31.6 83.49993] CT
0.149 GC
N
35.29 -6.336 M
35.29 -7.258 L
36.525 -7.258 L
36.525 -12.867 L
36.525 -13.383 35.29 -13.383 QT
35.29 -14.289 L
38.337 -14.445 L
38.337 -12.602 L
38.665 -13.414 39.236 -13.93 QT
39.806 -14.445 40.603 -14.445 QT
41.384 -14.445 41.994 -14.047 QT
42.603 -13.649 42.603 -12.93 QT
42.603 -12.461 42.275 -12.125 QT
41.947 -11.789 41.478 -11.789 QT
40.994 -11.789 40.665 -12.125 QT
40.337 -12.461 40.337 -12.93 QT
40.337 -13.399 40.634 -13.727 QT
39.869 -13.727 39.392 -13.172 QT
38.915 -12.617 38.728 -11.828 QT
38.54 -11.039 38.54 -10.32 QT
38.54 -7.258 L
40.103 -7.258 L
40.103 -6.336 L
35.29 -6.336 L
cp
f
GR
GS
[0 -0.75 0.75 0 31.6 83.49993] CT
0.149 GC
N
43.563 -10.258 M
43.563 -11.586 44.165 -12.539 QT
44.767 -13.492 45.813 -13.992 QT
46.86 -14.492 48.157 -14.492 QT
49.126 -14.492 49.962 -14.211 QT
50.798 -13.93 51.431 -13.383 QT
52.063 -12.836 52.399 -12.047 QT
52.735 -11.258 52.735 -10.258 QT
52.735 -9.274 52.376 -8.516 QT
52.017 -7.758 51.384 -7.25 QT
50.751 -6.742 49.915 -6.485 QT
49.079 -6.227 48.157 -6.227 QT
47.235 -6.227 46.399 -6.485 QT
45.563 -6.742 44.923 -7.25 QT
44.282 -7.758 43.923 -8.516 QT
43.563 -9.274 43.563 -10.258 QT
cp
48.157 -7.024 M
49.188 -7.024 49.665 -7.5 QT
50.142 -7.977 50.259 -8.672 QT
50.376 -9.367 50.376 -10.492 QT
50.376 -11.336 50.313 -11.852 QT
50.251 -12.367 50.048 -12.805 QT
49.845 -13.242 49.392 -13.508 QT
48.938 -13.774 48.157 -13.774 QT
47.376 -13.774 46.923 -13.508 QT
46.47 -13.242 46.259 -12.797 QT
46.048 -12.352 45.993 -11.789 QT
45.938 -11.227 45.938 -10.492 QT
45.938 -9.367 46.048 -8.672 QT
46.157 -7.977 46.642 -7.5 QT
47.126 -7.024 48.157 -7.024 QT
cp
f
GR
GS
[0 -0.75 0.75 0 31.6 83.49993] CT
0.149 GC
N
53.746 -6.336 M
53.746 -7.258 L
54.98 -7.258 L
54.98 -12.867 L
54.98 -13.383 53.746 -13.383 QT
53.746 -14.289 L
56.793 -14.445 L
56.793 -12.602 L
57.121 -13.414 57.691 -13.93 QT
58.262 -14.445 59.058 -14.445 QT
59.84 -14.445 60.449 -14.047 QT
61.058 -13.649 61.058 -12.93 QT
61.058 -12.461 60.73 -12.125 QT
60.402 -11.789 59.933 -11.789 QT
59.449 -11.789 59.121 -12.125 QT
58.793 -12.461 58.793 -12.93 QT
58.793 -13.399 59.09 -13.727 QT
58.324 -13.727 57.848 -13.172 QT
57.371 -12.617 57.183 -11.828 QT
56.996 -11.039 56.996 -10.32 QT
56.996 -7.258 L
58.558 -7.258 L
58.558 -6.336 L
53.746 -6.336 L
cp
f
GR
GS
[0.75 0 0 0.75 0 0.25] CT
0 0.447 0.741 RC
[2 2] 0 setdash
2 LJ
2 LW
N
73 147.159 M
91.083 147.162 L
109.167 147.169 L
127.25 147.193 L
145.333 147.27 L
163.417 147.512 L
181.5 148.285 L
199.583 150.794 L
217.667 159.272 L
235.75 163.823 L
253.833 164.358 L
271.917 164.355 L
290 19.537 L
308.083 87.469 L
326.167 169.105 L
344.25 186.491 L
362.333 198.013 L
380.417 193.803 L
398.5 194.429 L
416.583 195.45 L
434.667 194.235 L
452.75 195.542 L
470.833 195.594 L
488.917 195.554 L
507 195.542 L
S
GR
GS
[0.75 0 0 0.75 54.75 110.61933] CT
0 0.447 0.741 RC
10.0 ML
2 LW
N
0 -4 M
0 4 L
-4 0 M
4 0 L
-2.828 -2.828 M
2.828 2.828 L
-2.828 2.828 M
2.828 -2.828 L
S
GR
GS
[0.75 0 0 0.75 68.3125 110.62114] CT
0 0.447 0.741 RC
10.0 ML
2 LW
N
0 -4 M
0 4 L
-4 0 M
4 0 L
-2.828 -2.828 M
2.828 2.828 L
-2.828 2.828 M
2.828 -2.828 L
S
GR
GS
[0.75 0 0 0.75 81.875 110.62686] CT
0 0.447 0.741 RC
10.0 ML
2 LW
N
0 -4 M
0 4 L
-4 0 M
4 0 L
-2.828 -2.828 M
2.828 2.828 L
-2.828 2.828 M
2.828 -2.828 L
S
GR
GS
[0.75 0 0 0.75 95.4375 110.64497] CT
0 0.447 0.741 RC
10.0 ML
2 LW
N
0 -4 M
0 4 L
-4 0 M
4 0 L
-2.828 -2.828 M
2.828 2.828 L
-2.828 2.828 M
2.828 -2.828 L
S
GR
GS
[0.75 0 0 0.75 109 110.70232] CT
0 0.447 0.741 RC
10.0 ML
2 LW
N
0 -4 M
0 4 L
-4 0 M
4 0 L
-2.828 -2.828 M
2.828 2.828 L
-2.828 2.828 M
2.828 -2.828 L
S
GR
GS
[0.75 0 0 0.75 122.5625 110.88413] CT
0 0.447 0.741 RC
10.0 ML
2 LW
N
0 -4 M
0 4 L
-4 0 M
4 0 L
-2.828 -2.828 M
2.828 2.828 L
-2.828 2.828 M
2.828 -2.828 L
S
GR
GS
[0.75 0 0 0.75 136.125 111.4641] CT
0 0.447 0.741 RC
10.0 ML
2 LW
N
0 -4 M
0 4 L
-4 0 M
4 0 L
-2.828 -2.828 M
2.828 2.828 L
-2.828 2.828 M
2.828 -2.828 L
S
GR
GS
[0.75 0 0 0.75 149.6875 113.34569] CT
0 0.447 0.741 RC
10.0 ML
2 LW
N
0 -4 M
0 4 L
-4 0 M
4 0 L
-2.828 -2.828 M
2.828 2.828 L
-2.828 2.828 M
2.828 -2.828 L
S
GR
GS
[0.75 0 0 0.75 163.25 119.70404] CT
0 0.447 0.741 RC
10.0 ML
2 LW
N
0 -4 M
0 4 L
-4 0 M
4 0 L
-2.828 -2.828 M
2.828 2.828 L
-2.828 2.828 M
2.828 -2.828 L
S
GR
GS
[0.75 0 0 0.75 176.8125 123.11741] CT
0 0.447 0.741 RC
10.0 ML
2 LW
N
0 -4 M
0 4 L
-4 0 M
4 0 L
-2.828 -2.828 M
2.828 2.828 L
-2.828 2.828 M
2.828 -2.828 L
S
GR
GS
[0.75 0 0 0.75 190.375 123.51874] CT
0 0.447 0.741 RC
10.0 ML
2 LW
N
0 -4 M
0 4 L
-4 0 M
4 0 L
-2.828 -2.828 M
2.828 2.828 L
-2.828 2.828 M
2.828 -2.828 L
S
GR
GS
[0.75 0 0 0.75 203.93749 123.51626] CT
0 0.447 0.741 RC
10.0 ML
2 LW
N
0 -4 M
0 4 L
-4 0 M
4 0 L
-2.828 -2.828 M
2.828 2.828 L
-2.828 2.828 M
2.828 -2.828 L
S
GR
GS
[0.75 0 0 0.75 217.5 14.90262] CT
0 0.447 0.741 RC
10.0 ML
2 LW
N
0 -4 M
0 4 L
-4 0 M
4 0 L
-2.828 -2.828 M
2.828 2.828 L
-2.828 2.828 M
2.828 -2.828 L
S
GR
GS
[0.75 0 0 0.75 231.06251 65.85139] CT
0 0.447 0.741 RC
10.0 ML
2 LW
N
0 -4 M
0 4 L
-4 0 M
4 0 L
-2.828 -2.828 M
2.828 2.828 L
-2.828 2.828 M
2.828 -2.828 L
S
GR
GS
[0.75 0 0 0.75 244.62499 127.07882] CT
0 0.447 0.741 RC
10.0 ML
2 LW
N
0 -4 M
0 4 L
-4 0 M
4 0 L
-2.828 -2.828 M
2.828 2.828 L
-2.828 2.828 M
2.828 -2.828 L
S
GR
GS
[0.75 0 0 0.75 258.1875 140.11801] CT
0 0.447 0.741 RC
10.0 ML
2 LW
N
0 -4 M
0 4 L
-4 0 M
4 0 L
-2.828 -2.828 M
2.828 2.828 L
-2.828 2.828 M
2.828 -2.828 L
S
GR
GS
[0.75 0 0 0.75 271.75001 148.7598] CT
0 0.447 0.741 RC
10.0 ML
2 LW
N
0 -4 M
0 4 L
-4 0 M
4 0 L
-2.828 -2.828 M
2.828 2.828 L
-2.828 2.828 M
2.828 -2.828 L
S
GR
GS
[0.75 0 0 0.75 285.31249 145.60225] CT
0 0.447 0.741 RC
10.0 ML
2 LW
N
0 -4 M
0 4 L
-4 0 M
4 0 L
-2.828 -2.828 M
2.828 2.828 L
-2.828 2.828 M
2.828 -2.828 L
S
GR
GS
[0.75 0 0 0.75 298.875 146.07198] CT
0 0.447 0.741 RC
10.0 ML
2 LW
N
0 -4 M
0 4 L
-4 0 M
4 0 L
-2.828 -2.828 M
2.828 2.828 L
-2.828 2.828 M
2.828 -2.828 L
S
GR
GS
[0.75 0 0 0.75 312.43751 146.83733] CT
0 0.447 0.741 RC
10.0 ML
2 LW
N
0 -4 M
0 4 L
-4 0 M
4 0 L
-2.828 -2.828 M
2.828 2.828 L
-2.828 2.828 M
2.828 -2.828 L
S
GR
GS
[0.75 0 0 0.75 325.99999 145.92591] CT
0 0.447 0.741 RC
10.0 ML
2 LW
N
0 -4 M
0 4 L
-4 0 M
4 0 L
-2.828 -2.828 M
2.828 2.828 L
-2.828 2.828 M
2.828 -2.828 L
S
GR
GS
[0.75 0 0 0.75 339.5625 146.90659] CT
0 0.447 0.741 RC
10.0 ML
2 LW
N
0 -4 M
0 4 L
-4 0 M
4 0 L
-2.828 -2.828 M
2.828 2.828 L
-2.828 2.828 M
2.828 -2.828 L
S
GR
GS
[0.75 0 0 0.75 353.12501 146.94539] CT
0 0.447 0.741 RC
10.0 ML
2 LW
N
0 -4 M
0 4 L
-4 0 M
4 0 L
-2.828 -2.828 M
2.828 2.828 L
-2.828 2.828 M
2.828 -2.828 L
S
GR
GS
[0.75 0 0 0.75 366.68749 146.91574] CT
0 0.447 0.741 RC
10.0 ML
2 LW
N
0 -4 M
0 4 L
-4 0 M
4 0 L
-2.828 -2.828 M
2.828 2.828 L
-2.828 2.828 M
2.828 -2.828 L
S
GR
GS
[0.75 0 0 0.75 380.25 146.90637] CT
0 0.447 0.741 RC
10.0 ML
2 LW
N
0 -4 M
0 4 L
-4 0 M
4 0 L
-2.828 -2.828 M
2.828 2.828 L
-2.828 2.828 M
2.828 -2.828 L
S
GR
GS
[0.75 0 0 0.75 0 0.25] CT
0.851 0.325 0.098 RC
[8 8] 0 setdash
2 LJ
2 LW
N
73 193.061 M
91.083 193.063 L
109.167 193.07 L
127.25 193.093 L
145.333 193.165 L
163.417 193.397 L
181.5 194.157 L
199.583 196.812 L
217.667 198.716 L
235.75 145.908 L
253.833 200.659 L
271.917 201.043 L
290 196.383 L
308.083 195.821 L
326.167 197.831 L
344.25 202.011 L
362.333 202.896 L
380.417 202.78 L
398.5 202.845 L
416.583 202.859 L
434.667 202.826 L
452.75 202.856 L
470.833 202.855 L
488.917 202.854 L
507 202.854 L
S
GR
GS
[0.75 0 0 0.75 54.75 145.04552] CT
0.851 0.325 0.098 RC
10.0 ML
2 LW
N
-3 -3 M
-3 3 L
3 3 L
3 -3 L
cp
S
GR
GS
[0.75 0 0 0.75 68.3125 145.04724] CT
0.851 0.325 0.098 RC
10.0 ML
2 LW
N
-3 -3 M
-3 3 L
3 3 L
3 -3 L
cp
S
GR
GS
[0.75 0 0 0.75 81.875 145.05264] CT
0.851 0.325 0.098 RC
10.0 ML
2 LW
N
-3 -3 M
-3 3 L
3 3 L
3 -3 L
cp
S
GR
GS
[0.75 0 0 0.75 95.4375 145.06977] CT
0.851 0.325 0.098 RC
10.0 ML
2 LW
N
-3 -3 M
-3 3 L
3 3 L
3 -3 L
cp
S
GR
GS
[0.75 0 0 0.75 109 145.12412] CT
0.851 0.325 0.098 RC
10.0 ML
2 LW
N
-3 -3 M
-3 3 L
3 3 L
3 -3 L
cp
S
GR
GS
[0.75 0 0 0.75 122.5625 145.29805] CT
0.851 0.325 0.098 RC
10.0 ML
2 LW
N
-3 -3 M
-3 3 L
3 3 L
3 -3 L
cp
S
GR
GS
[0.75 0 0 0.75 136.125 145.86803] CT
0.851 0.325 0.098 RC
10.0 ML
2 LW
N
-3 -3 M
-3 3 L
3 3 L
3 -3 L
cp
S
GR
GS
[0.75 0 0 0.75 149.6875 147.85903] CT
0.851 0.325 0.098 RC
10.0 ML
2 LW
N
-3 -3 M
-3 3 L
3 3 L
3 -3 L
cp
S
GR
GS
[0.75 0 0 0.75 163.25 149.28689] CT
0.851 0.325 0.098 RC
10.0 ML
2 LW
N
-3 -3 M
-3 3 L
3 3 L
3 -3 L
cp
S
GR
GS
[0.75 0 0 0.75 176.8125 109.68129] CT
0.851 0.325 0.098 RC
10.0 ML
2 LW
N
-3 -3 M
-3 3 L
3 3 L
3 -3 L
cp
S
GR
GS
[0.75 0 0 0.75 190.375 150.74453] CT
0.851 0.325 0.098 RC
10.0 ML
2 LW
N
-3 -3 M
-3 3 L
3 3 L
3 -3 L
cp
S
GR
GS
[0.75 0 0 0.75 203.93749 151.03215] CT
0.851 0.325 0.098 RC
10.0 ML
2 LW
N
-3 -3 M
-3 3 L
3 3 L
3 -3 L
cp
S
GR
GS
[0.75 0 0 0.75 217.5 147.53705] CT
0.851 0.325 0.098 RC
10.0 ML
2 LW
N
-3 -3 M
-3 3 L
3 3 L
3 -3 L
cp
S
GR
GS
[0.75 0 0 0.75 231.06251 147.11582] CT
0.851 0.325 0.098 RC
10.0 ML
2 LW
N
-3 -3 M
-3 3 L
3 3 L
3 -3 L
cp
S
GR
GS
[0.75 0 0 0.75 244.62499 148.623] CT
0.851 0.325 0.098 RC
10.0 ML
2 LW
N
-3 -3 M
-3 3 L
3 3 L
3 -3 L
cp
S
GR
GS
[0.75 0 0 0.75 258.1875 151.75808] CT
0.851 0.325 0.098 RC
10.0 ML
2 LW
N
-3 -3 M
-3 3 L
3 3 L
3 -3 L
cp
S
GR
GS
[0.75 0 0 0.75 271.75001 152.42227] CT
0.851 0.325 0.098 RC
10.0 ML
2 LW
N
-3 -3 M
-3 3 L
3 3 L
3 -3 L
cp
S
GR
GS
[0.75 0 0 0.75 285.31249 152.33474] CT
0.851 0.325 0.098 RC
10.0 ML
2 LW
N
-3 -3 M
-3 3 L
3 3 L
3 -3 L
cp
S
GR
GS
[0.75 0 0 0.75 298.875 152.38395] CT
0.851 0.325 0.098 RC
10.0 ML
2 LW
N
-3 -3 M
-3 3 L
3 3 L
3 -3 L
cp
S
GR
GS
[0.75 0 0 0.75 312.43751 152.39458] CT
0.851 0.325 0.098 RC
10.0 ML
2 LW
N
-3 -3 M
-3 3 L
3 3 L
3 -3 L
cp
S
GR
GS
[0.75 0 0 0.75 325.99999 152.36982] CT
0.851 0.325 0.098 RC
10.0 ML
2 LW
N
-3 -3 M
-3 3 L
3 3 L
3 -3 L
cp
S
GR
GS
[0.75 0 0 0.75 339.5625 152.39186] CT
0.851 0.325 0.098 RC
10.0 ML
2 LW
N
-3 -3 M
-3 3 L
3 3 L
3 -3 L
cp
S
GR
GS
[0.75 0 0 0.75 353.12501 152.39161] CT
0.851 0.325 0.098 RC
10.0 ML
2 LW
N
-3 -3 M
-3 3 L
3 3 L
3 -3 L
cp
S
GR
GS
[0.75 0 0 0.75 366.68749 152.3908] CT
0.851 0.325 0.098 RC
10.0 ML
2 LW
N
-3 -3 M
-3 3 L
3 3 L
3 -3 L
cp
S
GR
GS
[0.75 0 0 0.75 380.25 152.39055] CT
0.851 0.325 0.098 RC
10.0 ML
2 LW
N
-3 -3 M
-3 3 L
3 3 L
3 -3 L
cp
S
GR
GS
[0.75 0 0 0.75 0 0.25] CT
0.929 0.694 0.125 RC
[8 2 4 2] 0 setdash
2 LJ
2 LW
N
73 87.082 M
91.083 87.087 L
109.167 87.104 L
127.25 87.159 L
145.333 87.331 L
163.417 87.878 L
181.5 89.639 L
199.583 95.488 L
217.667 116.366 L
235.75 112.097 L
253.833 150.278 L
271.917 189.672 L
290 180.783 L
308.083 163.263 L
326.167 191.11 L
344.25 202.185 L
362.333 202.881 L
380.417 202.624 L
398.5 202.705 L
416.583 202.693 L
434.667 202.693 L
452.75 202.689 L
470.833 202.689 L
488.917 202.689 L
507 202.689 L
S
GR
GS
[0.75 0 0 0.75 54.75 65.56121] CT
0.929 0.694 0.125 RC
10.0 ML
2 LW
N
0 -5.332 M
-4.618 2.666 L
4.618 2.666 L
cp
S
GR
GS
[0.75 0 0 0.75 68.3125 65.56528] CT
0.929 0.694 0.125 RC
10.0 ML
2 LW
N
0 -5.332 M
-4.618 2.666 L
4.618 2.666 L
cp
S
GR
GS
[0.75 0 0 0.75 81.875 65.57816] CT
0.929 0.694 0.125 RC
10.0 ML
2 LW
N
0 -5.332 M
-4.618 2.666 L
4.618 2.666 L
cp
S
GR
GS
[0.75 0 0 0.75 95.4375 65.61892] CT
0.929 0.694 0.125 RC
10.0 ML
2 LW
N
0 -5.332 M
-4.618 2.666 L
4.618 2.666 L
cp
S
GR
GS
[0.75 0 0 0.75 109 65.74802] CT
0.929 0.694 0.125 RC
10.0 ML
2 LW
N
0 -5.332 M
-4.618 2.666 L
4.618 2.666 L
cp
S
GR
GS
[0.75 0 0 0.75 122.5625 66.15854] CT
0.929 0.694 0.125 RC
10.0 ML
2 LW
N
0 -5.332 M
-4.618 2.666 L
4.618 2.666 L
cp
S
GR
GS
[0.75 0 0 0.75 136.125 67.47896] CT
0.929 0.694 0.125 RC
10.0 ML
2 LW
N
0 -5.332 M
-4.618 2.666 L
4.618 2.666 L
cp
S
GR
GS
[0.75 0 0 0.75 149.6875 71.86581] CT
0.929 0.694 0.125 RC
10.0 ML
2 LW
N
0 -5.332 M
-4.618 2.666 L
4.618 2.666 L
cp
S
GR
GS
[0.75 0 0 0.75 163.25 87.52415] CT
0.929 0.694 0.125 RC
10.0 ML
2 LW
N
0 -5.332 M
-4.618 2.666 L
4.618 2.666 L
cp
S
GR
GS
[0.75 0 0 0.75 176.8125 84.32257] CT
0.929 0.694 0.125 RC
10.0 ML
2 LW
N
0 -5.332 M
-4.618 2.666 L
4.618 2.666 L
cp
S
GR
GS
[0.75 0 0 0.75 190.375 112.95879] CT
0.929 0.694 0.125 RC
10.0 ML
2 LW
N
0 -5.332 M
-4.618 2.666 L
4.618 2.666 L
cp
S
GR
GS
[0.75 0 0 0.75 203.93749 142.50409] CT
0.929 0.694 0.125 RC
10.0 ML
2 LW
N
0 -5.332 M
-4.618 2.666 L
4.618 2.666 L
cp
S
GR
GS
[0.75 0 0 0.75 217.5 135.83697] CT
0.929 0.694 0.125 RC
10.0 ML
2 LW
N
0 -5.332 M
-4.618 2.666 L
4.618 2.666 L
cp
S
GR
GS
[0.75 0 0 0.75 231.06251 122.69699] CT
0.929 0.694 0.125 RC
10.0 ML
2 LW
N
0 -5.332 M
-4.618 2.666 L
4.618 2.666 L
cp
S
GR
GS
[0.75 0 0 0.75 244.62499 143.58225] CT
0.929 0.694 0.125 RC
10.0 ML
2 LW
N
0 -5.332 M
-4.618 2.666 L
4.618 2.666 L
cp
S
GR
GS
[0.75 0 0 0.75 258.1875 151.88898] CT
0.929 0.694 0.125 RC
10.0 ML
2 LW
N
0 -5.332 M
-4.618 2.666 L
4.618 2.666 L
cp
S
GR
GS
[0.75 0 0 0.75 271.75001 152.41092] CT
0.929 0.694 0.125 RC
10.0 ML
2 LW
N
0 -5.332 M
-4.618 2.666 L
4.618 2.666 L
cp
S
GR
GS
[0.75 0 0 0.75 285.31249 152.21819] CT
0.929 0.694 0.125 RC
10.0 ML
2 LW
N
0 -5.332 M
-4.618 2.666 L
4.618 2.666 L
cp
S
GR
GS
[0.75 0 0 0.75 298.875 152.27874] CT
0.929 0.694 0.125 RC
10.0 ML
2 LW
N
0 -5.332 M
-4.618 2.666 L
4.618 2.666 L
cp
S
GR
GS
[0.75 0 0 0.75 312.43751 152.26938] CT
0.929 0.694 0.125 RC
10.0 ML
2 LW
N
0 -5.332 M
-4.618 2.666 L
4.618 2.666 L
cp
S
GR
GS
[0.75 0 0 0.75 325.99999 152.2695] CT
0.929 0.694 0.125 RC
10.0 ML
2 LW
N
0 -5.332 M
-4.618 2.666 L
4.618 2.666 L
cp
S
GR
GS
[0.75 0 0 0.75 339.5625 152.26665] CT
0.929 0.694 0.125 RC
10.0 ML
2 LW
N
0 -5.332 M
-4.618 2.666 L
4.618 2.666 L
cp
S
GR
GS
[0.75 0 0 0.75 353.12501 152.26679] CT
0.929 0.694 0.125 RC
10.0 ML
2 LW
N
0 -5.332 M
-4.618 2.666 L
4.618 2.666 L
cp
S
GR
GS
[0.75 0 0 0.75 366.68749 152.26675] CT
0.929 0.694 0.125 RC
10.0 ML
2 LW
N
0 -5.332 M
-4.618 2.666 L
4.618 2.666 L
cp
S
GR
GS
[0.75 0 0 0.75 380.25 152.26674] CT
0.929 0.694 0.125 RC
10.0 ML
2 LW
N
0 -5.332 M
-4.618 2.666 L
4.618 2.666 L
cp
S
GR
GS
[0.75 0 0 0.75 0 0.25] CT
1 GC
N
351 89 M
351 32 L
494 32 L
494 89 L
cp
f
GR
GS
[0.75 0 0 0.75 291.09748 32.25246] CT
N
0.438 3.456 M
0.438 2.737 L
2.031 2.737 L
2.031 -5.435 L
0.438 -5.435 L
0.438 -6.153 L
5.672 -6.153 L
5.672 -5.435 L
4.078 -5.435 L
4.078 2.737 L
5.672 2.737 L
5.672 3.456 L
0.438 3.456 L
cp
f
GR
GS
[0.75 0 0 0.75 291.09748 32.25246] CT
N
6.889 3.456 M
6.889 2.737 L
7.842 2.737 L
7.842 -1.622 L
7.842 -2.013 6.889 -2.013 QT
6.889 -2.732 L
9.342 -2.841 L
9.342 -1.419 L
9.702 -2.075 10.342 -2.458 QT
10.983 -2.841 11.733 -2.841 QT
12.842 -2.841 13.397 -2.396 QT
13.952 -1.95 13.952 -0.841 QT
13.952 2.737 L
14.921 2.737 L
14.921 3.456 L
11.327 3.456 L
11.327 2.737 L
12.296 2.737 L
12.296 -0.81 L
12.296 -1.45 12.171 -1.872 QT
12.046 -2.294 11.561 -2.294 QT
10.999 -2.294 10.522 -1.997 QT
10.046 -1.7 9.772 -1.224 QT
9.499 -0.747 9.499 -0.2 QT
9.499 2.737 L
10.467 2.737 L
10.467 3.456 L
6.889 3.456 L
cp
f
GR
GS
[0.75 0 0 0.75 291.09748 32.25246] CT
N
15.98 6.175 M
15.98 5.456 L
16.933 5.456 L
16.933 -1.7 L
16.933 -2.013 15.98 -2.013 QT
15.98 -2.732 L
18.496 -2.841 L
18.496 -2.185 L
19.402 -2.841 20.636 -2.841 QT
21.589 -2.841 22.324 -2.45 QT
23.058 -2.06 23.472 -1.333 QT
23.886 -0.607 23.886 0.347 QT
23.886 1.331 23.417 2.058 QT
22.949 2.784 22.152 3.159 QT
21.355 3.534 20.371 3.534 QT
19.339 3.534 18.589 2.925 QT
18.589 5.456 L
19.558 5.456 L
19.558 6.175 L
15.98 6.175 L
cp
18.589 2.05 M
18.871 2.472 19.308 2.722 QT
19.746 2.972 20.214 2.972 QT
21.152 2.972 21.589 2.167 QT
22.027 1.362 22.027 0.347 QT
22.027 -0.232 21.878 -0.825 QT
21.73 -1.419 21.363 -1.825 QT
20.996 -2.232 20.402 -2.232 QT
19.871 -2.232 19.394 -2.013 QT
18.917 -1.794 18.589 -1.388 QT
18.589 2.05 L
cp
f
GR
GS
[0.75 0 0 0.75 291.09748 32.25246] CT
N
26.242 1.831 M
26.242 -1.622 L
26.242 -2.013 25.289 -2.013 QT
25.289 -2.732 L
27.899 -2.841 L
27.899 1.768 L
27.899 2.347 27.969 2.573 QT
28.039 2.8 28.274 2.886 QT
28.508 2.972 29.055 2.972 QT
29.758 2.972 30.227 2.448 QT
30.695 1.925 30.695 1.222 QT
30.695 -1.622 L
30.695 -2.013 29.727 -2.013 QT
29.727 -2.732 L
32.352 -2.841 L
32.352 2.347 L
32.352 2.597 32.625 2.667 QT
32.899 2.737 33.32 2.737 QT
33.32 3.456 L
30.789 3.534 L
30.789 2.503 L
30.477 2.987 29.977 3.261 QT
29.477 3.534 28.93 3.534 QT
28.43 3.534 27.953 3.479 QT
27.477 3.425 27.094 3.253 QT
26.711 3.081 26.477 2.729 QT
26.242 2.378 26.242 1.831 QT
cp
f
GR
GS
[0.75 0 0 0.75 291.09748 32.25246] CT
N
35.302 1.815 M
35.302 -2.044 L
34.177 -2.044 L
34.177 -2.607 L
34.692 -2.607 35.083 -2.864 QT
35.474 -3.122 35.724 -3.536 QT
35.974 -3.95 36.106 -4.442 QT
36.239 -4.935 36.239 -5.435 QT
36.942 -5.435 L
36.942 -2.763 L
38.958 -2.763 L
38.958 -2.044 L
36.942 -2.044 L
36.942 1.768 L
36.942 2.284 37.114 2.604 QT
37.286 2.925 37.724 2.925 QT
38.114 2.925 38.317 2.565 QT
38.52 2.206 38.52 1.768 QT
38.52 0.987 L
39.224 0.987 L
39.224 1.815 L
39.224 2.268 38.997 2.667 QT
38.77 3.065 38.395 3.3 QT
38.02 3.534 37.567 3.534 QT
36.599 3.534 35.95 3.136 QT
35.302 2.737 35.302 1.815 QT
cp
f
GR
GS
[0.75 0 0 0.75 291.09748 32.25246] CT
N
46.637 3.456 M
46.637 2.909 L
46.652 2.862 46.699 2.8 QT
49.34 0.112 L
50.152 -0.7 50.621 -1.435 QT
51.09 -2.169 51.09 -3.028 QT
51.09 -3.56 50.855 -4.021 QT
50.621 -4.482 50.207 -4.739 QT
49.793 -4.997 49.23 -4.997 QT
48.465 -4.997 47.949 -4.591 QT
48.168 -4.544 48.348 -4.396 QT
48.527 -4.247 48.621 -4.036 QT
48.715 -3.825 48.715 -3.591 QT
48.715 -3.138 48.41 -2.849 QT
48.105 -2.56 47.668 -2.56 QT
47.23 -2.56 46.934 -2.857 QT
46.637 -3.153 46.637 -3.591 QT
46.637 -4.31 47.098 -4.786 QT
47.559 -5.263 48.238 -5.489 QT
48.918 -5.716 49.637 -5.716 QT
50.293 -5.716 50.887 -5.56 QT
51.48 -5.403 51.98 -5.067 QT
52.48 -4.732 52.777 -4.224 QT
53.074 -3.716 53.074 -3.028 QT
53.074 -2.263 52.644 -1.685 QT
52.215 -1.107 51.543 -0.614 QT
50.871 -0.122 50.184 0.393 QT
48.637 1.643 L
49.402 1.643 L
50.496 1.643 51.23 1.636 QT
51.965 1.628 52.027 1.565 QT
52.246 1.331 52.355 0.284 QT
53.074 0.284 L
52.637 3.456 L
46.637 3.456 L
cp
f
GR
GS
[0.75 0 0 0.75 291.09748 32.25246] CT
N
54.307 1.05 M
54.307 -0.372 L
58.573 -0.372 L
58.573 1.05 L
54.307 1.05 L
cp
f
GR
GS
[0.75 0 0 0.75 291.09748 32.25246] CT
N
60.187 3.456 M
60.187 2.737 L
60.937 2.737 61.327 2.706 QT
61.702 2.706 61.702 2.612 QT
61.702 -5.435 L
60.187 -5.435 L
60.187 -6.153 L
63.687 -6.153 L
63.812 -6.122 63.858 -6.06 QT
69.374 0.487 L
69.374 -5.31 L
69.374 -5.357 69.226 -5.38 QT
69.077 -5.403 68.999 -5.403 QT
68.608 -5.435 67.858 -5.435 QT
67.858 -6.153 L
71.671 -6.153 L
71.671 -5.435 L
70.921 -5.435 70.546 -5.403 QT
70.468 -5.403 70.319 -5.38 QT
70.171 -5.357 70.171 -5.31 QT
70.171 3.237 L
70.124 3.409 69.937 3.456 QT
69.593 3.456 L
69.468 3.425 69.437 3.378 QT
62.499 -4.857 L
62.499 2.612 L
62.499 2.706 62.874 2.706 QT
63.249 2.737 64.015 2.737 QT
64.015 3.456 L
60.187 3.456 L
cp
f
GR
GS
[0.75 0 0 0.75 291.09748 32.25246] CT
N
73.053 0.409 M
73.053 -0.622 73.521 -1.372 QT
73.99 -2.122 74.803 -2.505 QT
75.615 -2.888 76.615 -2.888 QT
77.381 -2.888 78.029 -2.669 QT
78.678 -2.45 79.17 -2.028 QT
79.662 -1.607 79.928 -0.989 QT
80.193 -0.372 80.193 0.409 QT
80.193 1.159 79.912 1.753 QT
79.631 2.347 79.139 2.745 QT
78.646 3.143 77.99 3.339 QT
77.334 3.534 76.615 3.534 QT
75.896 3.534 75.256 3.339 QT
74.615 3.143 74.115 2.745 QT
73.615 2.347 73.334 1.753 QT
73.053 1.159 73.053 0.409 QT
cp
76.615 2.925 M
77.412 2.925 77.795 2.55 QT
78.178 2.175 78.264 1.636 QT
78.35 1.097 78.35 0.222 QT
78.35 -0.435 78.295 -0.841 QT
78.24 -1.247 78.084 -1.583 QT
77.928 -1.919 77.576 -2.122 QT
77.225 -2.325 76.615 -2.325 QT
76.006 -2.325 75.654 -2.122 QT
75.303 -1.919 75.146 -1.567 QT
74.99 -1.216 74.943 -0.786 QT
74.896 -0.357 74.896 0.222 QT
74.896 1.097 74.982 1.636 QT
75.068 2.175 75.443 2.55 QT
75.818 2.925 76.615 2.925 QT
cp
f
GR
GS
[0.75 0 0 0.75 291.09748 32.25246] CT
N
81.38 3.456 M
81.38 2.737 L
82.333 2.737 L
82.333 -1.622 L
82.333 -2.013 81.38 -2.013 QT
81.38 -2.732 L
83.755 -2.841 L
83.755 -1.419 L
84.005 -2.06 84.45 -2.45 QT
84.895 -2.841 85.52 -2.841 QT
86.114 -2.841 86.591 -2.536 QT
87.067 -2.232 87.067 -1.669 QT
87.067 -1.31 86.817 -1.052 QT
86.567 -0.794 86.192 -0.794 QT
85.801 -0.794 85.551 -1.052 QT
85.301 -1.31 85.301 -1.669 QT
85.301 -2.044 85.536 -2.294 QT
84.926 -2.294 84.567 -1.864 QT
84.208 -1.435 84.051 -0.817 QT
83.895 -0.2 83.895 0.362 QT
83.895 2.737 L
85.13 2.737 L
85.13 3.456 L
81.38 3.456 L
cp
f
GR
GS
[0.75 0 0 0.75 291.09748 32.25246] CT
N
88.309 3.456 M
88.309 2.737 L
89.262 2.737 L
89.262 -1.622 L
89.262 -2.013 88.309 -2.013 QT
88.309 -2.732 L
90.762 -2.841 L
90.762 -1.419 L
90.981 -1.857 91.364 -2.177 QT
91.746 -2.497 92.215 -2.669 QT
92.684 -2.841 93.168 -2.841 QT
93.715 -2.841 94.137 -2.739 QT
94.559 -2.638 94.871 -2.357 QT
95.184 -2.075 95.309 -1.56 QT
95.668 -2.153 96.293 -2.497 QT
96.918 -2.841 97.621 -2.841 QT
98.731 -2.841 99.293 -2.388 QT
99.856 -1.935 99.856 -0.841 QT
99.856 2.737 L
100.825 2.737 L
100.825 3.456 L
97.231 3.456 L
97.231 2.737 L
98.2 2.737 L
98.2 -0.81 L
98.2 -1.45 98.067 -1.872 QT
97.934 -2.294 97.434 -2.294 QT
96.903 -2.294 96.418 -1.997 QT
95.934 -1.7 95.66 -1.224 QT
95.387 -0.747 95.387 -0.2 QT
95.387 2.737 L
96.356 2.737 L
96.356 3.456 L
92.762 3.456 L
92.762 2.737 L
93.731 2.737 L
93.731 -0.81 L
93.731 -1.45 93.598 -1.872 QT
93.465 -2.294 92.981 -2.294 QT
92.418 -2.294 91.95 -1.997 QT
91.481 -1.7 91.2 -1.224 QT
90.918 -0.747 90.918 -0.2 QT
90.918 2.737 L
91.887 2.737 L
91.887 3.456 L
88.309 3.456 L
cp
f
GR
GS
[0.75 0 0 0.75 0 0.25] CT
0 0.447 0.741 RC
[2 2] 0 setdash
2 LJ
2 LW
N
355.014 42.67 M
385.119 42.67 L
S
GR
GS
[0.75 0 0 0.75 277.55006 32.25246] CT
0 0.447 0.741 RC
10.0 ML
2 LW
N
0 -4 M
0 4 L
-4 0 M
4 0 L
-2.828 -2.828 M
2.828 2.828 L
-2.828 2.828 M
2.828 -2.828 L
S
GR
GS
[0.75 0 0 0.75 291.09748 45.625] CT
N
0.891 3.425 M
0.891 0.44 L
0.938 0.3 1.078 0.268 QT
1.438 0.268 L
1.563 0.3 1.609 0.44 QT
1.609 1.331 2.078 1.878 QT
2.547 2.425 3.289 2.659 QT
4.031 2.893 4.922 2.893 QT
5.656 2.893 6.141 2.464 QT
6.625 2.034 6.625 1.284 QT
6.625 0.722 6.242 0.284 QT
5.859 -0.153 5.313 -0.263 QT
3.313 -0.7 L
2.641 -0.857 2.086 -1.239 QT
1.531 -1.622 1.211 -2.2 QT
0.891 -2.778 0.891 -3.466 QT
0.891 -4.341 1.305 -4.989 QT
1.719 -5.638 2.43 -5.966 QT
3.141 -6.294 4.016 -6.294 QT
5.453 -6.294 6.406 -5.528 QT
7.125 -6.247 L
7.188 -6.278 7.25 -6.294 QT
7.422 -6.294 L
7.547 -6.263 7.594 -6.138 QT
7.594 -3.138 L
7.547 -2.997 7.422 -2.95 QT
7.063 -2.95 L
6.906 -2.997 6.875 -3.138 QT
6.781 -3.935 6.414 -4.497 QT
6.047 -5.06 5.43 -5.349 QT
4.813 -5.638 4.016 -5.638 QT
3.547 -5.638 3.164 -5.482 QT
2.781 -5.325 2.547 -4.997 QT
2.313 -4.669 2.313 -4.2 QT
2.313 -3.7 2.688 -3.317 QT
3.063 -2.935 3.578 -2.825 QT
5.578 -2.388 L
6.656 -2.138 7.352 -1.333 QT
8.047 -0.528 8.047 0.565 QT
8.047 1.268 7.813 1.831 QT
7.578 2.393 7.164 2.784 QT
6.75 3.175 6.164 3.393 QT
5.578 3.612 4.922 3.612 QT
4.094 3.612 3.375 3.44 QT
2.656 3.268 2.078 2.847 QT
1.359 3.55 L
1.313 3.581 1.234 3.612 QT
1.078 3.612 L
0.938 3.565 0.891 3.425 QT
cp
f
GR
GS
[0.75 0 0 0.75 291.09748 45.625] CT
N
10.622 1.815 M
10.622 -2.044 L
9.497 -2.044 L
9.497 -2.607 L
10.012 -2.607 10.403 -2.864 QT
10.794 -3.122 11.044 -3.536 QT
11.294 -3.95 11.427 -4.442 QT
11.559 -4.935 11.559 -5.435 QT
12.262 -5.435 L
12.262 -2.763 L
14.278 -2.763 L
14.278 -2.044 L
12.262 -2.044 L
12.262 1.768 L
12.262 2.284 12.434 2.604 QT
12.606 2.925 13.044 2.925 QT
13.434 2.925 13.637 2.565 QT
13.841 2.206 13.841 1.768 QT
13.841 0.987 L
14.544 0.987 L
14.544 1.815 L
14.544 2.268 14.317 2.667 QT
14.091 3.065 13.716 3.3 QT
13.341 3.534 12.887 3.534 QT
11.919 3.534 11.27 3.136 QT
10.622 2.737 10.622 1.815 QT
cp
f
GR
GS
[0.75 0 0 0.75 291.09748 45.625] CT
N
16.093 1.893 M
16.093 1.222 16.57 0.792 QT
17.046 0.362 17.757 0.128 QT
18.468 -0.107 19.234 -0.192 QT
19.999 -0.278 20.609 -0.278 QT
20.609 -0.81 L
20.609 -1.482 20.234 -1.903 QT
19.859 -2.325 19.202 -2.325 QT
18.546 -2.325 18.14 -2.247 QT
18.437 -1.982 18.437 -1.575 QT
18.437 -1.185 18.171 -0.919 QT
17.906 -0.653 17.531 -0.653 QT
17.14 -0.653 16.882 -0.927 QT
16.624 -1.2 16.624 -1.575 QT
16.624 -2.403 17.39 -2.646 QT
18.156 -2.888 19.202 -2.888 QT
19.749 -2.888 20.265 -2.786 QT
20.781 -2.685 21.241 -2.442 QT
21.702 -2.2 21.984 -1.81 QT
22.265 -1.419 22.265 -0.841 QT
22.265 2.409 L
22.265 2.737 23.234 2.737 QT
23.406 2.784 23.452 2.956 QT
23.452 3.237 L
23.406 3.409 23.234 3.456 QT
22.265 3.456 L
21.718 3.456 21.281 3.268 QT
20.843 3.081 20.843 2.612 QT
20.843 2.456 L
20.546 2.987 19.991 3.261 QT
19.437 3.534 18.796 3.534 QT
17.749 3.534 16.921 3.159 QT
16.093 2.784 16.093 1.893 QT
cp
17.781 1.893 M
17.781 2.362 18.148 2.667 QT
18.515 2.972 18.984 2.972 QT
19.374 2.972 19.749 2.808 QT
20.124 2.643 20.366 2.331 QT
20.609 2.018 20.609 1.628 QT
20.609 0.206 L
20.015 0.206 19.359 0.37 QT
18.702 0.534 18.241 0.909 QT
17.781 1.284 17.781 1.893 QT
cp
f
GR
GS
[0.75 0 0 0.75 291.09748 45.625] CT
N
25.112 1.815 M
25.112 -2.044 L
23.987 -2.044 L
23.987 -2.607 L
24.502 -2.607 24.893 -2.864 QT
25.284 -3.122 25.534 -3.536 QT
25.784 -3.95 25.916 -4.442 QT
26.049 -4.935 26.049 -5.435 QT
26.752 -5.435 L
26.752 -2.763 L
28.768 -2.763 L
28.768 -2.044 L
26.752 -2.044 L
26.752 1.768 L
26.752 2.284 26.924 2.604 QT
27.096 2.925 27.534 2.925 QT
27.924 2.925 28.127 2.565 QT
28.33 2.206 28.33 1.768 QT
28.33 0.987 L
29.034 0.987 L
29.034 1.815 L
29.034 2.268 28.807 2.667 QT
28.58 3.065 28.205 3.3 QT
27.83 3.534 27.377 3.534 QT
26.409 3.534 25.76 3.136 QT
25.112 2.737 25.112 1.815 QT
cp
f
GR
GS
[0.75 0 0 0.75 291.09748 45.625] CT
N
30.583 0.3 M
30.583 -0.669 31.036 -1.396 QT
31.489 -2.122 32.278 -2.505 QT
33.067 -2.888 34.036 -2.888 QT
35.005 -2.888 35.677 -2.544 QT
36.349 -2.2 36.7 -1.528 QT
37.052 -0.857 37.052 0.128 QT
37.052 0.331 36.817 0.409 QT
32.427 0.409 L
32.427 1.175 32.599 1.729 QT
32.77 2.284 33.224 2.604 QT
33.677 2.925 34.442 2.925 QT
34.833 2.925 35.231 2.784 QT
35.63 2.643 35.919 2.378 QT
36.208 2.112 36.349 1.737 QT
36.427 1.597 36.552 1.565 QT
36.817 1.565 L
37.052 1.612 37.052 1.815 QT
37.052 1.831 37.036 1.909 QT
36.849 2.456 36.411 2.823 QT
35.974 3.19 35.403 3.362 QT
34.833 3.534 34.255 3.534 QT
33.255 3.534 32.411 3.167 QT
31.567 2.8 31.075 2.073 QT
30.583 1.347 30.583 0.3 QT
cp
32.427 -0.107 M
35.661 -0.107 L
35.661 -1.028 35.278 -1.677 QT
34.895 -2.325 34.036 -2.325 QT
33.161 -2.325 32.794 -1.685 QT
32.427 -1.044 32.427 -0.107 QT
cp
f
GR
GS
[0.75 0 0 0.75 291.09748 45.625] CT
N
44.037 3.456 M
44.037 2.909 L
44.052 2.862 44.099 2.8 QT
46.74 0.112 L
47.552 -0.7 48.021 -1.435 QT
48.49 -2.169 48.49 -3.028 QT
48.49 -3.56 48.255 -4.021 QT
48.021 -4.482 47.607 -4.739 QT
47.193 -4.997 46.63 -4.997 QT
45.865 -4.997 45.349 -4.591 QT
45.568 -4.544 45.748 -4.396 QT
45.927 -4.247 46.021 -4.036 QT
46.115 -3.825 46.115 -3.591 QT
46.115 -3.138 45.81 -2.849 QT
45.505 -2.56 45.068 -2.56 QT
44.63 -2.56 44.333 -2.857 QT
44.037 -3.153 44.037 -3.591 QT
44.037 -4.31 44.498 -4.786 QT
44.958 -5.263 45.638 -5.489 QT
46.318 -5.716 47.037 -5.716 QT
47.693 -5.716 48.287 -5.56 QT
48.88 -5.403 49.38 -5.067 QT
49.88 -4.732 50.177 -4.224 QT
50.474 -3.716 50.474 -3.028 QT
50.474 -2.263 50.044 -1.685 QT
49.615 -1.107 48.943 -0.614 QT
48.271 -0.122 47.583 0.393 QT
46.037 1.643 L
46.802 1.643 L
47.896 1.643 48.63 1.636 QT
49.365 1.628 49.427 1.565 QT
49.646 1.331 49.755 0.284 QT
50.474 0.284 L
50.037 3.456 L
44.037 3.456 L
cp
f
GR
GS
[0.75 0 0 0.75 291.09748 45.625] CT
N
51.707 1.05 M
51.707 -0.372 L
55.973 -0.372 L
55.973 1.05 L
51.707 1.05 L
cp
f
GR
GS
[0.75 0 0 0.75 291.09748 45.625] CT
N
57.649 3.456 M
57.649 2.737 L
58.602 2.737 L
58.602 -1.622 L
58.602 -2.013 57.649 -2.013 QT
57.649 -2.732 L
60.102 -2.841 L
60.102 -1.419 L
60.462 -2.075 61.102 -2.458 QT
61.743 -2.841 62.493 -2.841 QT
63.602 -2.841 64.157 -2.396 QT
64.712 -1.95 64.712 -0.841 QT
64.712 2.737 L
65.68 2.737 L
65.68 3.456 L
62.087 3.456 L
62.087 2.737 L
63.055 2.737 L
63.055 -0.81 L
63.055 -1.45 62.93 -1.872 QT
62.805 -2.294 62.321 -2.294 QT
61.758 -2.294 61.282 -1.997 QT
60.805 -1.7 60.532 -1.224 QT
60.258 -0.747 60.258 -0.2 QT
60.258 2.737 L
61.227 2.737 L
61.227 3.456 L
57.649 3.456 L
cp
f
GR
GS
[0.75 0 0 0.75 291.09748 45.625] CT
N
66.693 0.409 M
66.693 -0.622 67.162 -1.372 QT
67.63 -2.122 68.443 -2.505 QT
69.255 -2.888 70.255 -2.888 QT
71.021 -2.888 71.669 -2.669 QT
72.318 -2.45 72.81 -2.028 QT
73.302 -1.607 73.568 -0.989 QT
73.833 -0.372 73.833 0.409 QT
73.833 1.159 73.552 1.753 QT
73.271 2.347 72.779 2.745 QT
72.287 3.143 71.63 3.339 QT
70.974 3.534 70.255 3.534 QT
69.537 3.534 68.896 3.339 QT
68.255 3.143 67.755 2.745 QT
67.255 2.347 66.974 1.753 QT
66.693 1.159 66.693 0.409 QT
cp
70.255 2.925 M
71.052 2.925 71.435 2.55 QT
71.818 2.175 71.904 1.636 QT
71.99 1.097 71.99 0.222 QT
71.99 -0.435 71.935 -0.841 QT
71.88 -1.247 71.724 -1.583 QT
71.568 -1.919 71.216 -2.122 QT
70.865 -2.325 70.255 -2.325 QT
69.646 -2.325 69.294 -2.122 QT
68.943 -1.919 68.787 -1.567 QT
68.63 -1.216 68.583 -0.786 QT
68.537 -0.357 68.537 0.222 QT
68.537 1.097 68.622 1.636 QT
68.708 2.175 69.083 2.55 QT
69.458 2.925 70.255 2.925 QT
cp
f
GR
GS
[0.75 0 0 0.75 291.09748 45.625] CT
N
75.02 3.456 M
75.02 2.737 L
75.973 2.737 L
75.973 -1.622 L
75.973 -2.013 75.02 -2.013 QT
75.02 -2.732 L
77.395 -2.841 L
77.395 -1.419 L
77.645 -2.06 78.09 -2.45 QT
78.535 -2.841 79.16 -2.841 QT
79.754 -2.841 80.231 -2.536 QT
80.707 -2.232 80.707 -1.669 QT
80.707 -1.31 80.457 -1.052 QT
80.207 -0.794 79.832 -0.794 QT
79.441 -0.794 79.191 -1.052 QT
78.941 -1.31 78.941 -1.669 QT
78.941 -2.044 79.176 -2.294 QT
78.566 -2.294 78.207 -1.864 QT
77.848 -1.435 77.691 -0.817 QT
77.535 -0.2 77.535 0.362 QT
77.535 2.737 L
78.77 2.737 L
78.77 3.456 L
75.02 3.456 L
cp
f
GR
GS
[0.75 0 0 0.75 291.09748 45.625] CT
N
81.949 3.456 M
81.949 2.737 L
82.902 2.737 L
82.902 -1.622 L
82.902 -2.013 81.949 -2.013 QT
81.949 -2.732 L
84.402 -2.841 L
84.402 -1.419 L
84.621 -1.857 85.004 -2.177 QT
85.386 -2.497 85.855 -2.669 QT
86.324 -2.841 86.808 -2.841 QT
87.355 -2.841 87.777 -2.739 QT
88.199 -2.638 88.511 -2.357 QT
88.824 -2.075 88.949 -1.56 QT
89.308 -2.153 89.933 -2.497 QT
90.558 -2.841 91.261 -2.841 QT
92.371 -2.841 92.933 -2.388 QT
93.496 -1.935 93.496 -0.841 QT
93.496 2.737 L
94.465 2.737 L
94.465 3.456 L
90.871 3.456 L
90.871 2.737 L
91.84 2.737 L
91.84 -0.81 L
91.84 -1.45 91.707 -1.872 QT
91.574 -2.294 91.074 -2.294 QT
90.543 -2.294 90.058 -1.997 QT
89.574 -1.7 89.301 -1.224 QT
89.027 -0.747 89.027 -0.2 QT
89.027 2.737 L
89.996 2.737 L
89.996 3.456 L
86.402 3.456 L
86.402 2.737 L
87.371 2.737 L
87.371 -0.81 L
87.371 -1.45 87.238 -1.872 QT
87.105 -2.294 86.621 -2.294 QT
86.058 -2.294 85.59 -1.997 QT
85.121 -1.7 84.84 -1.224 QT
84.558 -0.747 84.558 -0.2 QT
84.558 2.737 L
85.527 2.737 L
85.527 3.456 L
81.949 3.456 L
cp
f
GR
GS
[0.75 0 0 0.75 0 0.25] CT
0.851 0.325 0.098 RC
[8 8] 0 setdash
2 LJ
2 LW
N
355.014 60.5 M
385.119 60.5 L
S
GR
GS
[0.75 0 0 0.75 277.55006 45.625] CT
0.851 0.325 0.098 RC
10.0 ML
2 LW
N
-3 -3 M
-3 3 L
3 3 L
3 -3 L
cp
S
GR
GS
[0.75 0 0 0.75 291.09748 58.99754] CT
N
0.891 -1.341 M
0.891 -2.95 1.656 -4.06 QT
2.422 -5.169 3.727 -5.732 QT
5.031 -6.294 6.578 -6.294 QT
8.094 -6.294 9.25 -5.357 QT
10.266 -6.247 L
10.313 -6.278 10.391 -6.294 QT
10.563 -6.294 L
10.688 -6.263 10.719 -6.138 QT
10.719 -2.669 L
10.688 -2.513 10.563 -2.482 QT
10.109 -2.482 L
9.953 -2.513 9.922 -2.669 QT
9.828 -3.435 9.414 -4.107 QT
9 -4.778 8.352 -5.185 QT
7.703 -5.591 6.906 -5.591 QT
5.531 -5.591 4.688 -5.083 QT
3.844 -4.575 3.469 -3.63 QT
3.094 -2.685 3.094 -1.341 QT
3.094 0.018 3.477 0.956 QT
3.859 1.893 4.711 2.393 QT
5.563 2.893 6.938 2.893 QT
7.719 2.893 8.43 2.542 QT
9.141 2.19 9.578 1.558 QT
10.016 0.925 10.016 0.128 QT
10.047 -0.013 10.188 -0.044 QT
10.563 -0.044 L
10.719 0.003 10.719 0.175 QT
10.719 0.956 10.367 1.597 QT
10.016 2.237 9.414 2.69 QT
8.813 3.143 8.063 3.378 QT
7.313 3.612 6.578 3.612 QT
5.031 3.612 3.727 3.05 QT
2.422 2.487 1.656 1.37 QT
0.891 0.253 0.891 -1.341 QT
cp
f
GR
GS
[0.75 0 0 0.75 291.09748 58.99754] CT
N
12.413 0.409 M
12.413 -0.622 12.882 -1.372 QT
13.351 -2.122 14.163 -2.505 QT
14.976 -2.888 15.976 -2.888 QT
16.741 -2.888 17.39 -2.669 QT
18.038 -2.45 18.53 -2.028 QT
19.022 -1.607 19.288 -0.989 QT
19.554 -0.372 19.554 0.409 QT
19.554 1.159 19.272 1.753 QT
18.991 2.347 18.499 2.745 QT
18.007 3.143 17.351 3.339 QT
16.694 3.534 15.976 3.534 QT
15.257 3.534 14.616 3.339 QT
13.976 3.143 13.476 2.745 QT
12.976 2.347 12.694 1.753 QT
12.413 1.159 12.413 0.409 QT
cp
15.976 2.925 M
16.772 2.925 17.155 2.55 QT
17.538 2.175 17.624 1.636 QT
17.71 1.097 17.71 0.222 QT
17.71 -0.435 17.655 -0.841 QT
17.601 -1.247 17.444 -1.583 QT
17.288 -1.919 16.937 -2.122 QT
16.585 -2.325 15.976 -2.325 QT
15.366 -2.325 15.015 -2.122 QT
14.663 -1.919 14.507 -1.567 QT
14.351 -1.216 14.304 -0.786 QT
14.257 -0.357 14.257 0.222 QT
14.257 1.097 14.343 1.636 QT
14.429 2.175 14.804 2.55 QT
15.179 2.925 15.976 2.925 QT
cp
f
GR
GS
[0.75 0 0 0.75 291.09748 58.99754] CT
N
20.771 3.362 M
20.771 1.409 L
20.802 1.284 20.959 1.237 QT
21.318 1.237 L
21.459 1.268 21.474 1.362 QT
21.584 1.847 21.841 2.214 QT
22.099 2.581 22.498 2.776 QT
22.896 2.972 23.412 2.972 QT
25.006 2.972 25.006 1.956 QT
25.006 1.675 24.818 1.472 QT
24.631 1.268 24.365 1.143 QT
24.099 1.018 23.834 0.987 QT
22.787 0.8 L
22.271 0.706 21.818 0.479 QT
21.365 0.253 21.068 -0.13 QT
20.771 -0.513 20.771 -1.028 QT
20.771 -1.56 20.998 -1.935 QT
21.224 -2.31 21.607 -2.513 QT
21.99 -2.716 22.443 -2.802 QT
22.896 -2.888 23.412 -2.888 QT
24.24 -2.888 24.74 -2.622 QT
25.256 -2.872 L
25.302 -2.888 L
25.474 -2.888 L
25.599 -2.857 25.646 -2.716 QT
25.646 -1.185 L
25.599 -1.028 25.474 -0.997 QT
25.115 -0.997 L
24.959 -1.028 24.927 -1.185 QT
24.927 -1.81 24.49 -2.099 QT
24.052 -2.388 23.396 -2.388 QT
21.818 -2.388 21.818 -1.544 QT
21.818 -0.966 22.912 -0.732 QT
23.974 -0.544 L
24.506 -0.466 24.982 -0.2 QT
25.459 0.065 25.756 0.503 QT
26.052 0.94 26.052 1.472 QT
26.052 2.206 25.693 2.675 QT
25.334 3.143 24.74 3.339 QT
24.146 3.534 23.412 3.534 QT
22.49 3.534 21.834 3.112 QT
21.162 3.518 L
21.115 3.534 L
20.959 3.534 L
20.802 3.503 20.771 3.362 QT
cp
f
GR
GS
[0.75 0 0 0.75 291.09748 58.99754] CT
N
28.194 1.815 M
28.194 -2.044 L
27.069 -2.044 L
27.069 -2.607 L
27.584 -2.607 27.975 -2.864 QT
28.366 -3.122 28.616 -3.536 QT
28.866 -3.95 28.998 -4.442 QT
29.131 -4.935 29.131 -5.435 QT
29.834 -5.435 L
29.834 -2.763 L
31.85 -2.763 L
31.85 -2.044 L
29.834 -2.044 L
29.834 1.768 L
29.834 2.284 30.006 2.604 QT
30.178 2.925 30.616 2.925 QT
31.006 2.925 31.209 2.565 QT
31.412 2.206 31.412 1.768 QT
31.412 0.987 L
32.116 0.987 L
32.116 1.815 L
32.116 2.268 31.889 2.667 QT
31.662 3.065 31.287 3.3 QT
30.912 3.534 30.459 3.534 QT
29.491 3.534 28.842 3.136 QT
28.194 2.737 28.194 1.815 QT
cp
f
GR
GS
[0.75 0 0 0.75 0 0.25] CT
0.929 0.694 0.125 RC
[8 2 4 2] 0 setdash
2 LJ
2 LW
N
355.014 78.33 M
385.119 78.33 L
S
GR
GS
[0.75 0 0 0.75 277.55006 58.99754] CT
0.929 0.694 0.125 RC
10.0 ML
2 LW
N
0 -5.332 M
-4.618 2.666 L
4.618 2.666 L
cp
S
GR
GS
[0.75 0 0 0.75 0 0.25] CT
0.149 GC
10.0 ML
0.667 LW
N
351 89 M
351 32 L
494 32 L
494 89 L
cp
S
GR
%%Trailer
%%Pages: 1
%%EOF
