%!PS-Adobe-3.0 EPSF-3.0
%%Creator: (MATLAB, The Mathworks, Inc. Version 9.1.0.441655 \(R2016b\). Operating System: Linux)
%%Title: /home/im1716/Documents/Latex/Papers/Conferences/CDC-2019_ResourceUsage/figures/spectrum_maxEig.eps
%%CreationDate: 2019-03-11T20:09:59
%%Pages: (atend)
%%BoundingBox: 0 0 420 200
%%LanguageLevel: 3
%%EndComments
%%BeginProlog
%%BeginResource: procset (Apache XML Graphics Std ProcSet) 1.2 0
%%Version: 1.2 0
%%Copyright: (Copyright 2001-2003,2010 The Apache Software Foundation. License terms: http://www.apache.org/licenses/LICENSE-2.0)
/bd{bind def}bind def
/ld{load def}bd
/GR/grestore ld
/M/moveto ld
/LJ/setlinejoin ld
/C/curveto ld
/f/fill ld
/LW/setlinewidth ld
/GC/setgray ld
/t/show ld
/N/newpath ld
/CT/concat ld
/cp/closepath ld
/S/stroke ld
/L/lineto ld
/CC/setcmykcolor ld
/A/ashow ld
/GS/gsave ld
/RC/setrgbcolor ld
/RM/rmoveto ld
/ML/setmiterlimit ld
/re {4 2 roll M
1 index 0 rlineto
0 exch rlineto
neg 0 rlineto
cp } bd
/_ctm matrix def
/_tm matrix def
/BT { _ctm currentmatrix pop matrix _tm copy pop 0 0 moveto } bd
/ET { _ctm setmatrix } bd
/iTm { _ctm setmatrix _tm concat } bd
/Tm { _tm astore pop iTm 0 0 moveto } bd
/ux 0.0 def
/uy 0.0 def
/F {
  /Tp exch def
  /Tf exch def
  Tf findfont Tp scalefont setfont
  /cf Tf def  /cs Tp def
} bd
/ULS {currentpoint /uy exch def /ux exch def} bd
/ULE {
  /Tcx currentpoint pop def
  gsave
  newpath
  cf findfont cs scalefont dup
  /FontMatrix get 0 get /Ts exch def /FontInfo get dup
  /UnderlinePosition get Ts mul /To exch def
  /UnderlineThickness get Ts mul /Tt exch def
  ux uy To add moveto  Tcx uy To add lineto
  Tt setlinewidth stroke
  grestore
} bd
/OLE {
  /Tcx currentpoint pop def
  gsave
  newpath
  cf findfont cs scalefont dup
  /FontMatrix get 0 get /Ts exch def /FontInfo get dup
  /UnderlinePosition get Ts mul /To exch def
  /UnderlineThickness get Ts mul /Tt exch def
  ux uy To add cs add moveto Tcx uy To add cs add lineto
  Tt setlinewidth stroke
  grestore
} bd
/SOE {
  /Tcx currentpoint pop def
  gsave
  newpath
  cf findfont cs scalefont dup
  /FontMatrix get 0 get /Ts exch def /FontInfo get dup
  /UnderlinePosition get Ts mul /To exch def
  /UnderlineThickness get Ts mul /Tt exch def
  ux uy To add cs 10 mul 26 idiv add moveto Tcx uy To add cs 10 mul 26 idiv add lineto
  Tt setlinewidth stroke
  grestore
} bd
/QT {
/Y22 exch store
/X22 exch store
/Y21 exch store
/X21 exch store
currentpoint
/Y21 load 2 mul add 3 div exch
/X21 load 2 mul add 3 div exch
/X21 load 2 mul /X22 load add 3 div
/Y21 load 2 mul /Y22 load add 3 div
/X22 load /Y22 load curveto
} bd
/SSPD {
dup length /d exch dict def
{
/v exch def
/k exch def
currentpagedevice k known {
/cpdv currentpagedevice k get def
v cpdv ne {
/upd false def
/nullv v type /nulltype eq def
/nullcpdv cpdv type /nulltype eq def
nullv nullcpdv or
{
/upd true def
} {
/sametype v type cpdv type eq def
sametype {
v type /arraytype eq {
/vlen v length def
/cpdvlen cpdv length def
vlen cpdvlen eq {
0 1 vlen 1 sub {
/i exch def
/obj v i get def
/cpdobj cpdv i get def
obj cpdobj ne {
/upd true def
exit
} if
} for
} {
/upd true def
} ifelse
} {
v type /dicttype eq {
v {
/dv exch def
/dk exch def
/cpddv cpdv dk get def
dv cpddv ne {
/upd true def
exit
} if
} forall
} {
/upd true def
} ifelse
} ifelse
} if
} ifelse
upd true eq {
d k v put
} if
} if
} if
} forall
d length 0 gt {
d setpagedevice
} if
} bd
/RE { % /NewFontName [NewEncodingArray] /FontName RE -
  findfont dup length dict begin
  {
    1 index /FID ne
    {def} {pop pop} ifelse
  } forall
  /Encoding exch def
  /FontName 1 index def
  currentdict definefont pop
  end
} bind def
%%EndResource
%%BeginResource: procset (Apache XML Graphics EPS ProcSet) 1.0 0
%%Version: 1.0 0
%%Copyright: (Copyright 2002-2003 The Apache Software Foundation. License terms: http://www.apache.org/licenses/LICENSE-2.0)
/BeginEPSF { %def
/b4_Inc_state save def         % Save state for cleanup
/dict_count countdictstack def % Count objects on dict stack
/op_count count 1 sub def      % Count objects on operand stack
userdict begin                 % Push userdict on dict stack
/showpage { } def              % Redefine showpage, { } = null proc
0 setgray 0 setlinecap         % Prepare graphics state
1 setlinewidth 0 setlinejoin
10 setmiterlimit [ ] 0 setdash newpath
/languagelevel where           % If level not equal to 1 then
{pop languagelevel             % set strokeadjust and
1 ne                           % overprint to their defaults.
{false setstrokeadjust false setoverprint
} if
} if
} bd
/EndEPSF { %def
count op_count sub {pop} repeat            % Clean up stacks
countdictstack dict_count sub {end} repeat
b4_Inc_state restore
} bd
%%EndResource
%FOPBeginFontDict
%%IncludeResource: font Courier-Bold
%%IncludeResource: font Helvetica
%%IncludeResource: font Courier-BoldOblique
%%IncludeResource: font Courier-Oblique
%%IncludeResource: font Times-Roman
%%IncludeResource: font Helvetica-BoldOblique
%%IncludeResource: font Helvetica-Bold
%%IncludeResource: font Helvetica-Oblique
%%IncludeResource: font Times-BoldItalic
%%IncludeResource: font Courier
%%IncludeResource: font Times-Italic
%%IncludeResource: font Times-Bold
%%IncludeResource: font Symbol
%%IncludeResource: font ZapfDingbats
%FOPEndFontDict
%%BeginResource: encoding WinAnsiEncoding
/WinAnsiEncoding [
/.notdef /.notdef /.notdef /.notdef /.notdef
/.notdef /.notdef /.notdef /.notdef /.notdef
/.notdef /.notdef /.notdef /.notdef /.notdef
/.notdef /.notdef /.notdef /.notdef /.notdef
/.notdef /.notdef /.notdef /.notdef /.notdef
/.notdef /.notdef /.notdef /.notdef /.notdef
/.notdef /.notdef /space /exclam /quotedbl
/numbersign /dollar /percent /ampersand /quotesingle
/parenleft /parenright /asterisk /plus /comma
/hyphen /period /slash /zero /one
/two /three /four /five /six
/seven /eight /nine /colon /semicolon
/less /equal /greater /question /at
/A /B /C /D /E
/F /G /H /I /J
/K /L /M /N /O
/P /Q /R /S /T
/U /V /W /X /Y
/Z /bracketleft /backslash /bracketright /asciicircum
/underscore /quoteleft /a /b /c
/d /e /f /g /h
/i /j /k /l /m
/n /o /p /q /r
/s /t /u /v /w
/x /y /z /braceleft /bar
/braceright /asciitilde /bullet /Euro /bullet
/quotesinglbase /florin /quotedblbase /ellipsis /dagger
/daggerdbl /circumflex /perthousand /Scaron /guilsinglleft
/OE /bullet /Zcaron /bullet /bullet
/quoteleft /quoteright /quotedblleft /quotedblright /bullet
/endash /emdash /asciitilde /trademark /scaron
/guilsinglright /oe /bullet /zcaron /Ydieresis
/space /exclamdown /cent /sterling /currency
/yen /brokenbar /section /dieresis /copyright
/ordfeminine /guillemotleft /logicalnot /sfthyphen /registered
/macron /degree /plusminus /twosuperior /threesuperior
/acute /mu /paragraph /middot /cedilla
/onesuperior /ordmasculine /guillemotright /onequarter /onehalf
/threequarters /questiondown /Agrave /Aacute /Acircumflex
/Atilde /Adieresis /Aring /AE /Ccedilla
/Egrave /Eacute /Ecircumflex /Edieresis /Igrave
/Iacute /Icircumflex /Idieresis /Eth /Ntilde
/Ograve /Oacute /Ocircumflex /Otilde /Odieresis
/multiply /Oslash /Ugrave /Uacute /Ucircumflex
/Udieresis /Yacute /Thorn /germandbls /agrave
/aacute /acircumflex /atilde /adieresis /aring
/ae /ccedilla /egrave /eacute /ecircumflex
/edieresis /igrave /iacute /icircumflex /idieresis
/eth /ntilde /ograve /oacute /ocircumflex
/otilde /odieresis /divide /oslash /ugrave
/uacute /ucircumflex /udieresis /yacute /thorn
/ydieresis
] def
%%EndResource
%FOPBeginFontReencode
/Courier-Bold findfont
dup length dict begin
  {1 index /FID ne {def} {pop pop} ifelse} forall
  /Encoding WinAnsiEncoding def
  currentdict
end
/Courier-Bold exch definefont pop
/Helvetica findfont
dup length dict begin
  {1 index /FID ne {def} {pop pop} ifelse} forall
  /Encoding WinAnsiEncoding def
  currentdict
end
/Helvetica exch definefont pop
/Courier-BoldOblique findfont
dup length dict begin
  {1 index /FID ne {def} {pop pop} ifelse} forall
  /Encoding WinAnsiEncoding def
  currentdict
end
/Courier-BoldOblique exch definefont pop
/Courier-Oblique findfont
dup length dict begin
  {1 index /FID ne {def} {pop pop} ifelse} forall
  /Encoding WinAnsiEncoding def
  currentdict
end
/Courier-Oblique exch definefont pop
/Times-Roman findfont
dup length dict begin
  {1 index /FID ne {def} {pop pop} ifelse} forall
  /Encoding WinAnsiEncoding def
  currentdict
end
/Times-Roman exch definefont pop
/Helvetica-BoldOblique findfont
dup length dict begin
  {1 index /FID ne {def} {pop pop} ifelse} forall
  /Encoding WinAnsiEncoding def
  currentdict
end
/Helvetica-BoldOblique exch definefont pop
/Helvetica-Bold findfont
dup length dict begin
  {1 index /FID ne {def} {pop pop} ifelse} forall
  /Encoding WinAnsiEncoding def
  currentdict
end
/Helvetica-Bold exch definefont pop
/Helvetica-Oblique findfont
dup length dict begin
  {1 index /FID ne {def} {pop pop} ifelse} forall
  /Encoding WinAnsiEncoding def
  currentdict
end
/Helvetica-Oblique exch definefont pop
/Times-BoldItalic findfont
dup length dict begin
  {1 index /FID ne {def} {pop pop} ifelse} forall
  /Encoding WinAnsiEncoding def
  currentdict
end
/Times-BoldItalic exch definefont pop
/Courier findfont
dup length dict begin
  {1 index /FID ne {def} {pop pop} ifelse} forall
  /Encoding WinAnsiEncoding def
  currentdict
end
/Courier exch definefont pop
/Times-Italic findfont
dup length dict begin
  {1 index /FID ne {def} {pop pop} ifelse} forall
  /Encoding WinAnsiEncoding def
  currentdict
end
/Times-Italic exch definefont pop
/Times-Bold findfont
dup length dict begin
  {1 index /FID ne {def} {pop pop} ifelse} forall
  /Encoding WinAnsiEncoding def
  currentdict
end
/Times-Bold exch definefont pop
%FOPEndFontReencode
%%EndProlog
%%Page: 1 1
%%PageBoundingBox: 0 0 420 200
%%BeginPageSetup
[1 0 0 -1 0 200] CT
%%EndPageSetup
GS
[0.75 0 0 0.75 0 -0.25] CT
N
0 0 M
560 0 L
560 267 L
0 267 L
0 0 L
cp
clip
1 GC
N
0 0 560 267 re
f
GR
GS
[0.75 0 0 0.75 0 -0.25] CT
1 GC
N
0 0 560 267 re
f
GR
GS
[0.75 0 0 0.75 0 -0.25] CT
1 GC
N
73 219 M
507 219 L
507 20 L
73 20 L
cp
f
GR
GS
[0.75 0 0 0.75 0 -0.25] CT
0.873 GC
1 LJ
0.667 LW
N
73 219 M
73 20 L
S
GR
GS
[0.75 0 0 0.75 0 -0.25] CT
0.873 GC
1 LJ
0.667 LW
N
135 219 M
135 20 L
S
GR
GS
[0.75 0 0 0.75 0 -0.25] CT
0.873 GC
1 LJ
0.667 LW
N
197 219 M
197 20 L
S
GR
GS
[0.75 0 0 0.75 0 -0.25] CT
0.873 GC
1 LJ
0.667 LW
N
259 219 M
259 20 L
S
GR
GS
[0.75 0 0 0.75 0 -0.25] CT
0.873 GC
1 LJ
0.667 LW
N
321 219 M
321 20 L
S
GR
GS
[0.75 0 0 0.75 0 -0.25] CT
0.873 GC
1 LJ
0.667 LW
N
383 219 M
383 20 L
S
GR
GS
[0.75 0 0 0.75 0 -0.25] CT
0.873 GC
1 LJ
0.667 LW
N
445 219 M
445 20 L
S
GR
GS
[0.75 0 0 0.75 0 -0.25] CT
0.873 GC
1 LJ
0.667 LW
N
507 219 M
507 20 L
S
GR
GS
[0.75 0 0 0.75 0 -0.25] CT
0.873 GC
1 LJ
0.667 LW
N
507 219 M
73 219 L
S
GR
GS
[0.75 0 0 0.75 0 -0.25] CT
0.873 GC
1 LJ
0.667 LW
N
507 169.25 M
73 169.25 L
S
GR
GS
[0.75 0 0 0.75 0 -0.25] CT
0.873 GC
1 LJ
0.667 LW
N
507 119.5 M
73 119.5 L
S
GR
GS
[0.75 0 0 0.75 0 -0.25] CT
0.873 GC
1 LJ
0.667 LW
N
507 69.75 M
73 69.75 L
S
GR
GS
[0.75 0 0 0.75 0 -0.25] CT
0.873 GC
1 LJ
0.667 LW
N
507 20 M
73 20 L
S
GR
GS
[0.75 0 0 0.75 0 -0.25] CT
0.149 GC
2 setlinecap
1 LJ
0.667 LW
N
73 219 M
507 219 L
S
GR
GS
[0.75 0 0 0.75 0 -0.25] CT
0.149 GC
2 setlinecap
1 LJ
0.667 LW
N
73 219 M
73 214.66 L
S
GR
GS
[0.75 0 0 0.75 0 -0.25] CT
0.149 GC
2 setlinecap
1 LJ
0.667 LW
N
135 219 M
135 214.66 L
S
GR
GS
[0.75 0 0 0.75 0 -0.25] CT
0.149 GC
2 setlinecap
1 LJ
0.667 LW
N
197 219 M
197 214.66 L
S
GR
GS
[0.75 0 0 0.75 0 -0.25] CT
0.149 GC
2 setlinecap
1 LJ
0.667 LW
N
259 219 M
259 214.66 L
S
GR
GS
[0.75 0 0 0.75 0 -0.25] CT
0.149 GC
2 setlinecap
1 LJ
0.667 LW
N
321 219 M
321 214.66 L
S
GR
GS
[0.75 0 0 0.75 0 -0.25] CT
0.149 GC
2 setlinecap
1 LJ
0.667 LW
N
383 219 M
383 214.66 L
S
GR
GS
[0.75 0 0 0.75 0 -0.25] CT
0.149 GC
2 setlinecap
1 LJ
0.667 LW
N
445 219 M
445 214.66 L
S
GR
GS
[0.75 0 0 0.75 0 -0.25] CT
0.149 GC
2 setlinecap
1 LJ
0.667 LW
N
507 219 M
507 214.66 L
S
GR
GS
[0.75 0 0 0.75 54.75 168.4] CT
0.149 GC
/Helvetica 16 F
GS
[1 0 0 1 0 0] CT
-5.5 15 moveto 
1 -1 scale
(2) t 
GR
GR
GS
[0.75 0 0 0.75 101.25 168.4] CT
0.149 GC
/Helvetica 16 F
GS
[1 0 0 1 0 0] CT
-5.5 15 moveto 
1 -1 scale
(4) t 
GR
GR
GS
[0.75 0 0 0.75 147.75 168.4] CT
0.149 GC
/Helvetica 16 F
GS
[1 0 0 1 0 0] CT
-5.5 15 moveto 
1 -1 scale
(6) t 
GR
GR
GS
[0.75 0 0 0.75 194.25 168.4] CT
0.149 GC
/Helvetica 16 F
GS
[1 0 0 1 0 0] CT
-5.5 15 moveto 
1 -1 scale
(8) t 
GR
GR
GS
[0.75 0 0 0.75 240.75 168.4] CT
0.149 GC
/Helvetica 16 F
GS
[1 0 0 1 0 0] CT
-10.5 15 moveto 
1 -1 scale
(10) t 
GR
GR
GS
[0.75 0 0 0.75 287.25 168.4] CT
0.149 GC
/Helvetica 16 F
GS
[1 0 0 1 0 0] CT
-10.5 15 moveto 
1 -1 scale
(12) t 
GR
GR
GS
[0.75 0 0 0.75 333.75 168.4] CT
0.149 GC
/Helvetica 16 F
GS
[1 0 0 1 0 0] CT
-10.5 15 moveto 
1 -1 scale
(14) t 
GR
GR
GS
[0.75 0 0 0.75 380.25 168.4] CT
0.149 GC
/Helvetica 16 F
GS
[1 0 0 1 0 0] CT
-10.5 15 moveto 
1 -1 scale
(16) t 
GR
GR
GS
[0.75 0 0 0.75 217.50016 184.4] CT
0.149 GC
N
-71.928 14.784 M
-71.928 13.862 L
-69.991 13.862 L
-69.991 3.362 L
-71.928 3.362 L
-71.928 2.44 L
-61.038 2.44 L
-60.491 6.846 L
-61.397 6.846 L
-61.585 5.409 -61.944 4.69 QT
-62.303 3.971 -63.061 3.667 QT
-63.819 3.362 -65.241 3.362 QT
-67.35 3.362 L
-67.35 8.143 L
-66.678 8.143 L
-65.835 8.143 -65.405 7.948 QT
-64.975 7.753 -64.827 7.315 QT
-64.678 6.878 -64.678 6.034 QT
-63.756 6.034 L
-63.756 11.159 L
-64.678 11.159 L
-64.678 10.331 -64.827 9.893 QT
-64.975 9.456 -65.405 9.26 QT
-65.835 9.065 -66.678 9.065 QT
-67.35 9.065 L
-67.35 13.862 L
-64.928 13.862 L
-64.928 14.784 L
-71.928 14.784 L
cp
f
GR
GS
[0.75 0 0 0.75 217.50016 184.4] CT
0.149 GC
N
-60.942 14.784 M
-60.942 13.862 L
-59.708 13.862 L
-59.708 8.253 L
-59.708 7.737 -60.942 7.737 QT
-60.942 6.831 L
-57.895 6.675 L
-57.895 8.518 L
-57.567 7.706 -56.997 7.19 QT
-56.426 6.675 -55.629 6.675 QT
-54.848 6.675 -54.239 7.073 QT
-53.629 7.471 -53.629 8.19 QT
-53.629 8.659 -53.958 8.995 QT
-54.286 9.331 -54.754 9.331 QT
-55.239 9.331 -55.567 8.995 QT
-55.895 8.659 -55.895 8.19 QT
-55.895 7.721 -55.598 7.393 QT
-56.364 7.393 -56.84 7.948 QT
-57.317 8.503 -57.504 9.292 QT
-57.692 10.081 -57.692 10.8 QT
-57.692 13.862 L
-56.129 13.862 L
-56.129 14.784 L
-60.942 14.784 L
cp
f
GR
GS
[0.75 0 0 0.75 217.50016 184.4] CT
0.149 GC
N
-52.669 12.768 M
-52.669 11.925 -52.052 11.362 QT
-51.435 10.8 -50.528 10.503 QT
-49.622 10.206 -48.63 10.089 QT
-47.638 9.971 -46.856 9.971 QT
-46.856 9.315 L
-46.856 8.44 -47.341 7.893 QT
-47.825 7.346 -48.669 7.346 QT
-49.513 7.346 -50.044 7.456 QT
-49.653 7.784 -49.653 8.331 QT
-49.653 8.831 -49.989 9.159 QT
-50.325 9.487 -50.825 9.487 QT
-51.325 9.487 -51.661 9.143 QT
-51.997 8.8 -51.997 8.331 QT
-51.997 7.253 -51.013 6.94 QT
-50.028 6.628 -48.653 6.628 QT
-47.966 6.628 -47.294 6.76 QT
-46.622 6.893 -46.036 7.206 QT
-45.45 7.518 -45.091 8.018 QT
-44.731 8.518 -44.731 9.253 QT
-44.731 13.425 L
-44.731 13.862 -43.497 13.862 QT
-43.247 13.925 -43.2 14.143 QT
-43.2 14.487 L
-43.247 14.737 -43.497 14.784 QT
-44.731 14.784 L
-45.419 14.784 -45.981 14.542 QT
-46.544 14.3 -46.544 13.706 QT
-46.544 13.487 L
-46.935 14.175 -47.653 14.534 QT
-48.372 14.893 -49.2 14.893 QT
-50.528 14.893 -51.599 14.409 QT
-52.669 13.925 -52.669 12.768 QT
cp
-50.497 12.768 M
-50.497 13.362 -50.028 13.768 QT
-49.56 14.175 -48.95 14.175 QT
-48.435 14.175 -47.95 13.964 QT
-47.466 13.753 -47.161 13.346 QT
-46.856 12.94 -46.856 12.425 QT
-46.856 10.612 L
-47.638 10.612 -48.466 10.823 QT
-49.294 11.034 -49.895 11.518 QT
-50.497 12.003 -50.497 12.768 QT
cp
f
GR
GS
[0.75 0 0 0.75 217.50016 184.4] CT
0.149 GC
N
-42.721 10.784 M
-42.721 9.503 -42.135 8.55 QT
-41.549 7.596 -40.525 7.112 QT
-39.502 6.628 -38.236 6.628 QT
-36.955 6.628 -35.994 6.964 QT
-35.033 7.3 -35.033 8.331 QT
-35.033 8.831 -35.361 9.159 QT
-35.689 9.487 -36.189 9.487 QT
-36.689 9.487 -37.025 9.159 QT
-37.361 8.831 -37.361 8.331 QT
-37.361 7.768 -37.033 7.503 QT
-37.518 7.425 -38.221 7.425 QT
-39.111 7.425 -39.58 7.917 QT
-40.049 8.409 -40.197 9.143 QT
-40.346 9.878 -40.346 10.768 QT
-40.346 14.096 -37.83 14.096 QT
-37.33 14.096 -36.908 13.925 QT
-36.486 13.753 -36.166 13.401 QT
-35.846 13.05 -35.705 12.565 QT
-35.627 12.456 -35.486 12.425 QT
-35.018 12.425 L
-34.799 12.487 -34.799 12.675 QT
-34.799 12.69 -34.814 12.768 QT
-35.049 13.487 -35.564 13.964 QT
-36.08 14.44 -36.775 14.667 QT
-37.471 14.893 -38.236 14.893 QT
-39.486 14.893 -40.51 14.409 QT
-41.533 13.925 -42.127 12.995 QT
-42.721 12.065 -42.721 10.784 QT
cp
f
GR
GS
[0.75 0 0 0.75 217.50016 184.4] CT
0.149 GC
N
-32.6 12.675 M
-32.6 7.706 L
-34.038 7.706 L
-34.038 6.987 L
-33.381 6.987 -32.866 6.659 QT
-32.35 6.331 -32.03 5.8 QT
-31.71 5.268 -31.546 4.628 QT
-31.381 3.987 -31.381 3.362 QT
-30.46 3.362 L
-30.46 6.8 L
-27.881 6.8 L
-27.881 7.706 L
-30.46 7.706 L
-30.46 12.628 L
-30.46 13.268 -30.249 13.682 QT
-30.038 14.096 -29.46 14.096 QT
-28.975 14.096 -28.717 13.635 QT
-28.46 13.175 -28.46 12.628 QT
-28.46 11.596 L
-27.538 11.596 L
-27.538 12.675 L
-27.538 13.253 -27.827 13.768 QT
-28.116 14.284 -28.608 14.589 QT
-29.1 14.893 -29.678 14.893 QT
-30.928 14.893 -31.764 14.378 QT
-32.6 13.862 -32.6 12.675 QT
cp
f
GR
GS
[0.75 0 0 0.75 217.50016 184.4] CT
0.149 GC
N
-25.729 14.784 M
-25.729 13.862 L
-24.495 13.862 L
-24.495 8.253 L
-24.495 7.909 -24.823 7.823 QT
-25.151 7.737 -25.682 7.737 QT
-25.682 6.831 L
-22.479 6.675 L
-22.479 13.862 L
-21.339 13.862 L
-21.339 14.784 L
-25.729 14.784 L
cp
-25.167 3.706 M
-25.167 3.096 -24.753 2.69 QT
-24.339 2.284 -23.745 2.284 QT
-23.12 2.284 -22.706 2.69 QT
-22.292 3.096 -22.292 3.706 QT
-22.292 4.3 -22.706 4.721 QT
-23.12 5.143 -23.745 5.143 QT
-24.339 5.143 -24.753 4.721 QT
-25.167 4.3 -25.167 3.706 QT
cp
f
GR
GS
[0.75 0 0 0.75 217.50016 184.4] CT
0.149 GC
N
-20.341 10.862 M
-20.341 9.534 -19.74 8.581 QT
-19.138 7.628 -18.091 7.128 QT
-17.044 6.628 -15.748 6.628 QT
-14.779 6.628 -13.943 6.909 QT
-13.107 7.19 -12.474 7.737 QT
-11.841 8.284 -11.505 9.073 QT
-11.169 9.862 -11.169 10.862 QT
-11.169 11.846 -11.529 12.604 QT
-11.888 13.362 -12.521 13.87 QT
-13.154 14.378 -13.99 14.635 QT
-14.826 14.893 -15.748 14.893 QT
-16.669 14.893 -17.505 14.635 QT
-18.341 14.378 -18.982 13.87 QT
-19.623 13.362 -19.982 12.604 QT
-20.341 11.846 -20.341 10.862 QT
cp
-15.748 14.096 M
-14.716 14.096 -14.24 13.62 QT
-13.763 13.143 -13.646 12.448 QT
-13.529 11.753 -13.529 10.628 QT
-13.529 9.784 -13.591 9.268 QT
-13.654 8.753 -13.857 8.315 QT
-14.06 7.878 -14.513 7.612 QT
-14.966 7.346 -15.748 7.346 QT
-16.529 7.346 -16.982 7.612 QT
-17.435 7.878 -17.646 8.323 QT
-17.857 8.768 -17.912 9.331 QT
-17.966 9.893 -17.966 10.628 QT
-17.966 11.753 -17.857 12.448 QT
-17.748 13.143 -17.263 13.62 QT
-16.779 14.096 -15.748 14.096 QT
cp
f
GR
GS
[0.75 0 0 0.75 217.50016 184.4] CT
0.149 GC
N
-10.018 14.784 M
-10.018 13.862 L
-8.784 13.862 L
-8.784 8.253 L
-8.784 7.737 -10.018 7.737 QT
-10.018 6.831 L
-6.846 6.675 L
-6.846 8.518 L
-6.409 7.659 -5.581 7.167 QT
-4.753 6.675 -3.8 6.675 QT
-2.378 6.675 -1.659 7.26 QT
-0.94 7.846 -0.94 9.253 QT
-0.94 13.862 L
0.31 13.862 L
0.31 14.784 L
-4.3 14.784 L
-4.3 13.862 L
-3.05 13.862 L
-3.05 9.315 L
-3.05 8.487 -3.214 7.94 QT
-3.378 7.393 -4.018 7.393 QT
-4.737 7.393 -5.346 7.768 QT
-5.956 8.143 -6.307 8.768 QT
-6.659 9.393 -6.659 10.081 QT
-6.659 13.862 L
-5.425 13.862 L
-5.425 14.784 L
-10.018 14.784 L
cp
f
GR
GS
[0.75 0 0 0.75 217.50016 184.4] CT
0.149 GC
N
1.023 12.768 M
1.023 11.925 1.64 11.362 QT
2.257 10.8 3.164 10.503 QT
4.07 10.206 5.062 10.089 QT
6.054 9.971 6.835 9.971 QT
6.835 9.315 L
6.835 8.44 6.351 7.893 QT
5.867 7.346 5.023 7.346 QT
4.179 7.346 3.648 7.456 QT
4.039 7.784 4.039 8.331 QT
4.039 8.831 3.703 9.159 QT
3.367 9.487 2.867 9.487 QT
2.367 9.487 2.031 9.143 QT
1.695 8.8 1.695 8.331 QT
1.695 7.253 2.679 6.94 QT
3.664 6.628 5.039 6.628 QT
5.726 6.628 6.398 6.76 QT
7.07 6.893 7.656 7.206 QT
8.242 7.518 8.601 8.018 QT
8.96 8.518 8.96 9.253 QT
8.96 13.425 L
8.96 13.862 10.195 13.862 QT
10.445 13.925 10.492 14.143 QT
10.492 14.487 L
10.445 14.737 10.195 14.784 QT
8.96 14.784 L
8.273 14.784 7.71 14.542 QT
7.148 14.3 7.148 13.706 QT
7.148 13.487 L
6.757 14.175 6.039 14.534 QT
5.32 14.893 4.492 14.893 QT
3.164 14.893 2.093 14.409 QT
1.023 13.925 1.023 12.768 QT
cp
3.195 12.768 M
3.195 13.362 3.664 13.768 QT
4.132 14.175 4.742 14.175 QT
5.257 14.175 5.742 13.964 QT
6.226 13.753 6.531 13.346 QT
6.835 12.94 6.835 12.425 QT
6.835 10.612 L
6.054 10.612 5.226 10.823 QT
4.398 11.034 3.796 11.518 QT
3.195 12.003 3.195 12.768 QT
cp
f
GR
GS
[0.75 0 0 0.75 217.50016 184.4] CT
0.149 GC
N
11.096 14.784 M
11.096 13.862 L
12.331 13.862 L
12.331 3.862 L
12.331 3.518 11.979 3.44 QT
11.627 3.362 11.096 3.362 QT
11.096 2.44 L
14.346 2.3 L
14.346 13.862 L
15.596 13.862 L
15.596 14.784 L
11.096 14.784 L
cp
f
GR
GS
[0.75 0 0 0.75 217.50016 184.4] CT
0.149 GC
N
24.527 14.784 M
24.527 3.862 L
24.527 3.518 24.176 3.44 QT
23.824 3.362 23.293 3.362 QT
23.293 2.44 L
26.543 2.3 L
26.543 7.518 L
27.668 6.675 29.199 6.675 QT
30.137 6.675 30.918 6.964 QT
31.699 7.253 32.262 7.792 QT
32.824 8.331 33.137 9.096 QT
33.449 9.862 33.449 10.784 QT
33.449 12.05 32.848 12.987 QT
32.246 13.925 31.223 14.409 QT
30.199 14.893 28.934 14.893 QT
28.184 14.893 27.496 14.596 QT
26.809 14.3 26.309 13.784 QT
25.434 14.784 L
24.527 14.784 L
cp
26.652 12.971 M
26.996 13.518 27.551 13.846 QT
28.106 14.175 28.731 14.175 QT
30.168 14.175 30.621 13.268 QT
31.074 12.362 31.074 10.8 QT
31.074 10.753 L
31.074 10.065 31.012 9.495 QT
30.949 8.925 30.746 8.456 QT
30.543 7.987 30.113 7.69 QT
29.684 7.393 28.965 7.393 QT
28.277 7.393 27.676 7.682 QT
27.074 7.971 26.652 8.503 QT
26.652 12.971 L
cp
f
GR
GS
[0.75 0 0 0.75 217.50016 184.4] CT
0.149 GC
N
34.709 14.784 M
34.709 13.862 L
35.944 13.862 L
35.944 8.253 L
35.944 7.909 35.616 7.823 QT
35.287 7.737 34.756 7.737 QT
34.756 6.831 L
37.959 6.675 L
37.959 13.862 L
39.1 13.862 L
39.1 14.784 L
34.709 14.784 L
cp
35.272 3.706 M
35.272 3.096 35.686 2.69 QT
36.1 2.284 36.694 2.284 QT
37.319 2.284 37.733 2.69 QT
38.147 3.096 38.147 3.706 QT
38.147 4.3 37.733 4.721 QT
37.319 5.143 36.694 5.143 QT
36.1 5.143 35.686 4.721 QT
35.272 4.3 35.272 3.706 QT
cp
f
GR
GS
[0.75 0 0 0.75 217.50016 184.4] CT
0.149 GC
N
41.332 12.675 M
41.332 7.706 L
39.894 7.706 L
39.894 6.987 L
40.55 6.987 41.066 6.659 QT
41.582 6.331 41.902 5.8 QT
42.222 5.268 42.386 4.628 QT
42.55 3.987 42.55 3.362 QT
43.472 3.362 L
43.472 6.8 L
46.05 6.8 L
46.05 7.706 L
43.472 7.706 L
43.472 12.628 L
43.472 13.268 43.683 13.682 QT
43.894 14.096 44.472 14.096 QT
44.957 14.096 45.214 13.635 QT
45.472 13.175 45.472 12.628 QT
45.472 11.596 L
46.394 11.596 L
46.394 12.675 L
46.394 13.253 46.105 13.768 QT
45.816 14.284 45.324 14.589 QT
44.832 14.893 44.253 14.893 QT
43.003 14.893 42.167 14.378 QT
41.332 13.862 41.332 12.675 QT
cp
f
GR
GS
[0.75 0 0 0.75 217.50016 184.4] CT
0.149 GC
N
48.078 14.659 M
48.078 12.159 L
48.125 11.987 48.312 11.94 QT
48.781 11.94 L
48.953 11.987 48.968 12.081 QT
49.125 12.706 49.46 13.19 QT
49.796 13.675 50.296 13.925 QT
50.796 14.175 51.484 14.175 QT
53.515 14.175 53.515 12.862 QT
53.515 12.503 53.281 12.237 QT
53.046 11.971 52.695 11.815 QT
52.343 11.659 52.015 11.596 QT
50.671 11.362 L
50 11.237 49.421 10.956 QT
48.843 10.675 48.46 10.182 QT
48.078 9.69 48.078 9.034 QT
48.078 8.331 48.375 7.846 QT
48.671 7.362 49.148 7.104 QT
49.625 6.846 50.21 6.737 QT
50.796 6.628 51.484 6.628 QT
52.531 6.628 53.187 6.971 QT
53.828 6.643 L
53.906 6.628 L
54.125 6.628 L
54.281 6.675 54.343 6.846 QT
54.343 8.831 L
54.281 9.018 54.125 9.065 QT
53.656 9.065 L
53.468 9.018 53.421 8.831 QT
53.421 8.018 52.859 7.651 QT
52.296 7.284 51.437 7.284 QT
49.421 7.284 49.421 8.362 QT
49.421 9.112 50.828 9.409 QT
52.203 9.628 L
52.859 9.737 53.476 10.089 QT
54.093 10.44 54.476 10.987 QT
54.859 11.534 54.859 12.221 QT
54.859 13.19 54.398 13.792 QT
53.937 14.393 53.171 14.643 QT
52.406 14.893 51.484 14.893 QT
50.281 14.893 49.437 14.331 QT
48.578 14.878 L
48.5 14.893 L
48.312 14.893 L
48.125 14.846 48.078 14.659 QT
cp
f
GR
GS
[0.75 0 0 0.75 217.50016 184.4] CT
0.149 GC
N
63.87 17.753 M
64.198 18.003 64.683 18.003 QT
65.323 18.003 65.73 16.581 QT
65.886 15.893 66.636 12.065 QT
67.464 7.659 L
65.917 7.659 L
65.745 7.659 65.745 7.425 QT
65.808 7.018 65.964 7.018 QT
67.573 7.018 L
67.792 5.846 L
67.901 5.315 67.987 4.925 QT
68.073 4.534 68.175 4.198 QT
68.276 3.862 68.48 3.44 QT
68.776 2.862 69.3 2.479 QT
69.823 2.096 70.433 2.096 QT
70.823 2.096 71.198 2.237 QT
71.573 2.378 71.816 2.667 QT
72.058 2.956 72.058 3.362 QT
72.058 3.815 71.753 4.151 QT
71.448 4.487 71.011 4.487 QT
70.73 4.487 70.519 4.307 QT
70.308 4.128 70.308 3.846 QT
70.308 3.44 70.581 3.151 QT
70.855 2.862 71.245 2.815 QT
70.917 2.565 70.417 2.565 QT
70.151 2.565 69.909 2.815 QT
69.667 3.065 69.589 3.362 QT
69.48 3.815 69.089 5.831 QT
68.87 7.018 L
70.73 7.018 L
70.901 7.018 70.901 7.253 QT
70.886 7.3 70.862 7.409 QT
70.839 7.518 70.792 7.589 QT
70.745 7.659 70.667 7.659 QT
68.745 7.659 L
67.917 12.05 L
67.761 13.003 67.55 13.995 QT
67.339 14.987 66.964 16.026 QT
66.589 17.065 66.011 17.768 QT
65.433 18.471 64.636 18.471 QT
64.042 18.471 63.558 18.128 QT
63.073 17.784 63.073 17.206 QT
63.073 16.753 63.37 16.417 QT
63.667 16.081 64.12 16.081 QT
64.417 16.081 64.62 16.26 QT
64.823 16.44 64.823 16.721 QT
64.823 17.112 64.534 17.432 QT
64.245 17.753 63.87 17.753 QT
cp
f
GR
GS
[0.75 0 0 0.75 0 -0.25] CT
0.149 GC
2 setlinecap
1 LJ
0.667 LW
N
73 219 M
73 20 L
S
GR
GS
[0.75 0 0 0.75 0 -0.25] CT
0.149 GC
2 setlinecap
1 LJ
0.667 LW
N
73 219 M
77.34 219 L
S
GR
GS
[0.75 0 0 0.75 0 -0.25] CT
0.149 GC
2 setlinecap
1 LJ
0.667 LW
N
73 169.25 M
77.34 169.25 L
S
GR
GS
[0.75 0 0 0.75 0 -0.25] CT
0.149 GC
2 setlinecap
1 LJ
0.667 LW
N
73 119.5 M
77.34 119.5 L
S
GR
GS
[0.75 0 0 0.75 0 -0.25] CT
0.149 GC
2 setlinecap
1 LJ
0.667 LW
N
73 69.75 M
77.34 69.75 L
S
GR
GS
[0.75 0 0 0.75 0 -0.25] CT
0.149 GC
2 setlinecap
1 LJ
0.667 LW
N
73 20 M
77.34 20 L
S
GR
GS
[0.75 0 0 0.75 50.35 164] CT
0.149 GC
/Helvetica 16 F
GS
[1 0 0 1 0 0] CT
-11 5.5 moveto 
1 -1 scale
(0) t 
GR
GR
GS
[0.75 0 0 0.75 50.35 126.6875] CT
0.149 GC
/Helvetica 16 F
GS
[1 0 0 1 0 0] CT
-26 5.5 moveto 
1 -1 scale
(0.5) t 
GR
GR
GS
[0.75 0 0 0.75 50.35 89.375] CT
0.149 GC
/Helvetica 16 F
GS
[1 0 0 1 0 0] CT
-11 5.5 moveto 
1 -1 scale
(1) t 
GR
GR
GS
[0.75 0 0 0.75 50.35 52.0625] CT
0.149 GC
/Helvetica 16 F
GS
[1 0 0 1 0 0] CT
-26 5.5 moveto 
1 -1 scale
(1.5) t 
GR
GR
GS
[0.75 0 0 0.75 50.35 14.75] CT
0.149 GC
/Helvetica 16 F
GS
[1 0 0 1 0 0] CT
-11 5.5 moveto 
1 -1 scale
(2) t 
GR
GR
GS
[0 -0.75 0.75 0 27.85 89.37493] CT
0.149 GC
N
-31.711 -6.649 M
-31.711 -6.914 -31.477 -7.149 QT
-26.414 -12.117 L
-28.196 -17.117 L
-28.414 -17.695 -28.649 -18.031 QT
-28.883 -18.367 -29.321 -18.367 QT
-29.524 -18.367 -29.524 -18.602 QT
-29.508 -18.695 -29.438 -18.758 QT
-29.367 -18.82 -29.242 -18.82 QT
-27.352 -18.82 -26.961 -17.711 QT
-23.305 -7.508 L
-23.071 -6.742 -22.821 -6.477 QT
-22.742 -6.352 -22.742 -6.305 QT
-22.742 -6.133 -22.883 -6.133 QT
-23.852 -6.133 L
-24.305 -6.258 -24.571 -6.914 QT
-26.211 -11.524 L
-30.555 -6.414 L
-30.883 -6.102 -31.133 -6.102 QT
-31.367 -6.102 -31.539 -6.258 QT
-31.711 -6.414 -31.711 -6.649 QT
cp
f
GR
GS
[0 -0.75 0.75 0 27.85 89.37493] CT
0.149 GC
N
-21.444 -3.899 M
-21.444 -3.977 -21.429 -4.009 QT
-20.538 -7.587 L
-20.444 -7.915 -20.444 -8.18 QT
-20.444 -8.696 -20.788 -8.696 QT
-21.163 -8.696 -21.351 -8.243 QT
-21.538 -7.79 -21.71 -7.102 QT
-21.71 -7.071 -21.741 -7.048 QT
-21.773 -7.024 -21.804 -7.024 QT
-21.944 -7.024 L
-21.991 -7.024 -22.015 -7.071 QT
-22.038 -7.118 -22.038 -7.149 QT
-21.913 -7.68 -21.796 -8.04 QT
-21.679 -8.399 -21.421 -8.696 QT
-21.163 -8.993 -20.788 -8.993 QT
-20.335 -8.993 -19.991 -8.712 QT
-19.648 -8.43 -19.648 -7.993 QT
-19.288 -8.462 -18.804 -8.727 QT
-18.319 -8.993 -17.788 -8.993 QT
-17.21 -8.993 -16.796 -8.704 QT
-16.382 -8.415 -16.382 -7.884 QT
-16.023 -8.415 -15.523 -8.704 QT
-15.023 -8.993 -14.444 -8.993 QT
-13.819 -8.993 -13.444 -8.657 QT
-13.069 -8.321 -13.069 -7.712 QT
-13.069 -7.212 -13.288 -6.516 QT
-13.507 -5.821 -13.835 -4.962 QT
-14.007 -4.54 -14.007 -4.243 QT
-14.007 -3.884 -13.726 -3.884 QT
-13.257 -3.884 -12.944 -4.384 QT
-12.632 -4.884 -12.507 -5.462 QT
-12.476 -5.524 -12.398 -5.524 QT
-12.257 -5.524 L
-12.21 -5.524 -12.179 -5.493 QT
-12.148 -5.462 -12.148 -5.43 QT
-12.148 -5.415 -12.163 -5.384 QT
-12.335 -4.712 -12.741 -4.134 QT
-13.148 -3.555 -13.757 -3.555 QT
-14.179 -3.555 -14.476 -3.852 QT
-14.773 -4.149 -14.773 -4.555 QT
-14.773 -4.774 -14.679 -5.024 QT
-14.335 -5.93 -14.109 -6.641 QT
-13.882 -7.352 -13.882 -7.884 QT
-13.882 -8.227 -14.015 -8.462 QT
-14.148 -8.696 -14.46 -8.696 QT
-15.116 -8.696 -15.601 -8.29 QT
-16.085 -7.884 -16.429 -7.227 QT
-16.46 -7.102 -16.476 -7.04 QT
-17.241 -3.962 L
-17.288 -3.79 -17.429 -3.673 QT
-17.569 -3.555 -17.741 -3.555 QT
-17.882 -3.555 -17.991 -3.649 QT
-18.101 -3.743 -18.101 -3.899 QT
-18.101 -3.977 -18.101 -4.009 QT
-17.319 -7.071 L
-17.21 -7.555 -17.21 -7.884 QT
-17.21 -8.227 -17.343 -8.462 QT
-17.476 -8.696 -17.804 -8.696 QT
-18.241 -8.696 -18.616 -8.501 QT
-18.991 -8.305 -19.265 -7.985 QT
-19.538 -7.665 -19.757 -7.227 QT
-20.585 -3.962 L
-20.616 -3.79 -20.765 -3.673 QT
-20.913 -3.555 -21.085 -3.555 QT
-21.226 -3.555 -21.335 -3.649 QT
-21.444 -3.743 -21.444 -3.899 QT
cp
f
GR
GS
[0 -0.75 0.75 0 27.85 89.37493] CT
0.149 GC
N
-9.455 -3.555 M
-10.221 -3.555 -10.659 -4.134 QT
-11.096 -4.712 -11.096 -5.477 QT
-11.096 -6.259 -10.698 -7.079 QT
-10.299 -7.899 -9.62 -8.446 QT
-8.94 -8.993 -8.159 -8.993 QT
-7.799 -8.993 -7.518 -8.805 QT
-7.237 -8.618 -7.08 -8.274 QT
-6.955 -8.759 -6.549 -8.759 QT
-6.409 -8.759 -6.307 -8.665 QT
-6.205 -8.571 -6.205 -8.43 QT
-6.205 -8.384 -6.205 -8.368 QT
-6.205 -8.352 -6.205 -8.337 QT
-7.049 -4.977 L
-7.127 -4.618 -7.127 -4.399 QT
-7.127 -3.884 -6.784 -3.884 QT
-6.409 -3.884 -6.213 -4.36 QT
-6.018 -4.837 -5.877 -5.462 QT
-5.862 -5.524 -5.784 -5.524 QT
-5.643 -5.524 L
-5.596 -5.524 -5.565 -5.485 QT
-5.534 -5.446 -5.534 -5.415 QT
-5.752 -4.571 -6.002 -4.063 QT
-6.252 -3.555 -6.815 -3.555 QT
-7.205 -3.555 -7.518 -3.798 QT
-7.83 -4.04 -7.909 -4.43 QT
-8.69 -3.555 -9.455 -3.555 QT
cp
-9.455 -3.884 M
-9.018 -3.884 -8.612 -4.204 QT
-8.205 -4.524 -7.909 -4.962 QT
-7.893 -4.977 -7.893 -5.009 QT
-7.252 -7.618 L
-7.237 -7.649 L
-7.315 -8.071 -7.549 -8.384 QT
-7.784 -8.696 -8.19 -8.696 QT
-8.596 -8.696 -8.948 -8.36 QT
-9.299 -8.024 -9.534 -7.571 QT
-9.768 -7.102 -9.979 -6.259 QT
-10.19 -5.415 -10.19 -4.962 QT
-10.19 -4.54 -10.01 -4.212 QT
-9.83 -3.884 -9.455 -3.884 QT
cp
f
GR
GS
[0 -0.75 0.75 0 27.85 89.37493] CT
0.149 GC
N
-4.1 -4.04 M
-3.881 -3.884 -3.506 -3.884 QT
-3.131 -3.884 -2.842 -4.243 QT
-2.553 -4.602 -2.443 -5.024 QT
-1.896 -7.149 L
-1.771 -7.727 -1.771 -7.946 QT
-1.771 -8.243 -1.935 -8.47 QT
-2.1 -8.696 -2.412 -8.696 QT
-2.787 -8.696 -3.123 -8.454 QT
-3.459 -8.212 -3.685 -7.845 QT
-3.912 -7.477 -4.006 -7.102 QT
-4.021 -7.024 -4.1 -7.024 QT
-4.24 -7.024 L
-4.334 -7.024 -4.334 -7.149 QT
-4.334 -7.18 L
-4.225 -7.618 -3.943 -8.048 QT
-3.662 -8.477 -3.256 -8.735 QT
-2.85 -8.993 -2.381 -8.993 QT
-1.943 -8.993 -1.592 -8.759 QT
-1.24 -8.524 -1.084 -8.134 QT
-0.881 -8.493 -0.56 -8.743 QT
-0.24 -8.993 0.135 -8.993 QT
0.4 -8.993 0.666 -8.907 QT
0.932 -8.821 1.104 -8.634 QT
1.275 -8.446 1.275 -8.165 QT
1.275 -7.852 1.08 -7.634 QT
0.885 -7.415 0.572 -7.415 QT
0.385 -7.415 0.252 -7.54 QT
0.119 -7.665 0.119 -7.852 QT
0.119 -8.102 0.299 -8.29 QT
0.479 -8.477 0.713 -8.524 QT
0.494 -8.696 0.119 -8.696 QT
-0.271 -8.696 -0.553 -8.337 QT
-0.834 -7.977 -0.959 -7.54 QT
-1.49 -5.415 L
-1.615 -4.93 -1.615 -4.618 QT
-1.615 -4.321 -1.443 -4.102 QT
-1.271 -3.884 -0.975 -3.884 QT
-0.412 -3.884 0.025 -4.376 QT
0.463 -4.868 0.604 -5.462 QT
0.635 -5.524 0.697 -5.524 QT
0.854 -5.524 L
0.9 -5.524 0.924 -5.493 QT
0.947 -5.462 0.947 -5.43 QT
0.947 -5.415 0.947 -5.384 QT
0.775 -4.68 0.229 -4.118 QT
-0.318 -3.555 -1.006 -3.555 QT
-1.443 -3.555 -1.795 -3.798 QT
-2.146 -4.04 -2.303 -4.446 QT
-2.49 -4.087 -2.818 -3.821 QT
-3.146 -3.555 -3.521 -3.555 QT
-3.787 -3.555 -4.06 -3.649 QT
-4.334 -3.743 -4.498 -3.93 QT
-4.662 -4.118 -4.662 -4.399 QT
-4.662 -4.68 -4.467 -4.915 QT
-4.271 -5.149 -3.975 -5.149 QT
-3.787 -5.149 -3.646 -5.032 QT
-3.506 -4.915 -3.506 -4.712 QT
-3.506 -4.462 -3.678 -4.274 QT
-3.85 -4.087 -4.1 -4.04 QT
cp
f
GR
GS
[0 -0.75 0.75 0 27.85 89.37493] CT
0.149 GC
N
8.462 -1.867 M
7.462 -2.664 6.736 -3.688 QT
6.009 -4.711 5.548 -5.867 QT
5.087 -7.024 4.861 -8.289 QT
4.634 -9.555 4.634 -10.836 QT
4.634 -12.133 4.861 -13.399 QT
5.087 -14.664 5.556 -15.828 QT
6.025 -16.992 6.759 -18.016 QT
7.494 -19.039 8.462 -19.805 QT
8.462 -19.836 8.556 -19.836 QT
8.728 -19.836 L
8.775 -19.836 8.822 -19.789 QT
8.869 -19.742 8.869 -19.68 QT
8.869 -19.602 8.822 -19.57 QT
7.947 -18.695 7.361 -17.711 QT
6.775 -16.727 6.423 -15.617 QT
6.072 -14.508 5.908 -13.32 QT
5.744 -12.133 5.744 -10.836 QT
5.744 -5.117 8.806 -2.149 QT
8.869 -2.086 8.869 -1.992 QT
8.869 -1.945 8.814 -1.891 QT
8.759 -1.836 8.728 -1.836 QT
8.556 -1.836 L
8.462 -1.836 8.462 -1.867 QT
cp
f
GR
GS
[0 -0.75 0.75 0 27.85 89.37493] CT
0.149 GC
N
16.758 -20.472 M
16.415 -20.847 L
18.836 -23.269 L
21.243 -20.847 L
20.883 -20.472 L
18.836 -22.269 L
16.758 -20.472 L
cp
f
GR
GS
[0 -0.75 0.75 0 27.85 89.37493] CT
0.149 GC
N
10.572 -6.336 M
10.401 -6.336 10.401 -6.57 QT
10.401 -6.617 10.432 -6.727 QT
10.463 -6.836 10.51 -6.906 QT
10.557 -6.977 10.619 -6.977 QT
11.729 -6.977 12.151 -7.086 QT
12.385 -7.164 12.494 -7.57 QT
14.963 -17.461 L
15.01 -17.633 15.01 -17.711 QT
15.01 -17.899 14.776 -17.93 QT
14.447 -17.992 13.494 -17.992 QT
13.322 -17.992 13.322 -18.242 QT
13.369 -18.461 13.408 -18.547 QT
13.447 -18.633 13.619 -18.633 QT
18.463 -18.633 L
18.635 -18.633 18.635 -18.399 QT
18.635 -18.352 18.604 -18.242 QT
18.572 -18.133 18.533 -18.063 QT
18.494 -17.992 18.401 -17.992 QT
17.307 -17.992 16.869 -17.883 QT
16.635 -17.789 16.526 -17.383 QT
15.447 -13.055 L
20.854 -13.055 L
21.947 -17.461 L
21.994 -17.633 21.994 -17.711 QT
21.994 -17.899 21.776 -17.93 QT
21.432 -17.992 20.479 -17.992 QT
20.291 -17.992 20.291 -18.242 QT
20.354 -18.461 20.393 -18.547 QT
20.432 -18.633 20.604 -18.633 QT
25.447 -18.633 L
25.619 -18.633 25.619 -18.399 QT
25.604 -18.352 25.58 -18.242 QT
25.557 -18.133 25.51 -18.063 QT
25.463 -17.992 25.385 -17.992 QT
24.291 -17.992 23.869 -17.883 QT
23.619 -17.805 23.526 -17.383 QT
21.057 -7.508 L
21.01 -7.336 21.01 -7.258 QT
21.01 -7.07 21.229 -7.039 QT
21.572 -6.977 22.526 -6.977 QT
22.713 -6.977 22.713 -6.727 QT
22.651 -6.524 22.604 -6.43 QT
22.557 -6.336 22.401 -6.336 QT
17.557 -6.336 L
17.369 -6.336 17.369 -6.57 QT
17.416 -6.711 17.432 -6.774 QT
17.447 -6.836 17.494 -6.906 QT
17.541 -6.977 17.619 -6.977 QT
18.713 -6.977 19.135 -7.086 QT
19.385 -7.164 19.479 -7.57 QT
20.682 -12.414 L
15.291 -12.414 L
14.072 -7.508 L
14.026 -7.289 14.026 -7.258 QT
14.026 -7.07 14.244 -7.039 QT
14.588 -6.977 15.541 -6.977 QT
15.729 -6.977 15.729 -6.727 QT
15.666 -6.492 15.627 -6.414 QT
15.588 -6.336 15.416 -6.336 QT
10.572 -6.336 L
cp
f
GR
GS
[0 -0.75 0.75 0 27.85 89.37493] CT
0.149 GC
N
26.96 -1.836 M
26.804 -1.836 26.804 -1.992 QT
26.804 -2.07 26.835 -2.102 QT
29.914 -5.117 29.914 -10.836 QT
29.914 -16.555 26.867 -19.524 QT
26.804 -19.57 26.804 -19.68 QT
26.804 -19.742 26.851 -19.789 QT
26.898 -19.836 26.96 -19.836 QT
27.132 -19.836 L
27.179 -19.836 27.21 -19.805 QT
28.507 -18.789 29.367 -17.328 QT
30.226 -15.867 30.625 -14.211 QT
31.023 -12.555 31.023 -10.836 QT
31.023 -9.555 30.812 -8.32 QT
30.601 -7.086 30.132 -5.891 QT
29.664 -4.695 28.937 -3.68 QT
28.21 -2.664 27.21 -1.867 QT
27.179 -1.836 27.132 -1.836 QT
26.96 -1.836 L
cp
f
GR
GS
[0.75 0 0 0.75 0 -0.25] CT
0 0 1 RC
[8 2 4 2] 0 setdash
2 LJ
2 LW
N
73 194.125 M
104 169.297 L
135 156.952 L
166 147.724 L
197 144.669 L
228 143.72 L
259 141.344 L
290 140.479 L
321 139.711 L
352 139.499 L
383 139.177 L
414 138.974 L
445 138.892 L
476 138.863 L
507 138.841 L
S
GR
GS
[0.75 0 0 0.75 54.75 145.34375] CT
0 0 1 RC
10.0 ML
2 LW
N
0 -4 M
0 4 L
-4 0 M
4 0 L
-2.828 -2.828 M
2.828 2.828 L
-2.828 2.828 M
2.828 -2.828 L
S
GR
GS
[0.75 0 0 0.75 78 126.72289] CT
0 0 1 RC
10.0 ML
2 LW
N
0 -4 M
0 4 L
-4 0 M
4 0 L
-2.828 -2.828 M
2.828 2.828 L
-2.828 2.828 M
2.828 -2.828 L
S
GR
GS
[0.75 0 0 0.75 101.25 117.46372] CT
0 0 1 RC
10.0 ML
2 LW
N
0 -4 M
0 4 L
-4 0 M
4 0 L
-2.828 -2.828 M
2.828 2.828 L
-2.828 2.828 M
2.828 -2.828 L
S
GR
GS
[0.75 0 0 0.75 124.5 110.54314] CT
0 0 1 RC
10.0 ML
2 LW
N
0 -4 M
0 4 L
-4 0 M
4 0 L
-2.828 -2.828 M
2.828 2.828 L
-2.828 2.828 M
2.828 -2.828 L
S
GR
GS
[0.75 0 0 0.75 147.75 108.25157] CT
0 0 1 RC
10.0 ML
2 LW
N
0 -4 M
0 4 L
-4 0 M
4 0 L
-2.828 -2.828 M
2.828 2.828 L
-2.828 2.828 M
2.828 -2.828 L
S
GR
GS
[0.75 0 0 0.75 171 107.54004] CT
0 0 1 RC
10.0 ML
2 LW
N
0 -4 M
0 4 L
-4 0 M
4 0 L
-2.828 -2.828 M
2.828 2.828 L
-2.828 2.828 M
2.828 -2.828 L
S
GR
GS
[0.75 0 0 0.75 194.25 105.75802] CT
0 0 1 RC
10.0 ML
2 LW
N
0 -4 M
0 4 L
-4 0 M
4 0 L
-2.828 -2.828 M
2.828 2.828 L
-2.828 2.828 M
2.828 -2.828 L
S
GR
GS
[0.75 0 0 0.75 217.5 105.10941] CT
0 0 1 RC
10.0 ML
2 LW
N
0 -4 M
0 4 L
-4 0 M
4 0 L
-2.828 -2.828 M
2.828 2.828 L
-2.828 2.828 M
2.828 -2.828 L
S
GR
GS
[0.75 0 0 0.75 240.75 104.5332] CT
0 0 1 RC
10.0 ML
2 LW
N
0 -4 M
0 4 L
-4 0 M
4 0 L
-2.828 -2.828 M
2.828 2.828 L
-2.828 2.828 M
2.828 -2.828 L
S
GR
GS
[0.75 0 0 0.75 264 104.3742] CT
0 0 1 RC
10.0 ML
2 LW
N
0 -4 M
0 4 L
-4 0 M
4 0 L
-2.828 -2.828 M
2.828 2.828 L
-2.828 2.828 M
2.828 -2.828 L
S
GR
GS
[0.75 0 0 0.75 287.25 104.13308] CT
0 0 1 RC
10.0 ML
2 LW
N
0 -4 M
0 4 L
-4 0 M
4 0 L
-2.828 -2.828 M
2.828 2.828 L
-2.828 2.828 M
2.828 -2.828 L
S
GR
GS
[0.75 0 0 0.75 310.5 103.98046] CT
0 0 1 RC
10.0 ML
2 LW
N
0 -4 M
0 4 L
-4 0 M
4 0 L
-2.828 -2.828 M
2.828 2.828 L
-2.828 2.828 M
2.828 -2.828 L
S
GR
GS
[0.75 0 0 0.75 333.75 103.91887] CT
0 0 1 RC
10.0 ML
2 LW
N
0 -4 M
0 4 L
-4 0 M
4 0 L
-2.828 -2.828 M
2.828 2.828 L
-2.828 2.828 M
2.828 -2.828 L
S
GR
GS
[0.75 0 0 0.75 357 103.89719] CT
0 0 1 RC
10.0 ML
2 LW
N
0 -4 M
0 4 L
-4 0 M
4 0 L
-2.828 -2.828 M
2.828 2.828 L
-2.828 2.828 M
2.828 -2.828 L
S
GR
GS
[0.75 0 0 0.75 380.25 103.88106] CT
0 0 1 RC
10.0 ML
2 LW
N
0 -4 M
0 4 L
-4 0 M
4 0 L
-2.828 -2.828 M
2.828 2.828 L
-2.828 2.828 M
2.828 -2.828 L
S
GR
GS
[0.75 0 0 0.75 0 -0.25] CT
1 0 0 RC
[8 2 4 2] 0 setdash
2 LJ
2 LW
N
73 144.469 M
104 144.606 L
135 138.496 L
166 141.549 L
197 142.631 L
228 138.941 L
259 139.602 L
290 138.941 L
321 139.286 L
352 138.855 L
383 138.77 L
414 138.81 L
445 138.834 L
476 138.82 L
507 138.81 L
S
GR
GS
[0.75 0 0 0.75 54.75 108.10202] CT
1 0 0 RC
10.0 ML
2 LW
N
-3 -3 M
-3 3 L
3 3 L
3 -3 L
cp
S
GR
GS
[0.75 0 0 0.75 78 108.20427] CT
1 0 0 RC
10.0 ML
2 LW
N
-3 -3 M
-3 3 L
3 3 L
3 -3 L
cp
S
GR
GS
[0.75 0 0 0.75 101.25 103.62215] CT
1 0 0 RC
10.0 ML
2 LW
N
-3 -3 M
-3 3 L
3 3 L
3 -3 L
cp
S
GR
GS
[0.75 0 0 0.75 124.5 105.91195] CT
1 0 0 RC
10.0 ML
2 LW
N
-3 -3 M
-3 3 L
3 3 L
3 -3 L
cp
S
GR
GS
[0.75 0 0 0.75 147.75 106.72352] CT
1 0 0 RC
10.0 ML
2 LW
N
-3 -3 M
-3 3 L
3 3 L
3 -3 L
cp
S
GR
GS
[0.75 0 0 0.75 171 103.95597] CT
1 0 0 RC
10.0 ML
2 LW
N
-3 -3 M
-3 3 L
3 3 L
3 -3 L
cp
S
GR
GS
[0.75 0 0 0.75 194.25 104.45122] CT
1 0 0 RC
10.0 ML
2 LW
N
-3 -3 M
-3 3 L
3 3 L
3 -3 L
cp
S
GR
GS
[0.75 0 0 0.75 217.5 103.95581] CT
1 0 0 RC
10.0 ML
2 LW
N
-3 -3 M
-3 3 L
3 3 L
3 -3 L
cp
S
GR
GS
[0.75 0 0 0.75 240.75 104.21457] CT
1 0 0 RC
10.0 ML
2 LW
N
-3 -3 M
-3 3 L
3 3 L
3 -3 L
cp
S
GR
GS
[0.75 0 0 0.75 264 103.89142] CT
1 0 0 RC
10.0 ML
2 LW
N
-3 -3 M
-3 3 L
3 3 L
3 -3 L
cp
S
GR
GS
[0.75 0 0 0.75 287.25 103.8278] CT
1 0 0 RC
10.0 ML
2 LW
N
-3 -3 M
-3 3 L
3 3 L
3 -3 L
cp
S
GR
GS
[0.75 0 0 0.75 310.5 103.8572] CT
1 0 0 RC
10.0 ML
2 LW
N
-3 -3 M
-3 3 L
3 3 L
3 -3 L
cp
S
GR
GS
[0.75 0 0 0.75 333.75 103.87549] CT
1 0 0 RC
10.0 ML
2 LW
N
-3 -3 M
-3 3 L
3 3 L
3 -3 L
cp
S
GR
GS
[0.75 0 0 0.75 357 103.86493] CT
1 0 0 RC
10.0 ML
2 LW
N
-3 -3 M
-3 3 L
3 3 L
3 -3 L
cp
S
GR
GS
[0.75 0 0 0.75 380.25 103.85768] CT
1 0 0 RC
10.0 ML
2 LW
N
-3 -3 M
-3 3 L
3 3 L
3 -3 L
cp
S
GR
GS
[0.75 0 0 0.75 0 -0.25] CT
0 1 0 RC
[8 2 4 2] 0 setdash
2 LJ
2 LW
N
161.844 19.976 M
166 42.886 L
197 120.04 L
228 131.523 L
259 135.3 L
290 137.465 L
321 138.208 L
352 138.748 L
383 138.802 L
414 138.786 L
445 138.798 L
476 138.816 L
507 138.818 L
S
GR
GS
[0.75 0 0 0.75 124.5 31.91438] CT
0 1 0 RC
10.0 ML
2 LW
N
0 -5.332 M
-4.618 2.666 L
4.618 2.666 L
cp
S
GR
GS
[0.75 0 0 0.75 147.75 89.77982] CT
0 1 0 RC
10.0 ML
2 LW
N
0 -5.332 M
-4.618 2.666 L
4.618 2.666 L
cp
S
GR
GS
[0.75 0 0 0.75 171 98.39242] CT
0 1 0 RC
10.0 ML
2 LW
N
0 -5.332 M
-4.618 2.666 L
4.618 2.666 L
cp
S
GR
GS
[0.75 0 0 0.75 194.25 101.22531] CT
0 1 0 RC
10.0 ML
2 LW
N
0 -5.332 M
-4.618 2.666 L
4.618 2.666 L
cp
S
GR
GS
[0.75 0 0 0.75 217.5 102.8488] CT
0 1 0 RC
10.0 ML
2 LW
N
0 -5.332 M
-4.618 2.666 L
4.618 2.666 L
cp
S
GR
GS
[0.75 0 0 0.75 240.75 103.4061] CT
0 1 0 RC
10.0 ML
2 LW
N
0 -5.332 M
-4.618 2.666 L
4.618 2.666 L
cp
S
GR
GS
[0.75 0 0 0.75 264 103.81107] CT
0 1 0 RC
10.0 ML
2 LW
N
0 -5.332 M
-4.618 2.666 L
4.618 2.666 L
cp
S
GR
GS
[0.75 0 0 0.75 287.25 103.8513] CT
0 1 0 RC
10.0 ML
2 LW
N
0 -5.332 M
-4.618 2.666 L
4.618 2.666 L
cp
S
GR
GS
[0.75 0 0 0.75 310.5 103.8396] CT
0 1 0 RC
10.0 ML
2 LW
N
0 -5.332 M
-4.618 2.666 L
4.618 2.666 L
cp
S
GR
GS
[0.75 0 0 0.75 333.75 103.8484] CT
0 1 0 RC
10.0 ML
2 LW
N
0 -5.332 M
-4.618 2.666 L
4.618 2.666 L
cp
S
GR
GS
[0.75 0 0 0.75 357 103.86195] CT
0 1 0 RC
10.0 ML
2 LW
N
0 -5.332 M
-4.618 2.666 L
4.618 2.666 L
cp
S
GR
GS
[0.75 0 0 0.75 380.25 103.86344] CT
0 1 0 RC
10.0 ML
2 LW
N
0 -5.332 M
-4.618 2.666 L
4.618 2.666 L
cp
S
GR
GS
[0.75 0 0 0.75 0 -0.25] CT
0 0 0.173 RC
[8 2 4 2] 0 setdash
2 LJ
2 LW
N
127.514 19.976 M
135 46.649 L
166 96.395 L
197 120.04 L
228 131.523 L
259 135.3 L
290 137.465 L
321 138.208 L
352 138.748 L
383 138.802 L
414 138.786 L
445 138.798 L
476 138.816 L
507 138.818 L
S
GR
GS
[0.75 0 0 0.75 101.25 34.7371] CT
0 0 0.173 RC
10.0 ML
2 LW
N
-3.804 -1.236 M
-0.94 -1.236 L
0 -4 L
0.94 -1.236 L
3.804 -1.236 L
1.522 0.494 L
2.351 3.236 L
0 1.6 L
-2.351 3.236 L
-1.522 0.494 L
cp
S
GR
GS
[0.75 0 0 0.75 124.5 72.04601] CT
0 0 0.173 RC
10.0 ML
2 LW
N
-3.804 -1.236 M
-0.94 -1.236 L
0 -4 L
0.94 -1.236 L
3.804 -1.236 L
1.522 0.494 L
2.351 3.236 L
0 1.6 L
-2.351 3.236 L
-1.522 0.494 L
cp
S
GR
GS
[0.75 0 0 0.75 147.75 89.78008] CT
0 0 0.173 RC
10.0 ML
2 LW
N
-3.804 -1.236 M
-0.94 -1.236 L
0 -4 L
0.94 -1.236 L
3.804 -1.236 L
1.522 0.494 L
2.351 3.236 L
0 1.6 L
-2.351 3.236 L
-1.522 0.494 L
cp
S
GR
GS
[0.75 0 0 0.75 171 98.39242] CT
0 0 0.173 RC
10.0 ML
2 LW
N
-3.804 -1.236 M
-0.94 -1.236 L
0 -4 L
0.94 -1.236 L
3.804 -1.236 L
1.522 0.494 L
2.351 3.236 L
0 1.6 L
-2.351 3.236 L
-1.522 0.494 L
cp
S
GR
GS
[0.75 0 0 0.75 194.25 101.22532] CT
0 0 0.173 RC
10.0 ML
2 LW
N
-3.804 -1.236 M
-0.94 -1.236 L
0 -4 L
0.94 -1.236 L
3.804 -1.236 L
1.522 0.494 L
2.351 3.236 L
0 1.6 L
-2.351 3.236 L
-1.522 0.494 L
cp
S
GR
GS
[0.75 0 0 0.75 217.5 102.8488] CT
0 0 0.173 RC
10.0 ML
2 LW
N
-3.804 -1.236 M
-0.94 -1.236 L
0 -4 L
0.94 -1.236 L
3.804 -1.236 L
1.522 0.494 L
2.351 3.236 L
0 1.6 L
-2.351 3.236 L
-1.522 0.494 L
cp
S
GR
GS
[0.75 0 0 0.75 240.75 103.4061] CT
0 0 0.173 RC
10.0 ML
2 LW
N
-3.804 -1.236 M
-0.94 -1.236 L
0 -4 L
0.94 -1.236 L
3.804 -1.236 L
1.522 0.494 L
2.351 3.236 L
0 1.6 L
-2.351 3.236 L
-1.522 0.494 L
cp
S
GR
GS
[0.75 0 0 0.75 264 103.81107] CT
0 0 0.173 RC
10.0 ML
2 LW
N
-3.804 -1.236 M
-0.94 -1.236 L
0 -4 L
0.94 -1.236 L
3.804 -1.236 L
1.522 0.494 L
2.351 3.236 L
0 1.6 L
-2.351 3.236 L
-1.522 0.494 L
cp
S
GR
GS
[0.75 0 0 0.75 287.25 103.8513] CT
0 0 0.173 RC
10.0 ML
2 LW
N
-3.804 -1.236 M
-0.94 -1.236 L
0 -4 L
0.94 -1.236 L
3.804 -1.236 L
1.522 0.494 L
2.351 3.236 L
0 1.6 L
-2.351 3.236 L
-1.522 0.494 L
cp
S
GR
GS
[0.75 0 0 0.75 310.5 103.8396] CT
0 0 0.173 RC
10.0 ML
2 LW
N
-3.804 -1.236 M
-0.94 -1.236 L
0 -4 L
0.94 -1.236 L
3.804 -1.236 L
1.522 0.494 L
2.351 3.236 L
0 1.6 L
-2.351 3.236 L
-1.522 0.494 L
cp
S
GR
GS
[0.75 0 0 0.75 333.75 103.8484] CT
0 0 0.173 RC
10.0 ML
2 LW
N
-3.804 -1.236 M
-0.94 -1.236 L
0 -4 L
0.94 -1.236 L
3.804 -1.236 L
1.522 0.494 L
2.351 3.236 L
0 1.6 L
-2.351 3.236 L
-1.522 0.494 L
cp
S
GR
GS
[0.75 0 0 0.75 357 103.86195] CT
0 0 0.173 RC
10.0 ML
2 LW
N
-3.804 -1.236 M
-0.94 -1.236 L
0 -4 L
0.94 -1.236 L
3.804 -1.236 L
1.522 0.494 L
2.351 3.236 L
0 1.6 L
-2.351 3.236 L
-1.522 0.494 L
cp
S
GR
GS
[0.75 0 0 0.75 380.25 103.86344] CT
0 0 0.173 RC
10.0 ML
2 LW
N
-3.804 -1.236 M
-0.94 -1.236 L
0 -4 L
0.94 -1.236 L
3.804 -1.236 L
1.522 0.494 L
2.351 3.236 L
0 1.6 L
-2.351 3.236 L
-1.522 0.494 L
cp
S
GR
GS
[0.75 0 0 0.75 0 -0.25] CT
1 0.102 0.725 RC
[2 2] 0 setdash
2 LJ
2 LW
N
73 119.5 M
104 119.5 L
135 119.5 L
166 119.5 L
197 119.5 L
228 119.5 L
259 119.5 L
290 119.5 L
321 119.5 L
352 119.5 L
383 119.5 L
414 119.5 L
445 119.5 L
476 119.5 L
507 119.5 L
S
GR
GS
[0.75 0 0 0.75 0 -0.25] CT
1 GC
N
326 108 M
326 33 L
494 33 L
494 108 L
cp
f
GR
GS
[0.75 0 0 0.75 272.36922 32.52064] CT
N
0.547 3.456 M
0.547 2.737 L
2.063 2.737 L
2.063 -5.435 L
0.547 -5.435 L
0.547 -6.153 L
5.719 -6.153 L
6.688 -6.153 7.664 -5.911 QT
8.641 -5.669 9.336 -5.075 QT
10.031 -4.482 10.031 -3.528 QT
10.031 -2.669 9.367 -2.107 QT
8.703 -1.544 7.766 -1.294 QT
8.156 -1.138 8.484 -0.896 QT
8.813 -0.653 9.016 -0.31 QT
9.219 0.034 9.281 0.44 QT
9.438 1.659 L
9.531 2.284 9.75 2.667 QT
9.969 3.05 10.469 3.05 QT
10.844 3.05 11.07 2.737 QT
11.297 2.425 11.297 2.034 QT
11.344 1.862 11.531 1.815 QT
11.781 1.815 L
12.016 1.862 12.016 2.097 QT
12.016 2.487 11.797 2.847 QT
11.578 3.206 11.227 3.409 QT
10.875 3.612 10.469 3.612 QT
9.641 3.612 8.938 3.479 QT
8.234 3.347 7.734 2.933 QT
7.234 2.518 7.234 1.722 QT
7.234 0.503 L
7.234 0.065 7.031 -0.294 QT
6.828 -0.653 6.469 -0.864 QT
6.109 -1.075 5.688 -1.075 QT
4.016 -1.075 L
4.016 2.737 L
5.531 2.737 L
5.531 3.456 L
0.547 3.456 L
cp
4.016 -1.622 M
5.438 -1.622 L
6.063 -1.622 6.484 -1.692 QT
6.906 -1.763 7.211 -1.958 QT
7.516 -2.153 7.68 -2.528 QT
7.844 -2.903 7.844 -3.528 QT
7.844 -4.357 7.57 -4.763 QT
7.297 -5.169 6.797 -5.302 QT
6.297 -5.435 5.438 -5.435 QT
4.016 -5.435 L
4.016 -1.622 L
cp
f
GR
GS
[0.75 0 0 0.75 272.36922 32.52064] CT
N
12.873 0.409 M
12.873 -0.622 13.342 -1.372 QT
13.811 -2.122 14.623 -2.505 QT
15.436 -2.888 16.436 -2.888 QT
17.201 -2.888 17.85 -2.669 QT
18.498 -2.45 18.99 -2.028 QT
19.482 -1.607 19.748 -0.989 QT
20.014 -0.372 20.014 0.409 QT
20.014 1.159 19.732 1.753 QT
19.451 2.347 18.959 2.745 QT
18.467 3.143 17.811 3.339 QT
17.154 3.534 16.436 3.534 QT
15.717 3.534 15.076 3.339 QT
14.436 3.143 13.936 2.745 QT
13.436 2.347 13.154 1.753 QT
12.873 1.159 12.873 0.409 QT
cp
16.436 2.925 M
17.232 2.925 17.615 2.55 QT
17.998 2.175 18.084 1.636 QT
18.17 1.097 18.17 0.222 QT
18.17 -0.435 18.115 -0.841 QT
18.061 -1.247 17.904 -1.583 QT
17.748 -1.919 17.396 -2.122 QT
17.045 -2.325 16.436 -2.325 QT
15.826 -2.325 15.475 -2.122 QT
15.123 -1.919 14.967 -1.567 QT
14.811 -1.216 14.764 -0.786 QT
14.717 -0.357 14.717 0.222 QT
14.717 1.097 14.803 1.636 QT
14.889 2.175 15.264 2.55 QT
15.639 2.925 16.436 2.925 QT
cp
f
GR
GS
[0.75 0 0 0.75 272.36922 32.52064] CT
N
22.262 1.831 M
22.262 -1.622 L
22.262 -2.013 21.309 -2.013 QT
21.309 -2.732 L
23.919 -2.841 L
23.919 1.768 L
23.919 2.347 23.989 2.573 QT
24.059 2.8 24.294 2.886 QT
24.528 2.972 25.075 2.972 QT
25.778 2.972 26.247 2.448 QT
26.716 1.925 26.716 1.222 QT
26.716 -1.622 L
26.716 -2.013 25.747 -2.013 QT
25.747 -2.732 L
28.372 -2.841 L
28.372 2.347 L
28.372 2.597 28.645 2.667 QT
28.919 2.737 29.341 2.737 QT
29.341 3.456 L
26.809 3.534 L
26.809 2.503 L
26.497 2.987 25.997 3.261 QT
25.497 3.534 24.95 3.534 QT
24.45 3.534 23.973 3.479 QT
23.497 3.425 23.114 3.253 QT
22.731 3.081 22.497 2.729 QT
22.262 2.378 22.262 1.831 QT
cp
f
GR
GS
[0.75 0 0 0.75 272.36922 32.52064] CT
N
30.509 3.456 M
30.509 2.737 L
31.462 2.737 L
31.462 -1.622 L
31.462 -2.013 30.509 -2.013 QT
30.509 -2.732 L
32.962 -2.841 L
32.962 -1.419 L
33.322 -2.075 33.962 -2.458 QT
34.603 -2.841 35.353 -2.841 QT
36.462 -2.841 37.017 -2.396 QT
37.572 -1.95 37.572 -0.841 QT
37.572 2.737 L
38.54 2.737 L
38.54 3.456 L
34.947 3.456 L
34.947 2.737 L
35.915 2.737 L
35.915 -0.81 L
35.915 -1.45 35.79 -1.872 QT
35.665 -2.294 35.181 -2.294 QT
34.619 -2.294 34.142 -1.997 QT
33.665 -1.7 33.392 -1.224 QT
33.119 -0.747 33.119 -0.2 QT
33.119 2.737 L
34.087 2.737 L
34.087 3.456 L
30.509 3.456 L
cp
f
GR
GS
[0.75 0 0 0.75 272.36922 32.52064] CT
N
39.631 0.347 M
39.631 -0.653 40.092 -1.38 QT
40.553 -2.107 41.35 -2.474 QT
42.147 -2.841 43.131 -2.841 QT
43.631 -2.841 44.115 -2.692 QT
44.6 -2.544 45.006 -2.247 QT
45.006 -5.044 L
45.006 -5.294 44.733 -5.364 QT
44.459 -5.435 44.037 -5.435 QT
44.037 -6.153 L
46.584 -6.263 L
46.584 2.347 L
46.584 2.597 46.858 2.667 QT
47.131 2.737 47.537 2.737 QT
47.537 3.456 L
44.928 3.534 L
44.928 2.862 L
44.053 3.534 42.959 3.534 QT
41.49 3.534 40.561 2.675 QT
39.631 1.815 39.631 0.347 QT
cp
43.115 2.972 M
43.662 2.972 44.147 2.706 QT
44.631 2.44 44.928 1.987 QT
44.928 -1.466 L
44.631 -1.857 44.209 -2.075 QT
43.787 -2.294 43.303 -2.294 QT
42.522 -2.294 42.123 -1.927 QT
41.725 -1.56 41.6 -0.997 QT
41.475 -0.435 41.475 0.315 QT
41.475 0.362 L
41.475 1.55 41.779 2.261 QT
42.084 2.972 43.115 2.972 QT
cp
f
GR
GS
[0.75 0 0 0.75 272.36922 32.52064] CT
N
55.242 1.815 M
55.242 -2.044 L
54.117 -2.044 L
54.117 -2.607 L
54.632 -2.607 55.023 -2.864 QT
55.413 -3.122 55.663 -3.536 QT
55.913 -3.95 56.046 -4.442 QT
56.179 -4.935 56.179 -5.435 QT
56.882 -5.435 L
56.882 -2.763 L
58.898 -2.763 L
58.898 -2.044 L
56.882 -2.044 L
56.882 1.768 L
56.882 2.284 57.054 2.604 QT
57.226 2.925 57.663 2.925 QT
58.054 2.925 58.257 2.565 QT
58.46 2.206 58.46 1.768 QT
58.46 0.987 L
59.163 0.987 L
59.163 1.815 L
59.163 2.268 58.937 2.667 QT
58.71 3.065 58.335 3.3 QT
57.96 3.534 57.507 3.534 QT
56.538 3.534 55.89 3.136 QT
55.242 2.737 55.242 1.815 QT
cp
f
GR
GS
[0.75 0 0 0.75 272.36922 32.52064] CT
N
60.713 0.409 M
60.713 -0.622 61.182 -1.372 QT
61.65 -2.122 62.463 -2.505 QT
63.275 -2.888 64.275 -2.888 QT
65.041 -2.888 65.689 -2.669 QT
66.338 -2.45 66.83 -2.028 QT
67.322 -1.607 67.588 -0.989 QT
67.853 -0.372 67.853 0.409 QT
67.853 1.159 67.572 1.753 QT
67.291 2.347 66.799 2.745 QT
66.307 3.143 65.65 3.339 QT
64.994 3.534 64.275 3.534 QT
63.557 3.534 62.916 3.339 QT
62.275 3.143 61.775 2.745 QT
61.275 2.347 60.994 1.753 QT
60.713 1.159 60.713 0.409 QT
cp
64.275 2.925 M
65.072 2.925 65.455 2.55 QT
65.838 2.175 65.924 1.636 QT
66.01 1.097 66.01 0.222 QT
66.01 -0.435 65.955 -0.841 QT
65.9 -1.247 65.744 -1.583 QT
65.588 -1.919 65.236 -2.122 QT
64.885 -2.325 64.275 -2.325 QT
63.666 -2.325 63.314 -2.122 QT
62.963 -1.919 62.807 -1.567 QT
62.65 -1.216 62.603 -0.786 QT
62.557 -0.357 62.557 0.222 QT
62.557 1.097 62.642 1.636 QT
62.728 2.175 63.103 2.55 QT
63.478 2.925 64.275 2.925 QT
cp
f
GR
GS
[0.75 0 0 0.75 272.36922 32.52064] CT
N
74.763 3.456 M
74.653 3.456 74.583 3.386 QT
74.513 3.315 74.513 3.206 QT
74.513 3.05 L
74.513 2.956 74.575 2.878 QT
78.466 -2.2 L
77.575 -2.2 L
76.81 -2.2 76.356 -2.036 QT
75.903 -1.872 75.677 -1.45 QT
75.45 -1.028 75.45 -0.263 QT
74.731 -0.263 L
74.903 -2.763 L
80.231 -2.763 L
80.356 -2.763 80.419 -2.692 QT
80.481 -2.622 80.481 -2.513 QT
80.481 -2.388 L
80.481 -2.341 80.435 -2.216 QT
76.528 2.847 L
77.513 2.847 L
77.935 2.847 78.192 2.815 QT
78.45 2.784 78.747 2.683 QT
79.044 2.581 79.263 2.362 QT
79.56 2.081 79.661 1.667 QT
79.763 1.253 79.81 0.565 QT
80.528 0.565 L
80.278 3.456 L
74.763 3.456 L
cp
f
GR
GS
[0.75 0 0 0.75 272.36922 32.52064] CT
N
81.873 0.3 M
81.873 -0.669 82.326 -1.396 QT
82.779 -2.122 83.568 -2.505 QT
84.357 -2.888 85.326 -2.888 QT
86.295 -2.888 86.966 -2.544 QT
87.638 -2.2 87.99 -1.528 QT
88.341 -0.857 88.341 0.128 QT
88.341 0.331 88.107 0.409 QT
83.716 0.409 L
83.716 1.175 83.888 1.729 QT
84.06 2.284 84.513 2.604 QT
84.966 2.925 85.732 2.925 QT
86.123 2.925 86.521 2.784 QT
86.92 2.643 87.209 2.378 QT
87.498 2.112 87.638 1.737 QT
87.716 1.597 87.841 1.565 QT
88.107 1.565 L
88.341 1.612 88.341 1.815 QT
88.341 1.831 88.326 1.909 QT
88.138 2.456 87.701 2.823 QT
87.263 3.19 86.693 3.362 QT
86.123 3.534 85.545 3.534 QT
84.545 3.534 83.701 3.167 QT
82.857 2.8 82.365 2.073 QT
81.873 1.347 81.873 0.3 QT
cp
83.716 -0.107 M
86.951 -0.107 L
86.951 -1.028 86.568 -1.677 QT
86.185 -2.325 85.326 -2.325 QT
84.451 -2.325 84.084 -1.685 QT
83.716 -1.044 83.716 -0.107 QT
cp
f
GR
GS
[0.75 0 0 0.75 272.36922 32.52064] CT
N
89.51 3.456 M
89.51 2.737 L
90.463 2.737 L
90.463 -1.622 L
90.463 -2.013 89.51 -2.013 QT
89.51 -2.732 L
91.885 -2.841 L
91.885 -1.419 L
92.135 -2.06 92.58 -2.45 QT
93.025 -2.841 93.65 -2.841 QT
94.244 -2.841 94.72 -2.536 QT
95.197 -2.232 95.197 -1.669 QT
95.197 -1.31 94.947 -1.052 QT
94.697 -0.794 94.322 -0.794 QT
93.931 -0.794 93.681 -1.052 QT
93.431 -1.31 93.431 -1.669 QT
93.431 -2.044 93.666 -2.294 QT
93.056 -2.294 92.697 -1.864 QT
92.338 -1.435 92.181 -0.817 QT
92.025 -0.2 92.025 0.362 QT
92.025 2.737 L
93.26 2.737 L
93.26 3.456 L
89.51 3.456 L
cp
f
GR
GS
[0.75 0 0 0.75 272.36922 32.52064] CT
N
96.283 0.409 M
96.283 -0.622 96.751 -1.372 QT
97.22 -2.122 98.033 -2.505 QT
98.845 -2.888 99.845 -2.888 QT
100.611 -2.888 101.259 -2.669 QT
101.908 -2.45 102.4 -2.028 QT
102.892 -1.607 103.158 -0.989 QT
103.423 -0.372 103.423 0.409 QT
103.423 1.159 103.142 1.753 QT
102.861 2.347 102.369 2.745 QT
101.876 3.143 101.22 3.339 QT
100.564 3.534 99.845 3.534 QT
99.126 3.534 98.486 3.339 QT
97.845 3.143 97.345 2.745 QT
96.845 2.347 96.564 1.753 QT
96.283 1.159 96.283 0.409 QT
cp
99.845 2.925 M
100.642 2.925 101.025 2.55 QT
101.408 2.175 101.494 1.636 QT
101.58 1.097 101.58 0.222 QT
101.58 -0.435 101.525 -0.841 QT
101.47 -1.247 101.314 -1.583 QT
101.158 -1.919 100.806 -2.122 QT
100.455 -2.325 99.845 -2.325 QT
99.236 -2.325 98.884 -2.122 QT
98.533 -1.919 98.376 -1.567 QT
98.22 -1.216 98.173 -0.786 QT
98.126 -0.357 98.126 0.222 QT
98.126 1.097 98.212 1.636 QT
98.298 2.175 98.673 2.55 QT
99.048 2.925 99.845 2.925 QT
cp
f
GR
GS
[0.75 0 0 0.75 0 -0.25] CT
0 0 1 RC
[8 2 4 2] 0 setdash
2 LJ
2 LW
N
330.017 43.694 M
360.146 43.694 L
S
GR
GS
[0.75 0 0 0.75 258.81123 32.52064] CT
0 0 1 RC
10.0 ML
2 LW
N
0 -4 M
0 4 L
-4 0 M
4 0 L
-2.828 -2.828 M
2.828 2.828 L
-2.828 2.828 M
2.828 -2.828 L
S
GR
GS
[0.75 0 0 0.75 272.36922 45.92354] CT
N
/f-299940385{0.547 3.456 M
0.547 2.737 L
2.063 2.737 L
2.063 -5.435 L
0.547 -5.435 L
0.547 -6.153 L
5.719 -6.153 L
6.688 -6.153 7.664 -5.911 QT
8.641 -5.669 9.336 -5.075 QT
10.031 -4.482 10.031 -3.528 QT
10.031 -2.669 9.367 -2.107 QT
8.703 -1.544 7.766 -1.294 QT
8.156 -1.138 8.484 -0.896 QT
8.813 -0.653 9.016 -0.31 QT
9.219 0.034 9.281 0.44 QT
9.438 1.659 L
9.531 2.284 9.75 2.667 QT
9.969 3.05 10.469 3.05 QT
10.844 3.05 11.07 2.737 QT
11.297 2.425 11.297 2.034 QT
11.344 1.862 11.531 1.815 QT
11.781 1.815 L
12.016 1.862 12.016 2.097 QT
12.016 2.487 11.797 2.847 QT
11.578 3.206 11.227 3.409 QT
10.875 3.612 10.469 3.612 QT
9.641 3.612 8.938 3.479 QT
8.234 3.347 7.734 2.933 QT
7.234 2.518 7.234 1.722 QT
7.234 0.503 L
7.234 0.065 7.031 -0.294 QT
6.828 -0.653 6.469 -0.864 QT
6.109 -1.075 5.688 -1.075 QT
4.016 -1.075 L
4.016 2.737 L
5.531 2.737 L
5.531 3.456 L
0.547 3.456 L
cp
4.016 -1.622 M
5.438 -1.622 L
6.063 -1.622 6.484 -1.692 QT
6.906 -1.763 7.211 -1.958 QT
7.516 -2.153 7.68 -2.528 QT
7.844 -2.903 7.844 -3.528 QT
7.844 -4.357 7.57 -4.763 QT
7.297 -5.169 6.797 -5.302 QT
6.297 -5.435 5.438 -5.435 QT
4.016 -5.435 L
4.016 -1.622 L
cp}def
f-299940385
f
GR
GS
[0.75 0 0 0.75 272.36922 45.92354] CT
N
/f258681888{12.873 0.409 M
12.873 -0.622 13.342 -1.372 QT
13.811 -2.122 14.623 -2.505 QT
15.436 -2.888 16.436 -2.888 QT
17.201 -2.888 17.85 -2.669 QT
18.498 -2.45 18.99 -2.028 QT
19.482 -1.607 19.748 -0.989 QT
20.014 -0.372 20.014 0.409 QT
20.014 1.159 19.732 1.753 QT
19.451 2.347 18.959 2.745 QT
18.467 3.143 17.811 3.339 QT
17.154 3.534 16.436 3.534 QT
15.717 3.534 15.076 3.339 QT
14.436 3.143 13.936 2.745 QT
13.436 2.347 13.154 1.753 QT
12.873 1.159 12.873 0.409 QT
cp
16.436 2.925 M
17.232 2.925 17.615 2.55 QT
17.998 2.175 18.084 1.636 QT
18.17 1.097 18.17 0.222 QT
18.17 -0.435 18.115 -0.841 QT
18.061 -1.247 17.904 -1.583 QT
17.748 -1.919 17.396 -2.122 QT
17.045 -2.325 16.436 -2.325 QT
15.826 -2.325 15.475 -2.122 QT
15.123 -1.919 14.967 -1.567 QT
14.811 -1.216 14.764 -0.786 QT
14.717 -0.357 14.717 0.222 QT
14.717 1.097 14.803 1.636 QT
14.889 2.175 15.264 2.55 QT
15.639 2.925 16.436 2.925 QT
cp}def
f258681888
f
GR
GS
[0.75 0 0 0.75 272.36922 45.92354] CT
N
/f-1461708227{22.262 1.831 M
22.262 -1.622 L
22.262 -2.013 21.309 -2.013 QT
21.309 -2.732 L
23.919 -2.841 L
23.919 1.768 L
23.919 2.347 23.989 2.573 QT
24.059 2.8 24.294 2.886 QT
24.528 2.972 25.075 2.972 QT
25.778 2.972 26.247 2.448 QT
26.716 1.925 26.716 1.222 QT
26.716 -1.622 L
26.716 -2.013 25.747 -2.013 QT
25.747 -2.732 L
28.372 -2.841 L
28.372 2.347 L
28.372 2.597 28.645 2.667 QT
28.919 2.737 29.341 2.737 QT
29.341 3.456 L
26.809 3.534 L
26.809 2.503 L
26.497 2.987 25.997 3.261 QT
25.497 3.534 24.95 3.534 QT
24.45 3.534 23.973 3.479 QT
23.497 3.425 23.114 3.253 QT
22.731 3.081 22.497 2.729 QT
22.262 2.378 22.262 1.831 QT
cp}def
f-1461708227
f
GR
GS
[0.75 0 0 0.75 272.36922 45.92354] CT
N
/f-1609468869{30.509 3.456 M
30.509 2.737 L
31.462 2.737 L
31.462 -1.622 L
31.462 -2.013 30.509 -2.013 QT
30.509 -2.732 L
32.962 -2.841 L
32.962 -1.419 L
33.322 -2.075 33.962 -2.458 QT
34.603 -2.841 35.353 -2.841 QT
36.462 -2.841 37.017 -2.396 QT
37.572 -1.95 37.572 -0.841 QT
37.572 2.737 L
38.54 2.737 L
38.54 3.456 L
34.947 3.456 L
34.947 2.737 L
35.915 2.737 L
35.915 -0.81 L
35.915 -1.45 35.79 -1.872 QT
35.665 -2.294 35.181 -2.294 QT
34.619 -2.294 34.142 -1.997 QT
33.665 -1.7 33.392 -1.224 QT
33.119 -0.747 33.119 -0.2 QT
33.119 2.737 L
34.087 2.737 L
34.087 3.456 L
30.509 3.456 L
cp}def
f-1609468869
f
GR
GS
[0.75 0 0 0.75 272.36922 45.92354] CT
N
/f-811013513{39.631 0.347 M
39.631 -0.653 40.092 -1.38 QT
40.553 -2.107 41.35 -2.474 QT
42.147 -2.841 43.131 -2.841 QT
43.631 -2.841 44.115 -2.692 QT
44.6 -2.544 45.006 -2.247 QT
45.006 -5.044 L
45.006 -5.294 44.733 -5.364 QT
44.459 -5.435 44.037 -5.435 QT
44.037 -6.153 L
46.584 -6.263 L
46.584 2.347 L
46.584 2.597 46.858 2.667 QT
47.131 2.737 47.537 2.737 QT
47.537 3.456 L
44.928 3.534 L
44.928 2.862 L
44.053 3.534 42.959 3.534 QT
41.49 3.534 40.561 2.675 QT
39.631 1.815 39.631 0.347 QT
cp
43.115 2.972 M
43.662 2.972 44.147 2.706 QT
44.631 2.44 44.928 1.987 QT
44.928 -1.466 L
44.631 -1.857 44.209 -2.075 QT
43.787 -2.294 43.303 -2.294 QT
42.522 -2.294 42.123 -1.927 QT
41.725 -1.56 41.6 -0.997 QT
41.475 -0.435 41.475 0.315 QT
41.475 0.362 L
41.475 1.55 41.779 2.261 QT
42.084 2.972 43.115 2.972 QT
cp}def
f-811013513
f
GR
GS
[0.75 0 0 0.75 272.36922 45.92354] CT
N
/f1454686734{55.242 1.815 M
55.242 -2.044 L
54.117 -2.044 L
54.117 -2.607 L
54.632 -2.607 55.023 -2.864 QT
55.413 -3.122 55.663 -3.536 QT
55.913 -3.95 56.046 -4.442 QT
56.179 -4.935 56.179 -5.435 QT
56.882 -5.435 L
56.882 -2.763 L
58.898 -2.763 L
58.898 -2.044 L
56.882 -2.044 L
56.882 1.768 L
56.882 2.284 57.054 2.604 QT
57.226 2.925 57.663 2.925 QT
58.054 2.925 58.257 2.565 QT
58.46 2.206 58.46 1.768 QT
58.46 0.987 L
59.163 0.987 L
59.163 1.815 L
59.163 2.268 58.937 2.667 QT
58.71 3.065 58.335 3.3 QT
57.96 3.534 57.507 3.534 QT
56.538 3.534 55.89 3.136 QT
55.242 2.737 55.242 1.815 QT
cp}def
f1454686734
f
GR
GS
[0.75 0 0 0.75 272.36922 45.92354] CT
N
/f1313505849{60.713 0.409 M
60.713 -0.622 61.182 -1.372 QT
61.65 -2.122 62.463 -2.505 QT
63.275 -2.888 64.275 -2.888 QT
65.041 -2.888 65.689 -2.669 QT
66.338 -2.45 66.83 -2.028 QT
67.322 -1.607 67.588 -0.989 QT
67.853 -0.372 67.853 0.409 QT
67.853 1.159 67.572 1.753 QT
67.291 2.347 66.799 2.745 QT
66.307 3.143 65.65 3.339 QT
64.994 3.534 64.275 3.534 QT
63.557 3.534 62.916 3.339 QT
62.275 3.143 61.775 2.745 QT
61.275 2.347 60.994 1.753 QT
60.713 1.159 60.713 0.409 QT
cp
64.275 2.925 M
65.072 2.925 65.455 2.55 QT
65.838 2.175 65.924 1.636 QT
66.01 1.097 66.01 0.222 QT
66.01 -0.435 65.955 -0.841 QT
65.9 -1.247 65.744 -1.583 QT
65.588 -1.919 65.236 -2.122 QT
64.885 -2.325 64.275 -2.325 QT
63.666 -2.325 63.314 -2.122 QT
62.963 -1.919 62.807 -1.567 QT
62.65 -1.216 62.603 -0.786 QT
62.557 -0.357 62.557 0.222 QT
62.557 1.097 62.642 1.636 QT
62.728 2.175 63.103 2.55 QT
63.478 2.925 64.275 2.925 QT
cp}def
f1313505849
f
GR
GS
[0.75 0 0 0.75 272.36922 45.92354] CT
N
/f-1665024848{74.669 3.456 M
74.669 2.737 L
75.622 2.737 L
75.622 -1.622 L
75.622 -2.013 74.669 -2.013 QT
74.669 -2.732 L
77.122 -2.841 L
77.122 -1.419 L
77.481 -2.075 78.122 -2.458 QT
78.763 -2.841 79.513 -2.841 QT
80.622 -2.841 81.177 -2.396 QT
81.731 -1.95 81.731 -0.841 QT
81.731 2.737 L
82.7 2.737 L
82.7 3.456 L
79.106 3.456 L
79.106 2.737 L
80.075 2.737 L
80.075 -0.81 L
80.075 -1.45 79.95 -1.872 QT
79.825 -2.294 79.341 -2.294 QT
78.778 -2.294 78.302 -1.997 QT
77.825 -1.7 77.552 -1.224 QT
77.278 -0.747 77.278 -0.2 QT
77.278 2.737 L
78.247 2.737 L
78.247 3.456 L
74.669 3.456 L
cp}def
f-1665024848
f
GR
GS
[0.75 0 0 0.75 272.36922 45.92354] CT
N
/f1212629718{83.713 0.3 M
83.713 -0.669 84.166 -1.396 QT
84.619 -2.122 85.408 -2.505 QT
86.197 -2.888 87.166 -2.888 QT
88.135 -2.888 88.806 -2.544 QT
89.478 -2.2 89.83 -1.528 QT
90.181 -0.857 90.181 0.128 QT
90.181 0.331 89.947 0.409 QT
85.556 0.409 L
85.556 1.175 85.728 1.729 QT
85.9 2.284 86.353 2.604 QT
86.806 2.925 87.572 2.925 QT
87.963 2.925 88.361 2.784 QT
88.76 2.643 89.049 2.378 QT
89.338 2.112 89.478 1.737 QT
89.556 1.597 89.681 1.565 QT
89.947 1.565 L
90.181 1.612 90.181 1.815 QT
90.181 1.831 90.166 1.909 QT
89.978 2.456 89.541 2.823 QT
89.103 3.19 88.533 3.362 QT
87.963 3.534 87.385 3.534 QT
86.385 3.534 85.541 3.167 QT
84.697 2.8 84.205 2.073 QT
83.713 1.347 83.713 0.3 QT
cp
85.556 -0.107 M
88.791 -0.107 L
88.791 -1.028 88.408 -1.677 QT
88.025 -2.325 87.166 -2.325 QT
86.291 -2.325 85.924 -1.685 QT
85.556 -1.044 85.556 -0.107 QT
cp}def
f1212629718
f
GR
GS
[0.75 0 0 0.75 272.36922 45.92354] CT
N
/f363510174{91.303 1.893 M
91.303 1.222 91.779 0.792 QT
92.256 0.362 92.967 0.128 QT
93.678 -0.107 94.443 -0.192 QT
95.209 -0.278 95.818 -0.278 QT
95.818 -0.81 L
95.818 -1.482 95.443 -1.903 QT
95.068 -2.325 94.412 -2.325 QT
93.756 -2.325 93.35 -2.247 QT
93.646 -1.982 93.646 -1.575 QT
93.646 -1.185 93.381 -0.919 QT
93.115 -0.653 92.74 -0.653 QT
92.35 -0.653 92.092 -0.927 QT
91.834 -1.2 91.834 -1.575 QT
91.834 -2.403 92.6 -2.646 QT
93.365 -2.888 94.412 -2.888 QT
94.959 -2.888 95.475 -2.786 QT
95.99 -2.685 96.451 -2.442 QT
96.912 -2.2 97.193 -1.81 QT
97.475 -1.419 97.475 -0.841 QT
97.475 2.409 L
97.475 2.737 98.443 2.737 QT
98.615 2.784 98.662 2.956 QT
98.662 3.237 L
98.615 3.409 98.443 3.456 QT
97.475 3.456 L
96.928 3.456 96.49 3.268 QT
96.053 3.081 96.053 2.612 QT
96.053 2.456 L
95.756 2.987 95.201 3.261 QT
94.646 3.534 94.006 3.534 QT
92.959 3.534 92.131 3.159 QT
91.303 2.784 91.303 1.893 QT
cp
92.99 1.893 M
92.99 2.362 93.357 2.667 QT
93.725 2.972 94.193 2.972 QT
94.584 2.972 94.959 2.808 QT
95.334 2.643 95.576 2.331 QT
95.818 2.018 95.818 1.628 QT
95.818 0.206 L
95.225 0.206 94.568 0.37 QT
93.912 0.534 93.451 0.909 QT
92.99 1.284 92.99 1.893 QT
cp}def
f363510174
f
GR
GS
[0.75 0 0 0.75 272.36922 45.92354] CT
N
/f129309316{99.399 3.456 M
99.399 2.737 L
100.353 2.737 L
100.353 -1.622 L
100.353 -2.013 99.399 -2.013 QT
99.399 -2.732 L
101.774 -2.841 L
101.774 -1.419 L
102.024 -2.06 102.47 -2.45 QT
102.915 -2.841 103.54 -2.841 QT
104.134 -2.841 104.61 -2.536 QT
105.087 -2.232 105.087 -1.669 QT
105.087 -1.31 104.837 -1.052 QT
104.587 -0.794 104.212 -0.794 QT
103.821 -0.794 103.571 -1.052 QT
103.321 -1.31 103.321 -1.669 QT
103.321 -2.044 103.556 -2.294 QT
102.946 -2.294 102.587 -1.864 QT
102.228 -1.435 102.071 -0.817 QT
101.915 -0.2 101.915 0.362 QT
101.915 2.737 L
103.149 2.737 L
103.149 3.456 L
99.399 3.456 L
cp}def
f129309316
f
GR
GS
[0.75 0 0 0.75 272.36922 45.92354] CT
N
/f1004803080{106.173 0.3 M
106.173 -0.669 106.626 -1.396 QT
107.079 -2.122 107.868 -2.505 QT
108.657 -2.888 109.626 -2.888 QT
110.594 -2.888 111.266 -2.544 QT
111.938 -2.2 112.29 -1.528 QT
112.641 -0.857 112.641 0.128 QT
112.641 0.331 112.407 0.409 QT
108.016 0.409 L
108.016 1.175 108.188 1.729 QT
108.36 2.284 108.813 2.604 QT
109.266 2.925 110.032 2.925 QT
110.423 2.925 110.821 2.784 QT
111.219 2.643 111.508 2.378 QT
111.798 2.112 111.938 1.737 QT
112.016 1.597 112.141 1.565 QT
112.407 1.565 L
112.641 1.612 112.641 1.815 QT
112.641 1.831 112.626 1.909 QT
112.438 2.456 112.001 2.823 QT
111.563 3.19 110.993 3.362 QT
110.423 3.534 109.844 3.534 QT
108.844 3.534 108.001 3.167 QT
107.157 2.8 106.665 2.073 QT
106.173 1.347 106.173 0.3 QT
cp
108.016 -0.107 M
111.251 -0.107 L
111.251 -1.028 110.868 -1.677 QT
110.485 -2.325 109.626 -2.325 QT
108.751 -2.325 108.383 -1.685 QT
108.016 -1.044 108.016 -0.107 QT
cp}def
f1004803080
f
GR
GS
[0.75 0 0 0.75 272.36922 45.92354] CT
N
/f1571070704{113.841 3.362 M
113.841 1.409 L
113.872 1.284 114.028 1.237 QT
114.388 1.237 L
114.528 1.268 114.544 1.362 QT
114.653 1.847 114.911 2.214 QT
115.169 2.581 115.567 2.776 QT
115.966 2.972 116.481 2.972 QT
118.075 2.972 118.075 1.956 QT
118.075 1.675 117.888 1.472 QT
117.7 1.268 117.434 1.143 QT
117.169 1.018 116.903 0.987 QT
115.856 0.8 L
115.341 0.706 114.888 0.479 QT
114.434 0.253 114.138 -0.13 QT
113.841 -0.513 113.841 -1.028 QT
113.841 -1.56 114.067 -1.935 QT
114.294 -2.31 114.677 -2.513 QT
115.059 -2.716 115.513 -2.802 QT
115.966 -2.888 116.481 -2.888 QT
117.309 -2.888 117.809 -2.622 QT
118.325 -2.872 L
118.372 -2.888 L
118.544 -2.888 L
118.669 -2.857 118.716 -2.716 QT
118.716 -1.185 L
118.669 -1.028 118.544 -0.997 QT
118.184 -0.997 L
118.028 -1.028 117.997 -1.185 QT
117.997 -1.81 117.559 -2.099 QT
117.122 -2.388 116.466 -2.388 QT
114.888 -2.388 114.888 -1.544 QT
114.888 -0.966 115.981 -0.732 QT
117.044 -0.544 L
117.575 -0.466 118.052 -0.2 QT
118.528 0.065 118.825 0.503 QT
119.122 0.94 119.122 1.472 QT
119.122 2.206 118.763 2.675 QT
118.403 3.143 117.809 3.339 QT
117.216 3.534 116.481 3.534 QT
115.559 3.534 114.903 3.112 QT
114.231 3.518 L
114.184 3.534 L
114.028 3.534 L
113.872 3.503 113.841 3.362 QT
cp}def
f1571070704
f
GR
GS
[0.75 0 0 0.75 272.36922 45.92354] CT
N
/f1780441466{121.263 1.815 M
121.263 -2.044 L
120.138 -2.044 L
120.138 -2.607 L
120.654 -2.607 121.044 -2.864 QT
121.435 -3.122 121.685 -3.536 QT
121.935 -3.95 122.068 -4.442 QT
122.201 -4.935 122.201 -5.435 QT
122.904 -5.435 L
122.904 -2.763 L
124.919 -2.763 L
124.919 -2.044 L
122.904 -2.044 L
122.904 1.768 L
122.904 2.284 123.076 2.604 QT
123.248 2.925 123.685 2.925 QT
124.076 2.925 124.279 2.565 QT
124.482 2.206 124.482 1.768 QT
124.482 0.987 L
125.185 0.987 L
125.185 1.815 L
125.185 2.268 124.959 2.667 QT
124.732 3.065 124.357 3.3 QT
123.982 3.534 123.529 3.534 QT
122.56 3.534 121.912 3.136 QT
121.263 2.737 121.263 1.815 QT
cp}def
f1780441466
f
GR
GS
[0.75 0 0 0.75 0 -0.25] CT
1 0 0 RC
[8 2 4 2] 0 setdash
2 LJ
2 LW
N
330.017 61.565 M
360.146 61.565 L
S
GR
GS
[0.75 0 0 0.75 258.81123 45.92355] CT
1 0 0 RC
10.0 ML
2 LW
N
-3 -3 M
-3 3 L
3 3 L
3 -3 L
cp
S
GR
GS
[0.75 0 0 0.75 272.36922 59.32645] CT
N
f-299940385
f
GR
GS
[0.75 0 0 0.75 272.36922 59.32645] CT
N
f258681888
f
GR
GS
[0.75 0 0 0.75 272.36922 59.32645] CT
N
f-1461708227
f
GR
GS
[0.75 0 0 0.75 272.36922 59.32645] CT
N
f-1609468869
f
GR
GS
[0.75 0 0 0.75 272.36922 59.32645] CT
N
f-811013513
f
GR
GS
[0.75 0 0 0.75 272.36922 59.32645] CT
N
f1454686734
f
GR
GS
[0.75 0 0 0.75 272.36922 59.32645] CT
N
f1313505849
f
GR
GS
[0.75 0 0 0.75 272.36922 59.32645] CT
N
/f83838869{75.106 0.237 M
74.997 0.237 74.919 0.151 QT
74.841 0.065 74.841 -0.044 QT
74.841 -0.153 74.919 -0.239 QT
74.997 -0.325 75.106 -0.325 QT
79.231 -0.325 L
79.231 -4.45 L
79.231 -4.56 79.31 -4.63 QT
79.388 -4.7 79.513 -4.7 QT
79.606 -4.7 79.7 -4.63 QT
79.794 -4.56 79.794 -4.45 QT
79.794 -0.325 L
83.903 -0.325 L
84.013 -0.325 84.083 -0.239 QT
84.153 -0.153 84.153 -0.044 QT
84.153 0.065 84.083 0.151 QT
84.013 0.237 83.903 0.237 QT
79.794 0.237 L
79.794 4.362 L
79.794 4.472 79.7 4.542 QT
79.606 4.612 79.513 4.612 QT
79.388 4.612 79.31 4.542 QT
79.231 4.472 79.231 4.362 QT
79.231 0.237 L
75.106 0.237 L
cp}def
f83838869
f
GR
GS
[0.75 0 0 0.75 272.36922 59.32645] CT
N
/f-464159618{88.713 3.612 M
87.916 3.612 87.299 3.151 QT
86.682 2.69 86.361 1.948 QT
86.041 1.206 86.041 0.44 QT
86.041 -0.153 86.228 -0.724 QT
86.416 -1.294 86.775 -1.747 QT
87.135 -2.2 87.635 -2.466 QT
88.135 -2.732 88.744 -2.732 QT
89.369 -2.732 89.963 -2.489 QT
90.557 -2.247 91.041 -1.857 QT
91.525 -1.466 91.947 -0.935 QT
92.369 -0.372 L
92.791 -1.044 93.291 -1.567 QT
93.791 -2.091 94.432 -2.411 QT
95.072 -2.732 95.807 -2.732 QT
96.416 -2.732 96.908 -2.458 QT
97.4 -2.185 97.752 -1.724 QT
98.103 -1.263 98.283 -0.7 QT
98.463 -0.138 98.463 0.44 QT
98.463 1.222 98.127 1.956 QT
97.791 2.69 97.182 3.151 QT
96.572 3.612 95.76 3.612 QT
94.838 3.612 94.017 3.12 QT
93.197 2.628 92.557 1.815 QT
92.135 1.253 L
91.494 2.3 90.619 2.956 QT
89.744 3.612 88.713 3.612 QT
cp
88.557 3.128 M
90.338 3.128 91.744 0.737 QT
91.01 -0.2 L
90.353 -1.044 89.807 -1.528 QT
89.26 -2.013 88.525 -2.013 QT
87.9 -2.013 87.416 -1.661 QT
86.932 -1.31 86.674 -0.739 QT
86.416 -0.169 86.416 0.44 QT
86.416 0.925 86.557 1.393 QT
86.697 1.862 86.978 2.253 QT
87.26 2.643 87.658 2.886 QT
88.057 3.128 88.557 3.128 QT
cp
93.51 1.081 M
94.15 1.925 94.705 2.401 QT
95.26 2.878 95.978 2.878 QT
96.447 2.878 96.838 2.675 QT
97.228 2.472 97.51 2.12 QT
97.791 1.768 97.947 1.331 QT
98.103 0.893 98.103 0.44 QT
98.103 -0.216 97.838 -0.833 QT
97.572 -1.45 97.088 -1.849 QT
96.603 -2.247 95.947 -2.247 QT
94.166 -2.247 92.76 0.143 QT
93.51 1.081 L
cp}def
f-464159618
f
GR
GS
[0.75 0 0 0.75 0 -0.25] CT
0 1 0 RC
[8 2 4 2] 0 setdash
2 LJ
2 LW
N
330.017 79.435 M
360.146 79.435 L
S
GR
GS
[0.75 0 0 0.75 258.81123 59.32645] CT
0 1 0 RC
10.0 ML
2 LW
N
0 -5.332 M
-4.618 2.666 L
4.618 2.666 L
cp
S
GR
GS
[0.75 0 0 0.75 272.36922 72.72936] CT
N
f-299940385
f
GR
GS
[0.75 0 0 0.75 272.36922 72.72936] CT
N
f258681888
f
GR
GS
[0.75 0 0 0.75 272.36922 72.72936] CT
N
f-1461708227
f
GR
GS
[0.75 0 0 0.75 272.36922 72.72936] CT
N
f-1609468869
f
GR
GS
[0.75 0 0 0.75 272.36922 72.72936] CT
N
f-811013513
f
GR
GS
[0.75 0 0 0.75 272.36922 72.72936] CT
N
f1454686734
f
GR
GS
[0.75 0 0 0.75 272.36922 72.72936] CT
N
f1313505849
f
GR
GS
[0.75 0 0 0.75 272.36922 72.72936] CT
N
/f-379348827{75.481 0.237 M
75.372 0.237 75.294 0.151 QT
75.216 0.065 75.216 -0.044 QT
75.216 -0.153 75.294 -0.239 QT
75.372 -0.325 75.481 -0.325 QT
83.528 -0.325 L
83.638 -0.325 83.708 -0.239 QT
83.778 -0.153 83.778 -0.044 QT
83.778 0.065 83.708 0.151 QT
83.638 0.237 83.528 0.237 QT
75.481 0.237 L
cp}def
f-379348827
f
GR
GS
[0.75 0 0 0.75 272.36922 72.72936] CT
N
f-464159618
f
GR
GS
[0.75 0 0 0.75 0 -0.25] CT
0 0 0.173 RC
[8 2 4 2] 0 setdash
2 LJ
2 LW
N
330.017 97.306 M
360.146 97.306 L
S
GR
GS
[0.75 0 0 0.75 258.81123 72.72936] CT
0 0 0.173 RC
10.0 ML
2 LW
N
-3.804 -1.236 M
-0.94 -1.236 L
0 -4 L
0.94 -1.236 L
3.804 -1.236 L
1.522 0.494 L
2.351 3.236 L
0 1.6 L
-2.351 3.236 L
-1.522 0.494 L
cp
S
GR
GS
[0.75 0 0 0.75 0 -0.25] CT
0.149 GC
10.0 ML
0.667 LW
N
326 108 M
326 33 L
494 33 L
494 108 L
cp
S
GR
%%Trailer
%%Pages: 1
%%EOF
